Date,Station,Rain Level
2013-01-01,18,0
2013-01-02,18,0
2013-01-03,18,0
2013-01-04,18,0
2013-01-05,18,0
2013-01-06,18,0
2013-01-07,18,0
2013-01-08,18,0
2013-01-09,18,0
2013-01-10,18,0
2013-01-11,18,0
2013-01-12,18,0
2013-01-13,18,0
2013-01-14,18,0
2013-01-15,18,0
2013-01-16,18,0
2013-01-17,18,0
2013-01-18,18,0
2013-01-19,18,0
2013-01-20,18,0
2013-01-21,18,0
2013-01-22,18,0
2013-01-23,18,0
2013-01-24,18,0
2013-01-25,18,0
2013-01-26,18,0
2013-01-27,18,0
2013-01-28,18,0
2013-01-29,18,0
2013-01-30,18,0
2013-01-31,18,0
2013-02-01,18,0
2013-02-02,18,0
2013-02-03,18,0
2013-02-04,18,0
2013-02-05,18,0
2013-02-06,18,0
2013-02-07,18,0
2013-02-08,18,0
2013-02-09,18,0
2013-02-10,18,0
2013-02-11,18,0
2013-02-12,18,0
2013-02-13,18,0
2013-02-14,18,0
2013-02-15,18,0
2013-02-16,18,0
2013-02-17,18,0
2013-02-18,18,0
2013-02-19,18,0
2013-02-20,18,0
2013-02-21,18,0
2013-02-22,18,0
2013-02-23,18,0
2013-02-24,18,0
2013-02-25,18,0
2013-02-26,18,0
2013-02-27,18,0
2013-02-28,18,0
2013-03-01,18,0
2013-03-02,18,0
2013-03-03,18,0
2013-03-04,18,0
2013-03-05,18,0
2013-03-06,18,0
2013-03-07,18,0
2013-03-08,18,0
2013-03-09,18,0
2013-03-10,18,0
2013-03-11,18,0
2013-03-12,18,0
2013-03-13,18,0
2013-03-14,18,0
2013-03-15,18,0
2013-03-16,18,0
2013-03-17,18,0
2013-03-18,18,0
2013-03-19,18,0
2013-03-20,18,0
2013-03-21,18,0
2013-03-22,18,0
2013-03-23,18,0
2013-03-24,18,0
2013-03-25,18,0
2013-03-26,18,0
2013-03-27,18,0
2013-03-28,18,0
2013-03-29,18,0
2013-03-30,18,0
2013-03-31,18,0
2013-04-01,18,0
2013-04-02,18,0
2013-04-03,18,0
2013-04-04,18,0
2013-04-05,18,0
2013-04-06,18,0
2013-04-07,18,0
2013-04-08,18,0
2013-04-09,18,0
2013-04-10,18,0
2013-04-11,18,0
2013-04-12,18,0
2013-04-13,18,0
2013-04-14,18,0
2013-04-15,18,0
2013-04-16,18,0
2013-04-17,18,0
2013-04-18,18,0
2013-04-19,18,0
2013-04-20,18,0
2013-04-21,18,0
2013-04-22,18,0
2013-04-23,18,0
2013-04-24,18,0
2013-04-25,18,0
2013-04-26,18,0
2013-04-27,18,0
2013-04-28,18,0
2013-04-29,18,0
2013-04-30,18,0
2013-05-01,18,0
2013-05-02,18,0
2013-05-03,18,0
2013-05-04,18,0
2013-05-05,18,0
2013-05-06,18,0
2013-05-07,18,0
2013-05-08,18,0
2013-05-09,18,0
2013-05-10,18,0
2013-05-11,18,0
2013-05-12,18,0
2013-05-13,18,0
2013-05-14,18,0
2013-05-15,18,0
2013-05-16,18,0
2013-05-17,18,0
2013-05-18,18,0
2013-05-19,18,0
2013-05-20,18,0
2013-05-21,18,0
2013-05-22,18,0
2013-05-23,18,0
2013-05-24,18,0
2013-05-25,18,0
2013-05-26,18,0
2013-05-27,18,0
2013-05-28,18,0
2013-05-29,18,0
2013-05-30,18,0
2013-05-31,18,0
2013-06-01,18,0
2013-06-02,18,0
2013-06-03,18,0
2013-06-04,18,0
2013-06-05,18,0
2013-06-06,18,0
2013-06-07,18,0
2013-06-08,18,0
2013-06-09,18,0
2013-06-10,18,0
2013-06-11,18,0
2013-06-12,18,0
2013-06-13,18,0
2013-06-14,18,0
2013-06-15,18,0
2013-06-16,18,0
2013-06-17,18,0
2013-06-18,18,0
2013-06-19,18,0
2013-06-20,18,0
2013-06-21,18,0
2013-06-22,18,0
2013-06-23,18,0
2013-06-24,18,0
2013-06-25,18,0
2013-06-26,18,0
2013-06-27,18,0
2013-06-28,18,0
2013-06-29,18,0
2013-06-30,18,0
2013-07-01,18,0
2013-07-02,18,0
2013-07-03,18,0
2013-07-04,18,0
2013-07-05,18,0
2013-07-06,18,0
2013-07-07,18,0
2013-07-08,18,0
2013-07-09,18,0
2013-07-10,18,0
2013-07-11,18,0
2013-07-12,18,0
2013-07-13,18,0
2013-07-14,18,0
2013-07-15,18,0
2013-07-16,18,0
2013-07-17,18,0
2013-07-18,18,0
2013-07-19,18,0
2013-07-20,18,0
2013-07-21,18,0
2013-07-22,18,0
2013-07-23,18,0
2013-07-24,18,0
2013-07-25,18,0
2013-07-26,18,0
2013-07-27,18,0
2013-07-28,18,0
2013-07-29,18,0
2013-07-30,18,0
2013-07-31,18,0
2013-08-01,18,0
2013-08-02,18,0
2013-08-03,18,0
2013-08-04,18,0
2013-08-05,18,0
2013-08-06,18,0
2013-08-07,18,0
2013-08-08,18,0
2013-08-09,18,0
2013-08-10,18,0
2013-08-11,18,0
2013-08-12,18,0
2013-08-13,18,0
2013-08-14,18,0
2013-08-15,18,0
2013-08-16,18,0
2013-08-17,18,0
2013-08-18,18,0
2013-08-19,18,0
2013-08-20,18,0
2013-08-21,18,0
2013-08-22,18,0
2013-08-23,18,0
2013-08-24,18,0
2013-08-25,18,0
2013-08-26,18,0
2013-08-27,18,0
2013-08-28,18,0
2013-08-29,18,0
2013-08-30,18,0
2013-08-31,18,0
2013-09-01,18,0
2013-09-02,18,0
2013-09-03,18,0
2013-09-04,18,0
2013-09-05,18,0
2013-09-06,18,0
2013-09-07,18,0
2013-09-08,18,0
2013-09-09,18,0
2013-09-10,18,0
2013-09-11,18,0
2013-09-12,18,0
2013-09-13,18,0
2013-09-14,18,0
2013-09-15,18,0
2013-09-16,18,0
2013-09-17,18,0
2013-09-18,18,0
2013-09-19,18,0
2013-09-20,18,0
2013-09-21,18,0
2013-09-22,18,0
2013-09-23,18,0
2013-09-24,18,0
2013-09-25,18,0
2013-09-26,18,0
2013-09-27,18,0
2013-09-28,18,0
2013-09-29,18,0
2013-09-30,18,0
2013-10-01,18,0
2013-10-02,18,0
2013-10-03,18,0
2013-10-04,18,0
2013-10-05,18,0
2013-10-06,18,0
2013-10-07,18,0
2013-10-08,18,0
2013-10-09,18,0
2013-10-10,18,0
2013-10-11,18,0
2013-10-12,18,0
2013-10-13,18,0
2013-10-14,18,0
2013-10-15,18,0
2013-10-16,18,0
2013-10-17,18,0
2013-10-18,18,0
2013-10-19,18,0
2013-10-20,18,0
2013-10-21,18,0
2013-10-22,18,0
2013-10-23,18,0
2013-10-24,18,0
2013-10-25,18,0
2013-10-26,18,0
2013-10-27,18,0
2013-10-28,18,0
2013-10-29,18,0
2013-10-30,18,0
2013-10-31,18,0
2013-11-01,18,0
2013-11-02,18,0
2013-11-03,18,0
2013-11-04,18,0
2013-11-05,18,0
2013-11-06,18,0
2013-11-07,18,0
2013-11-08,18,0
2013-11-09,18,0
2013-11-10,18,0
2013-11-11,18,0
2013-11-12,18,0
2013-11-13,18,0
2013-11-14,18,0
2013-11-15,18,0
2013-11-16,18,0
2013-11-17,18,0
2013-11-18,18,0
2013-11-19,18,0
2013-11-20,18,0
2013-11-21,18,0
2013-11-22,18,0
2013-11-23,18,0
2013-11-24,18,0
2013-11-25,18,0
2013-11-26,18,0
2013-11-27,18,0
2013-11-28,18,0
2013-11-29,18,0
2013-11-30,18,0
2013-12-01,18,0
2013-12-02,18,0
2013-12-03,18,0
2013-12-04,18,0
2013-12-05,18,0
2013-12-06,18,0
2013-12-07,18,0
2013-12-08,18,0
2013-12-09,18,0
2013-12-10,18,0
2013-12-11,18,0
2013-12-12,18,0
2013-12-13,18,0
2013-12-14,18,0
2013-12-15,18,0
2013-12-16,18,0
2013-12-17,18,0
2013-12-18,18,0
2013-12-19,18,0
2013-12-20,18,0
2013-12-21,18,0
2013-12-22,18,0
2013-12-23,18,0
2013-12-24,18,0
2013-12-25,18,0
2013-12-26,18,0
2013-12-27,18,0
2013-12-28,18,0
2013-12-29,18,0
2013-12-30,18,0
2013-12-31,18,0
