Date,Station,Rain Level
2013-01-01,309,0
2013-01-02,309,0
2013-01-03,309,0
2013-01-04,309,0
2013-01-05,309,0
2013-01-06,309,0
2013-01-07,309,0
2013-01-08,309,0
2013-01-09,309,0
2013-01-10,309,0
2013-01-11,309,0
2013-01-12,309,0
2013-01-13,309,0
2013-01-14,309,0
2013-01-15,309,0
2013-01-16,309,0
2013-01-17,309,0
2013-01-18,309,0
2013-01-19,309,0
2013-01-20,309,0
2013-01-21,309,0
2013-01-22,309,0
2013-01-23,309,0
2013-01-24,309,0
2013-01-25,309,0
2013-01-26,309,0
2013-01-27,309,0
2013-01-28,309,0
2013-01-29,309,0
2013-01-30,309,0
2013-01-31,309,0
2013-02-01,309,0
2013-02-02,309,0
2013-02-03,309,0
2013-02-04,309,0
2013-02-05,309,0
2013-02-06,309,0
2013-02-07,309,0
2013-02-08,309,0
2013-02-09,309,0
2013-02-10,309,0
2013-02-11,309,0
2013-02-12,309,0
2013-02-13,309,0
2013-02-14,309,0
2013-02-15,309,0
2013-02-16,309,0
2013-02-17,309,0
2013-02-18,309,0
2013-02-19,309,0
2013-02-20,309,0
2013-02-21,309,0
2013-02-22,309,0
2013-02-23,309,0
2013-02-24,309,0
2013-02-25,309,0
2013-02-26,309,0
2013-02-27,309,0
2013-02-28,309,0
2013-03-01,309,0
2013-03-02,309,0
2013-03-03,309,0
2013-03-04,309,0
2013-03-05,309,0
2013-03-06,309,0
2013-03-07,309,0
2013-03-08,309,0
2013-03-09,309,0
2013-03-10,309,0
2013-03-11,309,0
2013-03-12,309,0
2013-03-13,309,0
2013-03-14,309,0
2013-03-15,309,0
2013-03-16,309,0
2013-03-17,309,0
2013-03-18,309,0
2013-03-19,309,0
2013-03-20,309,0
2013-03-21,309,0
2013-03-22,309,0
2013-03-23,309,0
2013-03-24,309,0
2013-03-25,309,0
2013-03-26,309,0
2013-03-27,309,0
2013-03-28,309,0
2013-03-29,309,0
2013-03-30,309,0
2013-03-31,309,0
2013-04-01,309,0
2013-04-02,309,0
2013-04-03,309,0
2013-04-04,309,0
2013-04-05,309,0
2013-04-06,309,0
2013-04-07,309,0
2013-04-08,309,0
2013-04-09,309,0
2013-04-10,309,0
2013-04-11,309,0
2013-04-12,309,0
2013-04-13,309,0
2013-04-14,309,0
2013-04-15,309,0
2013-04-16,309,0
2013-04-17,309,0
2013-04-18,309,0
2013-04-19,309,0
2013-04-20,309,0
2013-04-21,309,0
2013-04-22,309,0
2013-04-23,309,0
2013-04-24,309,0
2013-04-25,309,0
2013-04-26,309,0
2013-04-27,309,0
2013-04-28,309,0
2013-04-29,309,0
2013-04-30,309,0
2013-05-01,309,0
2013-05-02,309,0
2013-05-03,309,0
2013-05-04,309,0
2013-05-05,309,0
2013-05-06,309,0
2013-05-07,309,0
2013-05-08,309,0
2013-05-09,309,0
2013-05-10,309,0
2013-05-11,309,0
2013-05-12,309,0
2013-05-13,309,0
2013-05-14,309,0
2013-05-15,309,0
2013-05-16,309,0
2013-05-17,309,0
2013-05-18,309,0
2013-05-19,309,0
2013-05-20,309,0
2013-05-21,309,0
2013-05-22,309,0
2013-05-23,309,0
2013-05-24,309,0
2013-05-25,309,0
2013-05-26,309,0
2013-05-27,309,0
2013-05-28,309,0
2013-05-29,309,0
2013-05-30,309,0
2013-05-31,309,0
2013-06-01,309,0
2013-06-02,309,0
2013-06-03,309,0
2013-06-04,309,0
2013-06-05,309,0
2013-06-06,309,0
2013-06-07,309,0
2013-06-08,309,0
2013-06-09,309,0
2013-06-10,309,0
2013-06-11,309,0
2013-06-12,309,0
2013-06-13,309,0
2013-06-14,309,0
2013-06-15,309,0
2013-06-16,309,0
2013-06-17,309,0
2013-06-18,309,0
2013-06-19,309,0
2013-06-20,309,0
2013-06-21,309,0
2013-06-22,309,0
2013-06-23,309,0
2013-06-24,309,0
2013-06-25,309,0
2013-06-26,309,0
2013-06-27,309,0
2013-06-28,309,0
2013-06-29,309,0
2013-06-30,309,0
2013-07-01,309,0
2013-07-02,309,0
2013-07-03,309,0
2013-07-04,309,0
2013-07-05,309,0
2013-07-06,309,0
2013-07-07,309,0
2013-07-08,309,0
2013-07-09,309,0
2013-07-10,309,0
2013-07-11,309,0
2013-07-12,309,0
2013-07-13,309,0
2013-07-14,309,0
2013-07-15,309,0
2013-07-16,309,0
2013-07-17,309,0
2013-07-18,309,0
2013-07-19,309,0
2013-07-20,309,0
2013-07-21,309,0
2013-07-22,309,0
2013-07-23,309,0
2013-07-24,309,0
2013-07-25,309,0
2013-07-26,309,0
2013-07-27,309,0
2013-07-28,309,0
2013-07-29,309,0
2013-07-30,309,0
2013-07-31,309,0
2013-08-01,309,0
2013-08-02,309,0
2013-08-03,309,0
2013-08-04,309,0
2013-08-05,309,0
2013-08-06,309,0
2013-08-07,309,0
2013-08-08,309,0
2013-08-09,309,0
2013-08-10,309,0
2013-08-11,309,0
2013-08-12,309,0
2013-08-13,309,0
2013-08-14,309,0
2013-08-15,309,0
2013-08-16,309,0
2013-08-17,309,0
2013-08-18,309,0
2013-08-19,309,0
2013-08-20,309,0
2013-08-21,309,0
2013-08-22,309,0
2013-08-23,309,0
2013-08-24,309,0
2013-08-25,309,0
2013-08-26,309,0
2013-08-27,309,0
2013-08-28,309,0
2013-08-29,309,0
2013-08-30,309,0
2013-08-31,309,0
2013-09-01,309,0
2013-09-02,309,0
2013-09-03,309,0
2013-09-04,309,0
2013-09-05,309,0
2013-09-06,309,0
2013-09-07,309,0
2013-09-08,309,0
2013-09-09,309,0
2013-09-10,309,0
2013-09-11,309,0
2013-09-12,309,0
2013-09-13,309,0
2013-09-14,309,0
2013-09-15,309,0
2013-09-16,309,0
2013-09-17,309,0
2013-09-18,309,0
2013-09-19,309,0
2013-09-20,309,0
2013-09-21,309,0
2013-09-22,309,0
2013-09-23,309,0
2013-09-24,309,0
2013-09-25,309,0
2013-09-26,309,0
2013-09-27,309,0
2013-09-28,309,0
2013-09-29,309,0
2013-09-30,309,0
2013-10-01,309,0
2013-10-02,309,0
2013-10-03,309,0
2013-10-04,309,0
2013-10-05,309,0
2013-10-06,309,0
2013-10-07,309,0
2013-10-08,309,0
2013-10-09,309,0
2013-10-10,309,0
2013-10-11,309,0
2013-10-12,309,0
2013-10-13,309,0
2013-10-14,309,0
2013-10-15,309,0
2013-10-16,309,0
2013-10-17,309,0
2013-10-18,309,0
2013-10-19,309,0
2013-10-20,309,0
2013-10-21,309,0
2013-10-22,309,0
2013-10-23,309,0
2013-10-24,309,0
2013-10-25,309,0
2013-10-26,309,0
2013-10-27,309,0
2013-10-28,309,0
2013-10-29,309,0
2013-10-30,309,0
2013-10-31,309,0
2013-11-01,309,0
2013-11-02,309,0
2013-11-03,309,0
2013-11-04,309,0
2013-11-05,309,0
2013-11-06,309,0
2013-11-07,309,0
2013-11-08,309,0
2013-11-09,309,0
2013-11-10,309,0
2013-11-11,309,0
2013-11-12,309,0
2013-11-13,309,0
2013-11-14,309,0
2013-11-15,309,0
2013-11-16,309,0
2013-11-17,309,0
2013-11-18,309,0
2013-11-19,309,0
2013-11-20,309,0
2013-11-21,309,0
2013-11-22,309,0
2013-11-23,309,0
2013-11-24,309,0
2013-11-25,309,0
2013-11-26,309,0
2013-11-27,309,0
2013-11-28,309,0
2013-11-29,309,0
2013-11-30,309,0
2013-12-01,309,0
2013-12-02,309,0
2013-12-03,309,0
2013-12-04,309,0
2013-12-05,309,0
2013-12-06,309,0
2013-12-07,309,0
2013-12-08,309,0
2013-12-09,309,0
2013-12-10,309,0
2013-12-11,309,0
2013-12-12,309,0
2013-12-13,309,0
2013-12-14,309,0
2013-12-15,309,0
2013-12-16,309,0
2013-12-17,309,0
2013-12-18,309,0
2013-12-19,309,0
2013-12-20,309,0
2013-12-21,309,0
2013-12-22,309,0
2013-12-23,309,0
2013-12-24,309,0
2013-12-25,309,0
2013-12-26,309,0
2013-12-27,309,0
2013-12-28,309,0
2013-12-29,309,0
2013-12-30,309,0
2013-12-31,309,0
