Date,Station,Rain Level
2013-01-01,310,0
2013-01-02,310,0
2013-01-03,310,0
2013-01-04,310,0
2013-01-05,310,0
2013-01-06,310,0
2013-01-07,310,0
2013-01-08,310,0
2013-01-09,310,0
2013-01-10,310,0
2013-01-11,310,0
2013-01-12,310,0
2013-01-13,310,0
2013-01-14,310,0
2013-01-15,310,0
2013-01-16,310,0
2013-01-17,310,0
2013-01-18,310,0
2013-01-19,310,0
2013-01-20,310,0
2013-01-21,310,0
2013-01-22,310,0
2013-01-23,310,0
2013-01-24,310,0
2013-01-25,310,0
2013-01-26,310,0
2013-01-27,310,0
2013-01-28,310,0
2013-01-29,310,0
2013-01-30,310,0
2013-01-31,310,0
2013-02-01,310,0
2013-02-02,310,0
2013-02-03,310,0
2013-02-04,310,0
2013-02-05,310,0
2013-02-06,310,0
2013-02-07,310,0
2013-02-08,310,0
2013-02-09,310,0
2013-02-10,310,0
2013-02-11,310,0
2013-02-12,310,0
2013-02-13,310,0
2013-02-14,310,0
2013-02-15,310,0
2013-02-16,310,0
2013-02-17,310,0
2013-02-18,310,0
2013-02-19,310,0
2013-02-20,310,0
2013-02-21,310,0
2013-02-22,310,0
2013-02-23,310,0
2013-02-24,310,0
2013-02-25,310,0
2013-02-26,310,0
2013-02-27,310,0
2013-02-28,310,0
2013-03-01,310,0
2013-03-02,310,0
2013-03-03,310,0
2013-03-04,310,0
2013-03-05,310,0
2013-03-06,310,0
2013-03-07,310,0
2013-03-08,310,0
2013-03-09,310,0
2013-03-10,310,0
2013-03-11,310,0
2013-03-12,310,0
2013-03-13,310,0
2013-03-14,310,0
2013-03-15,310,0
2013-03-16,310,0
2013-03-17,310,0
2013-03-18,310,0
2013-03-19,310,0
2013-03-20,310,0
2013-03-21,310,0
2013-03-22,310,0
2013-03-23,310,0
2013-03-24,310,0
2013-03-25,310,0
2013-03-26,310,0
2013-03-27,310,0
2013-03-28,310,0
2013-03-29,310,0
2013-03-30,310,0
2013-03-31,310,0
2013-04-01,310,0
2013-04-02,310,0
2013-04-03,310,0
2013-04-04,310,0
2013-04-05,310,0
2013-04-06,310,0
2013-04-07,310,0
2013-04-08,310,0
2013-04-09,310,0
2013-04-10,310,0
2013-04-11,310,0
2013-04-12,310,0
2013-04-13,310,0
2013-04-14,310,0
2013-04-15,310,0
2013-04-16,310,0
2013-04-17,310,0
2013-04-18,310,0
2013-04-19,310,0
2013-04-20,310,0
2013-04-21,310,0
2013-04-22,310,0
2013-04-23,310,0
2013-04-24,310,0
2013-04-25,310,0
2013-04-26,310,0
2013-04-27,310,0
2013-04-28,310,0
2013-04-29,310,0
2013-04-30,310,0
2013-05-01,310,0
2013-05-02,310,0
2013-05-03,310,0
2013-05-04,310,0
2013-05-05,310,0
2013-05-06,310,0
2013-05-07,310,0
2013-05-08,310,0
2013-05-09,310,0
2013-05-10,310,0
2013-05-11,310,0
2013-05-12,310,0
2013-05-13,310,0
2013-05-14,310,0
2013-05-15,310,0
2013-05-16,310,0
2013-05-17,310,0
2013-05-18,310,0
2013-05-19,310,0
2013-05-20,310,0
2013-05-21,310,0
2013-05-22,310,0
2013-05-23,310,0
2013-05-24,310,0
2013-05-25,310,0
2013-05-26,310,0
2013-05-27,310,0
2013-05-28,310,0
2013-05-29,310,0
2013-05-30,310,0
2013-05-31,310,0
2013-06-01,310,0
2013-06-02,310,0
2013-06-03,310,0
2013-06-04,310,0
2013-06-05,310,0
2013-06-06,310,0
2013-06-07,310,0
2013-06-08,310,0
2013-06-09,310,0
2013-06-10,310,0
2013-06-11,310,0
2013-06-12,310,0
2013-06-13,310,0
2013-06-14,310,0
2013-06-15,310,0
2013-06-16,310,0
2013-06-17,310,0
2013-06-18,310,0
2013-06-19,310,0
2013-06-20,310,0
2013-06-21,310,0
2013-06-22,310,0
2013-06-23,310,0
2013-06-24,310,0
2013-06-25,310,0
2013-06-26,310,0
2013-06-27,310,0
2013-06-28,310,0
2013-06-29,310,0
2013-06-30,310,0
2013-07-01,310,0
2013-07-02,310,0
2013-07-03,310,0
2013-07-04,310,0
2013-07-05,310,0
2013-07-06,310,0
2013-07-07,310,0
2013-07-08,310,0
2013-07-09,310,0
2013-07-10,310,0
2013-07-11,310,0
2013-07-12,310,0
2013-07-13,310,0
2013-07-14,310,0
2013-07-15,310,0
2013-07-16,310,0
2013-07-17,310,0
2013-07-18,310,0
2013-07-19,310,0
2013-07-20,310,0
2013-07-21,310,0
2013-07-22,310,0
2013-07-23,310,0
2013-07-24,310,0
2013-07-25,310,0
2013-07-26,310,0
2013-07-27,310,0
2013-07-28,310,0
2013-07-29,310,0
2013-07-30,310,0
2013-07-31,310,0
2013-08-01,310,0
2013-08-02,310,0
2013-08-03,310,0
2013-08-04,310,0
2013-08-05,310,0
2013-08-06,310,0
2013-08-07,310,0
2013-08-08,310,0
2013-08-09,310,0
2013-08-10,310,0
2013-08-11,310,0
2013-08-12,310,0
2013-08-13,310,0
2013-08-14,310,0
2013-08-15,310,0
2013-08-16,310,0
2013-08-17,310,0
2013-08-18,310,0
2013-08-19,310,0
2013-08-20,310,0
2013-08-21,310,0
2013-08-22,310,0
2013-08-23,310,0
2013-08-24,310,0
2013-08-25,310,0
2013-08-26,310,0
2013-08-27,310,0
2013-08-28,310,0
2013-08-29,310,0
2013-08-30,310,0
2013-08-31,310,0
2013-09-01,310,0
2013-09-02,310,0
2013-09-03,310,0
2013-09-04,310,0
2013-09-05,310,0
2013-09-06,310,0
2013-09-07,310,0
2013-09-08,310,0
2013-09-09,310,0
2013-09-10,310,0
2013-09-11,310,0
2013-09-12,310,0
2013-09-13,310,0
2013-09-14,310,0
2013-09-15,310,0
2013-09-16,310,0
2013-09-17,310,0
2013-09-18,310,0
2013-09-19,310,0
2013-09-20,310,0
2013-09-21,310,0
2013-09-22,310,0
2013-09-23,310,0
2013-09-24,310,0
2013-09-25,310,0
2013-09-26,310,0
2013-09-27,310,0
2013-09-28,310,0
2013-09-29,310,0
2013-09-30,310,0
2013-10-01,310,0
2013-10-02,310,0
2013-10-03,310,0
2013-10-04,310,0
2013-10-05,310,0
2013-10-06,310,0
2013-10-07,310,0
2013-10-08,310,0
2013-10-09,310,0
2013-10-10,310,0
2013-10-11,310,0
2013-10-12,310,0
2013-10-13,310,0
2013-10-14,310,0
2013-10-15,310,0
2013-10-16,310,0
2013-10-17,310,0
2013-10-18,310,0
2013-10-19,310,0
2013-10-20,310,0
2013-10-21,310,0
2013-10-22,310,0
2013-10-23,310,0
2013-10-24,310,0
2013-10-25,310,0
2013-10-26,310,0
2013-10-27,310,0
2013-10-28,310,0
2013-10-29,310,0
2013-10-30,310,0
2013-10-31,310,0
2013-11-01,310,0
2013-11-02,310,0
2013-11-03,310,0
2013-11-04,310,0
2013-11-05,310,0
2013-11-06,310,0
2013-11-07,310,0
2013-11-08,310,0
2013-11-09,310,0
2013-11-10,310,0
2013-11-11,310,0
2013-11-12,310,0
2013-11-13,310,0
2013-11-14,310,0
2013-11-15,310,0
2013-11-16,310,0
2013-11-17,310,0
2013-11-18,310,0
2013-11-19,310,0
2013-11-20,310,0
2013-11-21,310,0
2013-11-22,310,0
2013-11-23,310,0
2013-11-24,310,0
2013-11-25,310,0
2013-11-26,310,0
2013-11-27,310,0
2013-11-28,310,0
2013-11-29,310,0
2013-11-30,310,0
2013-12-01,310,0
2013-12-02,310,0
2013-12-03,310,0
2013-12-04,310,0
2013-12-05,310,0
2013-12-06,310,0
2013-12-07,310,0
2013-12-08,310,0
2013-12-09,310,0
2013-12-10,310,0
2013-12-11,310,0
2013-12-12,310,0
2013-12-13,310,0
2013-12-14,310,0
2013-12-15,310,0
2013-12-16,310,0
2013-12-17,310,0
2013-12-18,310,0
2013-12-19,310,0
2013-12-20,310,0
2013-12-21,310,0
2013-12-22,310,0
2013-12-23,310,0
2013-12-24,310,0
2013-12-25,310,0
2013-12-26,310,0
2013-12-27,310,0
2013-12-28,310,0
2013-12-29,310,0
2013-12-30,310,0
2013-12-31,310,0
