Date,Station,Rain Level
2020-01-01,301,0.01
2020-01-02,301,0.0
2020-01-03,301,1.7999999999999998
2020-01-04,301,6.26
2020-01-05,301,0.41000000000000003
2020-01-06,301,0.38000000000000006
2020-01-07,301,0.0
2020-01-08,301,0.12000000000000001
2020-01-09,301,0.8
2020-01-10,301,2.92
2020-01-11,301,0.0
2020-01-12,301,1.46
2020-01-13,301,0.11
2020-01-14,301,0.05
2020-01-15,301,0.0
2020-01-16,301,0.0
2020-01-17,301,0.0
2020-01-18,301,0.0
2020-01-19,301,0.0
2020-01-20,301,0.02
2020-01-21,301,0.36
2020-01-22,301,0.0
2020-01-23,301,0.0
2020-01-24,301,0.0
2020-01-25,301,0.27999999999999997
2020-01-26,301,0.0
2020-01-27,301,0.0
2020-01-28,301,2.42
2020-01-29,301,2.03
2020-01-30,301,7.71
2020-01-31,301,2.36
2020-02-01,301,4.659999999999999
2020-02-02,301,0.0
2020-02-03,301,2.74
2020-02-04,301,3.0199999999999996
2020-02-05,301,0.8
2020-02-06,301,1.2800000000000005
2020-02-07,301,0.0
2020-02-08,301,0.0
2020-02-09,301,8.26
2020-02-10,301,8.86
2020-02-11,301,7.079999999999999
2020-02-12,301,1.24
2020-02-13,301,0.11
2020-02-14,301,0.0
2020-02-15,301,0.0
2020-02-16,301,0.26
2020-02-17,301,0.0
2020-02-18,301,2.16
2020-02-19,301,0.56
2020-02-20,301,0.77
2020-02-21,301,0.5900000000000001
2020-02-22,301,1.2799999999999998
2020-02-23,301,2.16
2020-02-24,301,0.35
2020-02-25,301,1.33
2020-02-26,301,0.05
2020-02-27,301,0.14
2020-02-28,301,2.27
2020-02-29,301,1.27
2020-03-01,301,0.0
2020-03-02,301,0.15
2020-03-03,301,4.81
2020-03-04,301,0.0
2020-03-05,301,0.0
2020-03-06,301,5.839999999999998
2020-03-07,301,1.8699999999999999
2020-03-08,301,0.0
2020-03-09,301,0.55
2020-03-10,301,2.17
2020-03-11,301,0.5800000000000001
2020-03-12,301,4.130000000000001
2020-03-13,301,3.7800000000000002
2020-03-14,301,0.0
2020-03-15,301,0.0
2020-03-16,301,0.34
2020-03-17,301,0.0
2020-03-18,301,0.35
2020-03-19,301,0.13
2020-03-20,301,1.9000000000000004
2020-03-21,301,1.4100000000000001
2020-03-22,301,0.0
2020-03-23,301,0.0
2020-03-24,301,0.0
2020-03-25,301,0.0
2020-03-26,301,0.0
2020-03-27,301,0.0
2020-03-28,301,0.24
2020-03-29,301,3.9800000000000004
2020-03-30,301,2.47
2020-03-31,301,0.0
2020-04-01,301,0.27
2020-04-02,301,0.0
2020-04-03,301,0.7100000000000001
2020-04-04,301,0.0
2020-04-05,301,0.0
2020-04-06,301,0.0
2020-04-07,301,0.0
2020-04-08,301,0.0
2020-04-09,301,0.0
2020-04-10,301,0.0
2020-04-11,301,0.0
2020-04-12,301,0.0
2020-04-13,301,0.0
2020-04-14,301,1.2
2020-04-15,301,0.09000000000000001
2020-04-16,301,0.01
2020-04-17,301,0.0
2020-04-18,301,0.0
2020-04-19,301,0.0
2020-04-20,301,0.0
2020-04-21,301,0.0
2020-04-22,301,0.0
2020-04-23,301,0.0
2020-04-24,301,0.0
2020-04-25,301,0.02
2020-04-26,301,0.0
2020-04-27,301,0.0
2020-04-28,301,3.08
2020-04-29,301,0.05
2020-04-30,301,4.52
2020-05-01,301,1.45
2020-05-02,301,1.26
2020-05-03,301,1.64
2020-05-04,301,2.84
2020-05-05,301,6.700000000000001
2020-05-06,301,0.01
2020-05-07,301,0.0
2020-05-08,301,0.0
2020-05-09,301,0.0
2020-05-10,301,0.15
2020-05-11,301,8.67
2020-05-12,301,0.23
2020-05-13,301,0.22
2020-05-14,301,0.19
2020-05-15,301,0.16
2020-05-16,301,0.54
2020-05-17,301,5.17
2020-05-18,301,7.249999999999999
2020-05-19,301,3.17
2020-05-20,301,0.38
2020-05-21,301,0.0
2020-05-22,301,0.0
2020-05-23,301,6.04
2020-05-24,301,6.8
2020-05-25,301,2.87
2020-05-26,301,0.0
2020-05-27,301,0.0
2020-05-28,301,0.0
2020-05-29,301,0.0
2020-05-30,301,0.0
2020-05-31,301,0.0
2020-06-01,301,1.26
2020-06-02,301,0.0
2020-06-03,301,0.0
2020-06-04,301,0.0
2020-06-05,301,20.6
2020-06-06,301,0.0
2020-06-07,301,18.12
2020-06-08,301,8.219999999999999
2020-06-09,301,0.0
2020-06-10,301,0.07
2020-06-11,301,0.0
2020-06-12,301,0.0
2020-06-13,301,0.0
2020-06-14,301,0.0
2020-06-15,301,0.0
2020-06-16,301,0.0
2020-06-17,301,0.68
2020-06-18,301,2.22
2020-06-19,301,7.319999999999999
2020-06-20,301,0.62
2020-06-21,301,0.0
2020-06-22,301,0.46
2020-06-23,301,0.0
2020-06-24,301,0.0
2020-06-25,301,0.0
2020-06-26,301,0.0
2020-06-27,301,0.56
2020-06-28,301,24.22
2020-06-29,301,3.32
2020-06-30,301,0.0
2020-07-01,301,0.3
2020-07-02,301,0.27
2020-07-03,301,1.44
2020-07-04,301,0.4
2020-07-05,301,1.91
2020-07-06,301,2.6
2020-07-07,301,0.84
2020-07-08,301,1.37
2020-07-09,301,5.170000000000001
2020-07-10,301,1.28
2020-07-11,301,0.0
2020-07-12,301,0.37
2020-07-13,301,0.0
2020-07-14,301,0.0
2020-07-15,301,2.26
2020-07-16,301,5.58
2020-07-17,301,0.0
2020-07-18,301,0.0
2020-07-19,301,0.0
2020-07-20,301,5.720000000000001
2020-07-21,301,0.0
2020-07-22,301,0.0
2020-07-23,301,0.0
2020-07-24,301,0.6699999999999999
2020-07-25,301,0.0
2020-07-26,301,2.3499999999999996
2020-07-27,301,0.23
2020-07-28,301,0.16
2020-07-29,301,0.0
2020-07-30,301,0.15
2020-07-31,301,0.12
2020-08-01,301,0.0
2020-08-02,301,1.13
2020-08-03,301,12.389999999999999
2020-08-04,301,0.0
2020-08-05,301,0.0
2020-08-06,301,0.0
2020-08-07,301,0.0
2020-08-08,301,0.0
2020-08-09,301,0.0
2020-08-10,301,0.0
2020-08-11,301,0.0
2020-08-12,301,0.0
2020-08-13,301,0.0
2020-08-14,301,0.0
2020-08-15,301,0.0
2020-08-16,301,0.0
2020-08-17,301,0.0
2020-08-18,301,0.0
2020-08-19,301,0.0
2020-08-20,301,0.0
2020-08-21,301,0.0
2020-08-22,301,1.74
2020-08-23,301,0.18
2020-08-24,301,1.68
2020-08-25,301,6.1
2020-08-26,301,5.43
2020-08-27,301,10.219999999999999
2020-08-28,301,3.02
2020-08-29,301,0.0
2020-08-30,301,18.990000000000002
2020-08-31,301,4.08
2020-09-01,301,1.7699999999999998
2020-09-02,301,17.689999999999998
2020-09-03,301,1.88
2020-09-04,301,0.13
2020-09-05,301,8.16
2020-09-06,301,0.0
2020-09-07,301,0.47
2020-09-08,301,0.0
2020-09-09,301,2.09
2020-09-10,301,0.0
2020-09-11,301,0.0
2020-09-12,301,0.0
2020-09-13,301,0.0
2020-09-14,301,0.0
2020-09-15,301,0.0
2020-09-16,301,1.5
2020-09-17,301,0.0
2020-09-18,301,0.0
2020-09-19,301,0.0
2020-09-20,301,0.0
2020-09-21,301,0.0
2020-09-22,301,0.0
2020-09-23,301,0.0
2020-09-24,301,0.0
2020-09-25,301,0.0
2020-09-26,301,0.0
2020-09-27,301,0.0
2020-09-28,301,0.0
2020-09-29,301,0.0
2020-09-30,301,0.0
2020-10-01,301,0.0
2020-10-02,301,0.0
2020-10-03,301,0.0
2020-10-04,301,0.0
2020-10-05,301,0.0
2020-10-06,301,0.0
2020-10-07,301,0.0
2020-10-08,301,0.0
2020-10-09,301,0.0
2020-10-10,301,0.0
2020-10-11,301,0.0
2020-10-12,301,0.0
2020-10-13,301,0.0
2020-10-14,301,0.0
2020-10-15,301,0.0
2020-10-16,301,0.0
2020-10-17,301,0.0
2020-10-18,301,0.0
2020-10-19,301,0.0
2020-10-20,301,0.0
2020-10-21,301,0.0
2020-10-22,301,0.0
2020-10-23,301,0.0
2020-10-24,301,0.0
2020-10-25,301,0.0
2020-10-26,301,0.0
2020-10-27,301,0.0
2020-10-28,301,0.0
2020-10-29,301,0.0
2020-10-30,301,0.0
2020-10-31,301,0.0
2020-11-01,301,0.0
2020-11-02,301,0.0
2020-11-03,301,0.0
2020-11-04,301,0.0
2020-11-05,301,0.0
2020-11-06,301,0.0
2020-11-07,301,0.0
2020-11-08,301,0.0
2020-11-09,301,0.0
2020-11-10,301,0.0
2020-11-11,301,0.0
2020-11-12,301,0.0
2020-11-13,301,0.0
2020-11-14,301,0.0
2020-11-15,301,0.0
2020-11-16,301,0.0
2020-11-17,301,0.0
2020-11-18,301,0.0
2020-11-19,301,0.0
2020-11-20,301,0.0
2020-11-21,301,0.0
2020-11-22,301,0.0
2020-11-23,301,0.0
2020-11-24,301,0.0
2020-11-25,301,0.0
2020-11-26,301,0.0
2020-11-27,301,0.0
2020-11-28,301,0.0
2020-11-29,301,0.0
2020-11-30,301,0.0
2020-12-01,301,0.0
2020-12-02,301,0.0
2020-12-03,301,0.0
2020-12-04,301,0.0
2020-12-05,301,0.0
2020-12-06,301,0.0
2020-12-07,301,0.0
2020-12-08,301,0.0
2020-12-09,301,0.0
2020-12-10,301,0.0
2020-12-11,301,0.0
2020-12-12,301,0.0
2020-12-13,301,0.0
2020-12-14,301,0.0
2020-12-15,301,0.0
2020-12-16,301,0.0
2020-12-17,301,0.0
2020-12-18,301,0.0
2020-12-19,301,0.0
2020-12-20,301,0.0
2020-12-21,301,0.0
2020-12-22,301,0.0
2020-12-23,301,0.0
2020-12-24,301,0.0
2020-12-25,301,0.0
2020-12-26,301,0.0
2020-12-27,301,0.0
2020-12-28,301,0.0
2020-12-29,301,0.0
2020-12-30,301,0.0
2020-12-31,301,0.0
