Date,Station,Temperature
2020-01-01,307,3.9666666666666672
2020-01-02,307,2.516666666666667
2020-01-03,307,4.441666666666666
2020-01-04,307,3.358333333333333
2020-01-05,307,2.1625
2020-01-06,307,3.8041666666666667
2020-01-07,307,3.695833333333333
2020-01-08,307,6.554166666666666
2020-01-09,307,7.170833333333333
2020-01-10,307,8.191666666666666
2020-01-11,307,4.9624999999999995
2020-01-12,307,4.7749999999999995
2020-01-13,307,4.733333333333333
2020-01-14,307,5.6625000000000005
2020-01-15,307,8.570833333333333
2020-01-16,307,4.25
2020-01-17,307,2.3416666666666672
2020-01-18,307,4.0
2020-01-19,307,3.870833333333333
2020-01-20,307,4.45
2020-01-21,307,5.908333333333334
2020-01-22,307,4.166666666666666
2020-01-23,307,3.5333333333333337
2020-01-24,307,5.066666666666667
2020-01-25,307,4.820833333333334
2020-01-26,307,2.2000000000000006
2020-01-27,307,2.416666666666667
2020-01-28,307,3.3750000000000004
2020-01-29,307,3.758333333333333
2020-01-30,307,4.954166666666667
2020-01-31,307,7.283333333333332
2020-02-01,307,9.558333333333332
2020-02-02,307,5.541666666666665
2020-02-03,307,4.2
2020-02-04,307,3.7916666666666674
2020-02-05,307,3.9958333333333336
2020-02-06,307,4.966666666666666
2020-02-07,307,0.9708333333333332
2020-02-08,307,2.6583333333333328
2020-02-09,307,6.283333333333334
2020-02-10,307,6.2375
2020-02-11,307,3.5666666666666664
2020-02-12,307,4.041666666666665
2020-02-13,307,2.7916666666666665
2020-02-14,307,1.8666666666666665
2020-02-15,307,3.75
2020-02-16,307,11.4
2020-02-17,307,8.674999999999999
2020-02-18,307,5.308333333333333
2020-02-19,307,4.666666666666666
2020-02-20,307,4.812500000000001
2020-02-21,307,5.829166666666667
2020-02-22,307,6.883333333333332
2020-02-23,307,5.3999999999999995
2020-02-24,307,5.054166666666666
2020-02-25,307,5.8500000000000005
2020-02-26,307,3.979166666666666
2020-02-27,307,2.5500000000000003
2020-02-28,307,3.3708333333333336
2020-02-29,307,4.283333333333333
2020-03-01,307,6.708333333333332
2020-03-02,307,5.7
2020-03-03,307,5.720833333333332
2020-03-04,307,4.5041666666666655
2020-03-05,307,4.670833333333333
2020-03-06,307,4.975
2020-03-07,307,5.187499999999999
2020-03-08,307,5.2125
2020-03-09,307,5.779166666666668
2020-03-10,307,8.366666666666669
2020-03-11,307,7.108333333333335
2020-03-12,307,7.062500000000001
2020-03-13,307,4.370833333333335
2020-03-14,307,0.12500000000000014
2020-03-15,307,4.7250000000000005
2020-03-16,307,6.858333333333334
2020-03-17,307,7.933333333333334
2020-03-18,307,12.149999999999999
2020-03-19,307,6.437499999999999
2020-03-20,307,5.516666666666666
2020-03-21,307,2.2875
2020-03-22,307,1.7833333333333332
2020-03-23,307,0.32083333333333375
2020-03-24,307,2.349999999999999
2020-03-25,307,2.745833333333333
2020-03-26,307,6.283333333333335
2020-03-27,307,5.929166666666666
2020-03-28,307,8.265217391304347
2020-03-29,307,1.6500000000000001
2020-03-30,307,1.941666666666667
2020-03-31,307,1.6166666666666671
2020-04-01,307,5.2125
2020-04-02,307,7.087500000000001
2020-04-03,307,5.179166666666666
2020-04-04,307,5.341666666666666
2020-04-05,307,7.8374999999999995
2020-04-06,307,12.145833333333334
2020-04-07,307,12.387499999999998
2020-04-08,307,13.391666666666667
2020-04-09,307,9.654166666666665
2020-04-10,307,6.404166666666665
2020-04-11,307,9.770833333333334
2020-04-12,307,14.633333333333335
2020-04-13,307,5.4958333333333345
2020-04-14,307,5.704166666666667
2020-04-15,307,8.295833333333333
2020-04-16,307,9.012500000000001
2020-04-17,307,6.166666666666668
2020-04-18,307,6.329166666666666
2020-04-19,307,6.441666666666669
2020-04-20,307,7.5
2020-04-21,307,7.999999999999999
2020-04-22,307,8.874999999999998
2020-04-23,307,15.116666666666667
2020-04-24,307,11.554166666666667
2020-04-25,307,8.479166666666668
2020-04-26,307,8.925
2020-04-27,307,10.308333333333332
2020-04-28,307,12.362499999999999
2020-04-29,307,6.6499999999999995
2020-04-30,307,12.866666666666667
2020-05-01,307,10.079166666666666
2020-05-02,307,11.19166666666667
2020-05-03,307,10.4125
2020-05-04,307,10.458333333333332
2020-05-05,307,7.550000000000002
2020-05-06,307,10.579166666666667
2020-05-07,307,11.166666666666666
2020-05-08,307,13.220833333333333
2020-05-09,307,11.345833333333333
2020-05-10,307,17.69166666666667
2020-05-11,307,5.699999999999999
2020-05-12,307,8.366666666666665
2020-05-13,307,6.970833333333334
2020-05-14,307,7.812500000000001
2020-05-15,307,11.395833333333334
2020-05-16,307,11.074999999999998
2020-05-17,307,11.862499999999999
2020-05-18,307,11.337499999999999
2020-05-19,307,10.045833333333333
2020-05-20,307,9.304166666666669
2020-05-21,307,9.5875
2020-05-22,307,11.108333333333334
2020-05-23,307,11.858333333333334
2020-05-24,307,11.891666666666664
2020-05-25,307,11.504166666666668
2020-05-26,307,9.799999999999999
2020-05-27,307,15.045833333333334
2020-05-28,307,11.808333333333332
2020-05-29,307,11.812499999999998
2020-05-30,307,12.429166666666665
2020-05-31,307,13.533333333333333
2020-06-01,307,14.674999999999997
2020-06-02,307,12.729166666666664
2020-06-03,307,13.233333333333333
2020-06-04,307,14.916666666666666
2020-06-05,307,12.770833333333329
2020-06-06,307,14.358333333333334
2020-06-07,307,15.687499999999998
2020-06-08,307,12.312500000000002
2020-06-09,307,14.541666666666666
2020-06-10,307,14.850000000000001
2020-06-11,307,16.491666666666664
2020-06-12,307,18.108333333333334
2020-06-13,307,17.4625
2020-06-14,307,16.479166666666668
2020-06-15,307,15.204166666666667
2020-06-16,307,17.125000000000004
2020-06-17,307,17.912500000000005
2020-06-18,307,17.9875
2020-06-19,307,20.004166666666666
2020-06-20,307,19.60416666666666
2020-06-21,307,20.099999999999998
2020-06-22,307,17.429166666666667
2020-06-23,307,17.870833333333337
2020-06-24,307,19.666666666666668
2020-06-25,307,22.07083333333334
2020-06-26,307,23.562499999999996
2020-06-27,307,21.604166666666668
2020-06-28,307,22.48333333333333
2020-06-29,307,16.90416666666667
2020-06-30,307,18.766666666666662
2020-07-01,307,18.937499999999996
2020-07-02,307,19.566666666666666
2020-07-03,307,16.791666666666668
2020-07-04,307,20.462500000000002
2020-07-05,307,20.575000000000003
2020-07-06,307,17.25833333333333
2020-07-07,307,15.179166666666665
2020-07-08,307,13.912500000000001
2020-07-09,307,17.05833333333333
2020-07-10,307,16.662500000000005
2020-07-11,307,14.975000000000001
2020-07-12,307,16.075
2020-07-13,307,14.387500000000001
2020-07-14,307,17.145833333333332
2020-07-15,307,20.816666666666663
2020-07-16,307,16.13333333333333
2020-07-17,307,17.904166666666665
2020-07-18,307,19.833333333333332
2020-07-19,307,22.8875
2020-07-20,307,18.987499999999994
2020-07-21,307,16.687500000000004
2020-07-22,307,16.554166666666674
2020-07-23,307,16.2125
2020-07-24,307,16.8625
2020-07-25,307,17.487499999999997
2020-07-26,307,20.424999999999997
2020-07-27,307,19.63333333333333
2020-07-28,307,21.058333333333334
2020-07-29,307,18.0
2020-07-30,307,16.433333333333334
2020-07-31,307,16.474999999999998
2020-08-01,307,17.187499999999996
2020-08-02,307,21.55
2020-08-03,307,16.791666666666668
2020-08-04,307,16.8125
2020-08-05,307,18.79166666666666
2020-08-06,307,20.30833333333333
2020-08-07,307,21.833333333333332
2020-08-08,307,23.57083333333333
2020-08-09,307,23.537499999999998
2020-08-10,307,21.35833333333333
2020-08-11,307,19.054166666666664
2020-08-12,307,18.016666666666666
2020-08-13,307,19.2625
2020-08-14,307,21.595833333333335
2020-08-15,307,21.912500000000005
2020-08-16,307,23.266666666666666
2020-08-17,307,23.575
2020-08-18,307,20.408333333333335
2020-08-19,307,20.00833333333333
2020-08-20,307,20.54166666666667
2020-08-21,307,25.983333333333338
2020-08-22,307,20.974999999999998
2020-08-23,307,19.666666666666664
2020-08-24,307,18.35833333333333
2020-08-25,307,16.095833333333335
2020-08-26,307,16.6875
2020-08-27,307,16.054166666666667
2020-08-28,307,16.866666666666667
2020-08-29,307,17.091666666666665
2020-08-30,307,19.162499999999998
2020-08-31,307,15.237500000000002
2020-09-01,307,16.475000000000005
2020-09-02,307,14.591666666666667
2020-09-03,307,14.649999999999997
2020-09-04,307,16.28333333333333
2020-09-05,307,14.933333333333339
2020-09-06,307,14.487500000000002
2020-09-07,307,14.158333333333333
2020-09-08,307,16.691666666666663
2020-09-09,307,18.0125
2020-09-10,307,13.766666666666667
2020-09-11,307,13.945833333333331
2020-09-12,307,17.69166666666667
2020-09-13,307,16.1375
2020-09-14,307,17.825
2020-09-15,307,21.39999999999999
2020-09-16,307,20.2
2020-09-17,307,11.566666666666665
2020-09-18,307,13.170833333333333
2020-09-19,307,15.645833333333336
2020-09-20,307,13.804166666666662
2020-09-21,307,15.354166666666666
2020-09-22,307,17.416666666666668
2020-09-23,307,18.591666666666665
2020-09-24,307,18.379166666666663
2020-09-25,307,18.458333333333332
2020-09-26,307,18.241666666666667
2020-09-27,307,14.983333333333333
2020-09-28,307,14.314285714285715
2020-09-29,307,-273.0
2020-09-30,307,-273.0
2020-10-01,307,-273.0
2020-10-02,307,-273.0
2020-10-03,307,-273.0
2020-10-04,307,-273.0
2020-10-05,307,-273.0
2020-10-06,307,-273.0
2020-10-07,307,-273.0
2020-10-08,307,-273.0
2020-10-09,307,-273.0
2020-10-10,307,-273.0
2020-10-11,307,-273.0
2020-10-12,307,-273.0
2020-10-13,307,-273.0
2020-10-14,307,-273.0
2020-10-15,307,-273.0
2020-10-16,307,-273.0
2020-10-17,307,-273.0
2020-10-18,307,-273.0
2020-10-19,307,-273.0
2020-10-20,307,-273.0
2020-10-21,307,-273.0
2020-10-22,307,-273.0
2020-10-23,307,-273.0
2020-10-24,307,-273.0
2020-10-25,307,-273.0
2020-10-26,307,-273.0
2020-10-27,307,-273.0
2020-10-28,307,-273.0
2020-10-29,307,-273.0
2020-10-30,307,-273.0
2020-10-31,307,-273.0
2020-11-01,307,-273.0
2020-11-02,307,-273.0
2020-11-03,307,-273.0
2020-11-04,307,-273.0
2020-11-05,307,-273.0
2020-11-06,307,-273.0
2020-11-07,307,-273.0
2020-11-08,307,-273.0
2020-11-09,307,-273.0
2020-11-10,307,-273.0
2020-11-11,307,-273.0
2020-11-12,307,-273.0
2020-11-13,307,-273.0
2020-11-14,307,-273.0
2020-11-15,307,-273.0
2020-11-16,307,-273.0
2020-11-17,307,-273.0
2020-11-18,307,-273.0
2020-11-19,307,-273.0
2020-11-20,307,-273.0
2020-11-21,307,-273.0
2020-11-22,307,-273.0
2020-11-23,307,-273.0
2020-11-24,307,-273.0
2020-11-25,307,-273.0
2020-11-26,307,-273.0
2020-11-27,307,-273.0
2020-11-28,307,-273.0
2020-11-29,307,-273.0
2020-11-30,307,-273.0
2020-12-01,307,-273.0
2020-12-02,307,-273.0
2020-12-03,307,-273.0
2020-12-04,307,-273.0
2020-12-05,307,-273.0
2020-12-06,307,-273.0
2020-12-07,307,-273.0
2020-12-08,307,-273.0
2020-12-09,307,-273.0
2020-12-10,307,-273.0
2020-12-11,307,-273.0
2020-12-12,307,-273.0
2020-12-13,307,-273.0
2020-12-14,307,-273.0
2020-12-15,307,-273.0
2020-12-16,307,-273.0
2020-12-17,307,-273.0
2020-12-18,307,-273.0
2020-12-19,307,-273.0
2020-12-20,307,-273.0
2020-12-21,307,-273.0
2020-12-22,307,-273.0
2020-12-23,307,-273.0
2020-12-24,307,-273.0
2020-12-25,307,-273.0
2020-12-26,307,-273.0
2020-12-27,307,-273.0
2020-12-28,307,-273.0
2020-12-29,307,-273.0
2020-12-30,307,-273.0
2020-12-31,307,-273.0
