Date,Station,Rain Level
2020-01-01,35,0.0
2020-01-02,35,0.0
2020-01-03,35,1.18
2020-01-04,35,3.79
2020-01-05,35,0.16
2020-01-06,35,0.32999999999999996
2020-01-07,35,0.0
2020-01-08,35,0.0
2020-01-09,35,0.39
2020-01-10,35,4.09
2020-01-11,35,0.0
2020-01-12,35,0.83
2020-01-13,35,0.0
2020-01-14,35,0.08
2020-01-15,35,0.0
2020-01-16,35,0.0
2020-01-17,35,0.0
2020-01-18,35,0.0
2020-01-19,35,0.0
2020-01-20,35,0.0
2020-01-21,35,0.16
2020-01-22,35,0.0
2020-01-23,35,0.0
2020-01-24,35,0.0
2020-01-25,35,0.0
2020-01-26,35,0.0
2020-01-27,35,0.0
2020-01-28,35,2.0
2020-01-29,35,0.07
2020-01-30,35,6.62
2020-01-31,35,1.22
2020-02-01,35,3.18
2020-02-02,35,0.98
2020-02-03,35,1.06
2020-02-04,35,0.34
2020-02-05,35,0.06
2020-02-06,35,0.13
2020-02-07,35,0.0
2020-02-08,35,0.0
2020-02-09,35,5.3
2020-02-10,35,5.0600000000000005
2020-02-11,35,4.340000000000001
2020-02-12,35,0.53
2020-02-13,35,0.0
2020-02-14,35,0.0
2020-02-15,35,0.0
2020-02-16,35,0.1
2020-02-17,35,0.0
2020-02-18,35,2.05
2020-02-19,35,0.4
2020-02-20,35,0.36
2020-02-21,35,0.28
2020-02-22,35,1.25
2020-02-23,35,0.8500000000000001
2020-02-24,35,0.16
2020-02-25,35,0.8899999999999999
2020-02-26,35,0.1
2020-02-27,35,0.0
2020-02-28,35,0.21000000000000002
2020-02-29,35,1.0
2020-03-01,35,0.0
2020-03-02,35,0.22
2020-03-03,35,4.430000000000001
2020-03-04,35,0.0
2020-03-05,35,0.0
2020-03-06,35,3.44
2020-03-07,35,2.1599999999999997
2020-03-08,35,0.0
2020-03-09,35,0.72
2020-03-10,35,1.52
2020-03-11,35,0.07
2020-03-12,35,3.1500000000000004
2020-03-13,35,3.2800000000000002
2020-03-14,35,0.0
2020-03-15,35,0.0
2020-03-16,35,0.34
2020-03-17,35,0.0
2020-03-18,35,0.0
2020-03-19,35,0.24
2020-03-20,35,0.28
2020-03-21,35,0.46
2020-03-22,35,0.0
2020-03-23,35,0.0
2020-03-24,35,0.0
2020-03-25,35,0.0
2020-03-26,35,0.0
2020-03-27,35,0.0
2020-03-28,35,0.0
2020-03-29,35,0.99
2020-03-30,35,2.54
2020-03-31,35,0.8300000000000001
2020-04-01,35,0.38
2020-04-02,35,0.0
2020-04-03,35,0.0
2020-04-04,35,0.0
2020-04-05,35,0.0
2020-04-06,35,0.0
2020-04-07,35,0.0
2020-04-08,35,0.0
2020-04-09,35,0.0
2020-04-10,35,0.0
2020-04-11,35,0.0
2020-04-12,35,0.0
2020-04-13,35,0.0
2020-04-14,35,0.56
2020-04-15,35,0.0
2020-04-16,35,0.0
2020-04-17,35,0.0
2020-04-18,35,0.0
2020-04-19,35,0.0
2020-04-20,35,0.0
2020-04-21,35,0.0
2020-04-22,35,0.0
2020-04-23,35,0.0
2020-04-24,35,0.0
2020-04-25,35,0.0
2020-04-26,35,0.0
2020-04-27,35,0.0
2020-04-28,35,2.39
2020-04-29,35,0.0
2020-04-30,35,3.0100000000000002
2020-05-01,35,1.6599999999999997
2020-05-02,35,2.93
2020-05-03,35,1.73
2020-05-04,35,13.030000000000001
2020-05-05,35,5.720000000000001
2020-05-06,35,0.0
2020-05-07,35,0.0
2020-05-08,35,0.0
2020-05-09,35,0.0
2020-05-10,35,0.16
2020-05-11,35,5.63
2020-05-12,35,0.0
2020-05-13,35,0.0
2020-05-14,35,0.36
2020-05-15,35,0.0
2020-05-16,35,0.14
2020-05-17,35,4.16
2020-05-18,35,3.64
2020-05-19,35,2.13
2020-05-20,35,0.0
2020-05-21,35,0.0
2020-05-22,35,0.0
2020-05-23,35,4.5600000000000005
2020-05-24,35,4.91
2020-05-25,35,0.08
2020-05-26,35,0.0
2020-05-27,35,0.0
2020-05-28,35,0.0
2020-05-29,35,0.0
2020-05-30,35,0.0
2020-05-31,35,0.0
2020-06-01,35,1.28
2020-06-02,35,0.0
2020-06-03,35,0.0
2020-06-04,35,0.0
2020-06-05,35,23.419999999999998
2020-06-06,35,0.0
2020-06-07,35,9.68
2020-06-08,35,12.38
2020-06-09,35,0.0
2020-06-10,35,0.0
2020-06-11,35,0.1
2020-06-12,35,0.0
2020-06-13,35,0.0
2020-06-14,35,0.0
2020-06-15,35,0.0
2020-06-16,35,0.0
2020-06-17,35,0.0
2020-06-18,35,1.75
2020-06-19,35,11.21
2020-06-20,35,0.66
2020-06-21,35,0.0
2020-06-22,35,0.0
2020-06-23,35,0.0
2020-06-24,35,0.0
2020-06-25,35,0.0
2020-06-26,35,0.0
2020-06-27,35,0.0
2020-06-28,35,4.98
2020-06-29,35,3.85
2020-06-30,35,0.0
2020-07-01,35,1.8399999999999999
2020-07-02,35,0.0
2020-07-03,35,2.71
2020-07-04,35,0.43
2020-07-05,35,1.3199999999999998
2020-07-06,35,0.57
2020-07-07,35,0.47000000000000003
2020-07-08,35,0.75
2020-07-09,35,4.64
2020-07-10,35,1.3900000000000001
2020-07-11,35,0.07
2020-07-12,35,0.38
2020-07-13,35,0.0
2020-07-14,35,0.0
2020-07-15,35,0.0
2020-07-16,35,7.51
2020-07-17,35,0.0
2020-07-18,35,0.0
2020-07-19,35,0.0
2020-07-20,35,12.25
2020-07-21,35,0.12
2020-07-22,35,0.0
2020-07-23,35,0.0
2020-07-24,35,1.58
2020-07-25,35,0.0
2020-07-26,35,1.06
2020-07-27,35,0.0
2020-07-28,35,0.0
2020-07-29,35,0.05
2020-07-30,35,0.0
2020-07-31,35,0.0
2020-08-01,35,0.0
2020-08-02,35,0.63
2020-08-03,35,7.050000000000001
2020-08-04,35,0.0
2020-08-05,35,0.0
2020-08-06,35,0.0
2020-08-07,35,0.0
2020-08-08,35,0.0
2020-08-09,35,0.0
2020-08-10,35,0.0
2020-08-11,35,0.0
2020-08-12,35,0.0
2020-08-13,35,0.0
2020-08-14,35,0.0
2020-08-15,35,0.0
2020-08-16,35,0.0
2020-08-17,35,0.0
2020-08-18,35,0.0
2020-08-19,35,0.0
2020-08-20,35,0.0
2020-08-21,35,0.0
2020-08-22,35,2.1199999999999997
2020-08-23,35,0.0
2020-08-24,35,1.6099999999999999
2020-08-25,35,1.93
2020-08-26,35,3.7399999999999993
2020-08-27,35,4.93
2020-08-28,35,3.06
2020-08-29,35,0.0
2020-08-30,35,0.93
2020-08-31,35,1.16
2020-09-01,35,2.25
2020-09-02,35,15.23
2020-09-03,35,1.14
2020-09-04,35,0.0
2020-09-05,35,5.96
2020-09-06,35,0.0
2020-09-07,35,1.83
2020-09-08,35,0.0
2020-09-09,35,0.9
2020-09-10,35,0.0
2020-09-11,35,0.0
2020-09-12,35,0.0
2020-09-13,35,0.0
2020-09-14,35,0.0
2020-09-15,35,0.0
2020-09-16,35,2.9099999999999997
2020-09-17,35,0.0
2020-09-18,35,0.0
2020-09-19,35,0.0
2020-09-20,35,0.0
2020-09-21,35,0.0
2020-09-22,35,0.0
2020-09-23,35,0.0
2020-09-24,35,0.0
2020-09-25,35,0.0
2020-09-26,35,0.0
2020-09-27,35,0.0
2020-09-28,35,0.0
2020-09-29,35,0.0
2020-09-30,35,0.0
2020-10-01,35,0.0
2020-10-02,35,0.0
2020-10-03,35,0.0
2020-10-04,35,0.0
2020-10-05,35,0.0
2020-10-06,35,0.0
2020-10-07,35,0.0
2020-10-08,35,0.0
2020-10-09,35,0.0
2020-10-10,35,0.0
2020-10-11,35,0.0
2020-10-12,35,0.0
2020-10-13,35,0.0
2020-10-14,35,0.0
2020-10-15,35,0.0
2020-10-16,35,0.0
2020-10-17,35,0.0
2020-10-18,35,0.0
2020-10-19,35,0.0
2020-10-20,35,0.0
2020-10-21,35,0.0
2020-10-22,35,0.0
2020-10-23,35,0.0
2020-10-24,35,0.0
2020-10-25,35,0.0
2020-10-26,35,0.0
2020-10-27,35,0.0
2020-10-28,35,0.0
2020-10-29,35,0.0
2020-10-30,35,0.0
2020-10-31,35,0.0
2020-11-01,35,0.0
2020-11-02,35,0.0
2020-11-03,35,0.0
2020-11-04,35,0.0
2020-11-05,35,0.0
2020-11-06,35,0.0
2020-11-07,35,0.0
2020-11-08,35,0.0
2020-11-09,35,0.0
2020-11-10,35,0.0
2020-11-11,35,0.0
2020-11-12,35,0.0
2020-11-13,35,0.0
2020-11-14,35,0.0
2020-11-15,35,0.0
2020-11-16,35,0.0
2020-11-17,35,0.0
2020-11-18,35,0.0
2020-11-19,35,0.0
2020-11-20,35,0.0
2020-11-21,35,0.0
2020-11-22,35,0.0
2020-11-23,35,0.0
2020-11-24,35,0.0
2020-11-25,35,0.0
2020-11-26,35,0.0
2020-11-27,35,0.0
2020-11-28,35,0.0
2020-11-29,35,0.0
2020-11-30,35,0.0
2020-12-01,35,0.0
2020-12-02,35,0.0
2020-12-03,35,0.0
2020-12-04,35,0.0
2020-12-05,35,0.0
2020-12-06,35,0.0
2020-12-07,35,0.0
2020-12-08,35,0.0
2020-12-09,35,0.0
2020-12-10,35,0.0
2020-12-11,35,0.0
2020-12-12,35,0.0
2020-12-13,35,0.0
2020-12-14,35,0.0
2020-12-15,35,0.0
2020-12-16,35,0.0
2020-12-17,35,0.0
2020-12-18,35,0.0
2020-12-19,35,0.0
2020-12-20,35,0.0
2020-12-21,35,0.0
2020-12-22,35,0.0
2020-12-23,35,0.0
2020-12-24,35,0.0
2020-12-25,35,0.0
2020-12-26,35,0.0
2020-12-27,35,0.0
2020-12-28,35,0.0
2020-12-29,35,0.0
2020-12-30,35,0.0
2020-12-31,35,0.0
