Date,Station,Rain Level
2020-01-01,501,0.0
2020-01-02,501,0.0
2020-01-03,501,2.6519999999999997
2020-01-04,501,5.155
2020-01-05,501,0.38
2020-01-06,501,0.271
2020-01-07,501,0.0
2020-01-08,501,0.0
2020-01-09,501,0.203
2020-01-10,501,4.994999999999998
2020-01-11,501,0.0
2020-01-12,501,2.5060000000000002
2020-01-13,501,0.024
2020-01-14,501,0.21500000000000002
2020-01-15,501,0.0
2020-01-16,501,0.0
2020-01-17,501,0.0
2020-01-18,501,0.0
2020-01-19,501,0.343
2020-01-20,501,0.041
2020-01-21,501,0.417
2020-01-22,501,0.0
2020-01-23,501,0.0
2020-01-24,501,0.11499999999999999
2020-01-25,501,0.07100000000000001
2020-01-26,501,0.0
2020-01-27,501,0.0
2020-01-28,501,4.28
2020-01-29,501,2.9059999999999997
2020-01-30,501,9.541
2020-01-31,501,3.113
2020-02-01,501,4.7540000000000004
2020-02-02,501,0.834
2020-02-03,501,1.017
2020-02-04,501,2.002
2020-02-05,501,0.538
2020-02-06,501,0.199
2020-02-07,501,0.0
2020-02-08,501,0.0
2020-02-09,501,8.106
2020-02-10,501,5.108
2020-02-11,501,8.741999999999999
2020-02-12,501,3.371
2020-02-13,501,0.33000000000000007
2020-02-14,501,0.006
2020-02-15,501,0.0
2020-02-16,501,0.162
2020-02-17,501,0.837
2020-02-18,501,4.253
2020-02-19,501,1.694
2020-02-20,501,0.7609999999999999
2020-02-21,501,0.6220000000000001
2020-02-22,501,2.839
2020-02-23,501,2.71
2020-02-24,501,0.4
2020-02-25,501,1.319
2020-02-26,501,0.333
2020-02-27,501,0.004
2020-02-28,501,0.7410000000000001
2020-02-29,501,1.762
2020-03-01,501,0.078
2020-03-02,501,0.07400000000000001
2020-03-03,501,5.037
2020-03-04,501,0.009000000000000001
2020-03-05,501,0.0
2020-03-06,501,4.602
2020-03-07,501,2.5379999999999994
2020-03-08,501,0.0
2020-03-09,501,0.257
2020-03-10,501,3.509
2020-03-11,501,0.03900000000000001
2020-03-12,501,8.825
2020-03-13,501,9.134
2020-03-14,501,0.16
2020-03-15,501,0.0
2020-03-16,501,1.4209999999999994
2020-03-17,501,0.004
2020-03-18,501,1.379
2020-03-19,501,0.433
2020-03-20,501,0.385
2020-03-21,501,2.225
2020-03-22,501,0.119
2020-03-23,501,0.0
2020-03-24,501,0.0
2020-03-25,501,0.0
2020-03-26,501,0.0
2020-03-27,501,0.0
2020-03-28,501,0.0
2020-03-29,501,1.6919999999999997
2020-03-30,501,4.174999999999999
2020-03-31,501,0.225
2020-04-01,501,0.37000000000000005
2020-04-02,501,0.003
2020-04-03,501,0.458
2020-04-04,501,0.0
2020-04-05,501,0.0
2020-04-06,501,0.0
2020-04-07,501,0.0
2020-04-08,501,0.0
2020-04-09,501,0.0
2020-04-10,501,0.0
2020-04-11,501,0.0
2020-04-12,501,0.0
2020-04-13,501,0.0
2020-04-14,501,2.408
2020-04-15,501,0.112
2020-04-16,501,0.0
2020-04-17,501,0.0
2020-04-18,501,0.0
2020-04-19,501,0.0
2020-04-20,501,0.0
2020-04-21,501,0.0
2020-04-22,501,0.0
2020-04-23,501,0.0
2020-04-24,501,0.0
2020-04-25,501,0.214
2020-04-26,501,0.0
2020-04-27,501,0.003
2020-04-28,501,0.271
2020-04-29,501,0.0
2020-04-30,501,9.235000000000001
2020-05-01,501,1.35
2020-05-02,501,1.5969999999999993
2020-05-03,501,0.506
2020-05-04,501,5.229
2020-05-05,501,8.883000000000001
2020-05-06,501,0.0
2020-05-07,501,0.0
2020-05-08,501,0.0
2020-05-09,501,0.0
2020-05-10,501,1.8909999999999998
2020-05-11,501,9.168000000000001
2020-05-12,501,0.29500000000000004
2020-05-13,501,0.245
2020-05-14,501,0.0
2020-05-15,501,0.049
2020-05-16,501,1.3849999999999998
2020-05-17,501,9.442
2020-05-18,501,6.426
2020-05-19,501,2.1039999999999996
2020-05-20,501,0.8320000000000001
2020-05-21,501,0.0
2020-05-22,501,0.06
2020-05-23,501,6.041999999999999
2020-05-24,501,9.952999999999998
2020-05-25,501,1.592
2020-05-26,501,0.002
2020-05-27,501,0.268
2020-05-28,501,0.023999999999999997
2020-05-29,501,0.0
2020-05-30,501,0.0
2020-05-31,501,0.0
2020-06-01,501,1.419
2020-06-02,501,0.032
2020-06-03,501,0.002
2020-06-04,501,0.0
2020-06-05,501,22.470000000000006
2020-06-06,501,0.0
2020-06-07,501,14.266
2020-06-08,501,7.714
2020-06-09,501,0.0
2020-06-10,501,0.193
2020-06-11,501,0.26
2020-06-12,501,0.0
2020-06-13,501,0.0
2020-06-14,501,0.0
2020-06-15,501,1.896
2020-06-16,501,0.0
2020-06-17,501,0.0
2020-06-18,501,0.14100000000000001
2020-06-19,501,3.2539999999999996
2020-06-20,501,0.355
2020-06-21,501,0.0
2020-06-22,501,1.0469999999999997
2020-06-23,501,0.0
2020-06-24,501,0.0
2020-06-25,501,0.0
2020-06-26,501,0.0
2020-06-27,501,0.025
2020-06-28,501,2.7329999999999997
2020-06-29,501,12.953000000000003
2020-06-30,501,0.061
2020-07-01,501,1.0669999999999997
2020-07-02,501,0.7150000000000001
2020-07-03,501,1.639
2020-07-04,501,0.7400000000000001
2020-07-05,501,2.222
2020-07-06,501,4.077
2020-07-07,501,1.8519999999999999
2020-07-08,501,1.382
2020-07-09,501,7.694
2020-07-10,501,0.6410000000000001
2020-07-11,501,0.0
2020-07-12,501,0.109
2020-07-13,501,0.024
2020-07-14,501,0.0
2020-07-15,501,0.0
2020-07-16,501,5.955
2020-07-17,501,0.012
2020-07-18,501,0.01
2020-07-19,501,0.0
2020-07-20,501,4.259
2020-07-21,501,0.319
2020-07-22,501,0.209
2020-07-23,501,0.0
2020-07-24,501,0.991
2020-07-25,501,0.0
2020-07-26,501,8.604999999999995
2020-07-27,501,2.312
2020-07-28,501,1.1800000000000002
2020-07-29,501,0.188
2020-07-30,501,0.581
2020-07-31,501,0.30000000000000004
2020-08-01,501,0.023
2020-08-02,501,1.175
2020-08-03,501,4.276000000000001
2020-08-04,501,0.015
2020-08-05,501,0.0
2020-08-06,501,0.0
2020-08-07,501,0.0
2020-08-08,501,0.0
2020-08-09,501,0.0
2020-08-10,501,0.0
2020-08-11,501,0.033
2020-08-12,501,0.0
2020-08-13,501,0.0
2020-08-14,501,0.0
2020-08-15,501,0.0
2020-08-16,501,0.0
2020-08-17,501,0.0
2020-08-18,501,0.0
2020-08-19,501,0.0
2020-08-20,501,0.0
2020-08-21,501,0.0
2020-08-22,501,0.0
2020-08-23,501,0.0
2020-08-24,501,0.0
2020-08-25,501,0.0
2020-08-26,501,0.0
2020-08-27,501,7.542
2020-08-28,501,2.169
2020-08-29,501,0.7220000000000001
2020-08-30,501,0.7
2020-08-31,501,6.148
2020-09-01,501,0.09
2020-09-02,501,15.272000000000002
2020-09-03,501,1.5390000000000001
2020-09-04,501,0.0
2020-09-05,501,4.069
2020-09-06,501,0.24800000000000003
2020-09-07,501,0.5810000000000001
2020-09-08,501,0.0
2020-09-09,501,3.109
2020-09-10,501,0.003
2020-09-11,501,0.0
2020-09-12,501,0.0
2020-09-13,501,0.0
2020-09-14,501,0.05600000000000001
2020-09-15,501,0.0
2020-09-16,501,5.545
2020-09-17,501,0.024
2020-09-18,501,0.007
2020-09-19,501,0.0
2020-09-20,501,0.055
2020-09-21,501,0.024
2020-09-22,501,0.004
2020-09-23,501,0.0
2020-09-24,501,0.0
2020-09-25,501,0.0
2020-09-26,501,0.0
2020-09-27,501,0.0
2020-09-28,501,0.0
2020-09-29,501,0.0
2020-09-30,501,0.0
2020-10-01,501,0.0
2020-10-02,501,0.0
2020-10-03,501,0.0
2020-10-04,501,0.0
2020-10-05,501,0.0
2020-10-06,501,0.0
2020-10-07,501,0.0
2020-10-08,501,0.0
2020-10-09,501,0.0
2020-10-10,501,0.0
2020-10-11,501,0.0
2020-10-12,501,0.0
2020-10-13,501,0.0
2020-10-14,501,0.0
2020-10-15,501,0.0
2020-10-16,501,0.0
2020-10-17,501,0.0
2020-10-18,501,0.0
2020-10-19,501,0.0
2020-10-20,501,0.0
2020-10-21,501,0.0
2020-10-22,501,0.0
2020-10-23,501,0.0
2020-10-24,501,0.0
2020-10-25,501,0.0
2020-10-26,501,0.0
2020-10-27,501,0.0
2020-10-28,501,0.0
2020-10-29,501,0.0
2020-10-30,501,0.0
2020-10-31,501,0.0
2020-11-01,501,0.0
2020-11-02,501,0.0
2020-11-03,501,0.0
2020-11-04,501,0.0
2020-11-05,501,0.0
2020-11-06,501,0.0
2020-11-07,501,0.0
2020-11-08,501,0.0
2020-11-09,501,0.0
2020-11-10,501,0.0
2020-11-11,501,0.0
2020-11-12,501,0.0
2020-11-13,501,0.0
2020-11-14,501,0.0
2020-11-15,501,0.0
2020-11-16,501,0.0
2020-11-17,501,0.0
2020-11-18,501,0.0
2020-11-19,501,0.0
2020-11-20,501,0.0
2020-11-21,501,0.0
2020-11-22,501,0.0
2020-11-23,501,0.0
2020-11-24,501,0.0
2020-11-25,501,0.0
2020-11-26,501,0.0
2020-11-27,501,0.0
2020-11-28,501,0.0
2020-11-29,501,0.0
2020-11-30,501,0.0
2020-12-01,501,0.0
2020-12-02,501,0.0
2020-12-03,501,0.0
2020-12-04,501,0.0
2020-12-05,501,0.0
2020-12-06,501,0.0
2020-12-07,501,0.0
2020-12-08,501,0.0
2020-12-09,501,0.0
2020-12-10,501,0.0
2020-12-11,501,0.0
2020-12-12,501,0.0
2020-12-13,501,0.0
2020-12-14,501,0.0
2020-12-15,501,0.0
2020-12-16,501,0.0
2020-12-17,501,0.0
2020-12-18,501,0.0
2020-12-19,501,0.0
2020-12-20,501,0.0
2020-12-21,501,0.0
2020-12-22,501,0.0
2020-12-23,501,0.0
2020-12-24,501,0.0
2020-12-25,501,0.0
2020-12-26,501,0.0
2020-12-27,501,0.0
2020-12-28,501,0.0
2020-12-29,501,0.0
2020-12-30,501,0.0
2020-12-31,501,0.0
