Date,Station,Rain Level
2010-01-01,301,0
2010-01-02,301,0
2010-01-03,301,0
2010-01-04,301,0
2010-01-05,301,0
2010-01-06,301,0
2010-01-07,301,0
2010-01-08,301,0
2010-01-09,301,0
2010-01-10,301,0
2010-01-11,301,0
2010-01-12,301,0
2010-01-13,301,0
2010-01-14,301,0
2010-01-15,301,0
2010-01-16,301,0
2010-01-17,301,0
2010-01-18,301,0
2010-01-19,301,0
2010-01-20,301,0
2010-01-21,301,0
2010-01-22,301,0
2010-01-23,301,0
2010-01-24,301,0
2010-01-25,301,0
2010-01-26,301,0
2010-01-27,301,0
2010-01-28,301,0
2010-01-29,301,0
2010-01-30,301,0
2010-01-31,301,0
2010-02-01,301,0
2010-02-02,301,0
2010-02-03,301,0
2010-02-04,301,0
2010-02-05,301,0
2010-02-06,301,0
2010-02-07,301,0
2010-02-08,301,0
2010-02-09,301,0
2010-02-10,301,0
2010-02-11,301,0
2010-02-12,301,0
2010-02-13,301,0
2010-02-14,301,0
2010-02-15,301,0
2010-02-16,301,0
2010-02-17,301,0
2010-02-18,301,0
2010-02-19,301,0
2010-02-20,301,0
2010-02-21,301,0
2010-02-22,301,0
2010-02-23,301,0
2010-02-24,301,0
2010-02-25,301,0
2010-02-26,301,0
2010-02-27,301,0
2010-02-28,301,0
2010-03-01,301,0
2010-03-02,301,0
2010-03-03,301,0
2010-03-04,301,0
2010-03-05,301,0
2010-03-06,301,0
2010-03-07,301,0
2010-03-08,301,0
2010-03-09,301,0
2010-03-10,301,0
2010-03-11,301,0
2010-03-12,301,0
2010-03-13,301,0
2010-03-14,301,0
2010-03-15,301,0
2010-03-16,301,0
2010-03-17,301,0
2010-03-18,301,0
2010-03-19,301,0
2010-03-20,301,0
2010-03-21,301,0
2010-03-22,301,0
2010-03-23,301,0
2010-03-24,301,0
2010-03-25,301,0
2010-03-26,301,0
2010-03-27,301,0
2010-03-28,301,0
2010-03-29,301,0
2010-03-30,301,0
2010-03-31,301,0
2010-04-01,301,0
2010-04-02,301,0
2010-04-03,301,0
2010-04-04,301,0
2010-04-05,301,0
2010-04-06,301,0
2010-04-07,301,0
2010-04-08,301,0
2010-04-09,301,0
2010-04-10,301,0
2010-04-11,301,0
2010-04-12,301,0
2010-04-13,301,0
2010-04-14,301,0
2010-04-15,301,0
2010-04-16,301,0
2010-04-17,301,0
2010-04-18,301,0
2010-04-19,301,0
2010-04-20,301,0
2010-04-21,301,0
2010-04-22,301,0
2010-04-23,301,0
2010-04-24,301,0
2010-04-25,301,0
2010-04-26,301,0
2010-04-27,301,0
2010-04-28,301,0
2010-04-29,301,0
2010-04-30,301,0
2010-05-01,301,0
2010-05-02,301,0
2010-05-03,301,0
2010-05-04,301,0
2010-05-05,301,0
2010-05-06,301,0
2010-05-07,301,0
2010-05-08,301,0
2010-05-09,301,0
2010-05-10,301,0
2010-05-11,301,0
2010-05-12,301,0
2010-05-13,301,0
2010-05-14,301,0
2010-05-15,301,0
2010-05-16,301,0
2010-05-17,301,0
2010-05-18,301,0
2010-05-19,301,0
2010-05-20,301,0
2010-05-21,301,0
2010-05-22,301,0
2010-05-23,301,0
2010-05-24,301,0
2010-05-25,301,0
2010-05-26,301,0
2010-05-27,301,0
2010-05-28,301,0
2010-05-29,301,0
2010-05-30,301,0
2010-05-31,301,0
2010-06-01,301,0
2010-06-02,301,0
2010-06-03,301,0
2010-06-04,301,0
2010-06-05,301,0
2010-06-06,301,0
2010-06-07,301,0
2010-06-08,301,0
2010-06-09,301,0
2010-06-10,301,0
2010-06-11,301,0
2010-06-12,301,0
2010-06-13,301,0
2010-06-14,301,0
2010-06-15,301,0
2010-06-16,301,0
2010-06-17,301,0
2010-06-18,301,0
2010-06-19,301,0
2010-06-20,301,0
2010-06-21,301,0
2010-06-22,301,0
2010-06-23,301,0
2010-06-24,301,0
2010-06-25,301,0
2010-06-26,301,0
2010-06-27,301,0
2010-06-28,301,0
2010-06-29,301,0
2010-06-30,301,0
2010-07-01,301,0
2010-07-02,301,0
2010-07-03,301,0
2010-07-04,301,0
2010-07-05,301,0
2010-07-06,301,0
2010-07-07,301,0
2010-07-08,301,0
2010-07-09,301,0
2010-07-10,301,0
2010-07-11,301,0
2010-07-12,301,0
2010-07-13,301,0
2010-07-14,301,0
2010-07-15,301,0
2010-07-16,301,0
2010-07-17,301,0
2010-07-18,301,0
2010-07-19,301,0
2010-07-20,301,0
2010-07-21,301,0
2010-07-22,301,0
2010-07-23,301,0
2010-07-24,301,0
2010-07-25,301,0
2010-07-26,301,0
2010-07-27,301,0
2010-07-28,301,0
2010-07-29,301,0
2010-07-30,301,0
2010-07-31,301,0
2010-08-01,301,0
2010-08-02,301,0
2010-08-03,301,0
2010-08-04,301,0
2010-08-05,301,0
2010-08-06,301,0
2010-08-07,301,0
2010-08-08,301,0
2010-08-09,301,0
2010-08-10,301,0
2010-08-11,301,0
2010-08-12,301,0
2010-08-13,301,0
2010-08-14,301,0
2010-08-15,301,0
2010-08-16,301,0
2010-08-17,301,0
2010-08-18,301,0
2010-08-19,301,0
2010-08-20,301,0
2010-08-21,301,0
2010-08-22,301,0
2010-08-23,301,0
2010-08-24,301,0
2010-08-25,301,0
2010-08-26,301,0
2010-08-27,301,0
2010-08-28,301,0
2010-08-29,301,0
2010-08-30,301,0
2010-08-31,301,0
2010-09-01,301,0
2010-09-02,301,0
2010-09-03,301,0
2010-09-04,301,0
2010-09-05,301,0
2010-09-06,301,0
2010-09-07,301,0
2010-09-08,301,0
2010-09-09,301,0
2010-09-10,301,0
2010-09-11,301,0
2010-09-12,301,0
2010-09-13,301,0
2010-09-14,301,0
2010-09-15,301,0
2010-09-16,301,0
2010-09-17,301,0
2010-09-18,301,0
2010-09-19,301,0
2010-09-20,301,0
2010-09-21,301,0
2010-09-22,301,0
2010-09-23,301,0
2010-09-24,301,0
2010-09-25,301,0
2010-09-26,301,0
2010-09-27,301,0
2010-09-28,301,0
2010-09-29,301,0
2010-09-30,301,0
2010-10-01,301,0
2010-10-02,301,0
2010-10-03,301,0
2010-10-04,301,0
2010-10-05,301,0
2010-10-06,301,0
2010-10-07,301,0
2010-10-08,301,0
2010-10-09,301,0
2010-10-10,301,0
2010-10-11,301,0
2010-10-12,301,0
2010-10-13,301,0
2010-10-14,301,0
2010-10-15,301,0
2010-10-16,301,0
2010-10-17,301,0
2010-10-18,301,0
2010-10-19,301,0
2010-10-20,301,0
2010-10-21,301,0
2010-10-22,301,0
2010-10-23,301,0
2010-10-24,301,0
2010-10-25,301,0
2010-10-26,301,0
2010-10-27,301,0
2010-10-28,301,0
2010-10-29,301,0
2010-10-30,301,0
2010-10-31,301,0
2010-11-01,301,0
2010-11-02,301,0
2010-11-03,301,0
2010-11-04,301,0
2010-11-05,301,0
2010-11-06,301,0
2010-11-07,301,0
2010-11-08,301,0
2010-11-09,301,0
2010-11-10,301,0
2010-11-11,301,0
2010-11-12,301,0
2010-11-13,301,0
2010-11-14,301,0
2010-11-15,301,0
2010-11-16,301,0
2010-11-17,301,0
2010-11-18,301,0
2010-11-19,301,0
2010-11-20,301,0
2010-11-21,301,0
2010-11-22,301,0
2010-11-23,301,0
2010-11-24,301,0
2010-11-25,301,0
2010-11-26,301,0
2010-11-27,301,0
2010-11-28,301,0
2010-11-29,301,0
2010-11-30,301,0
2010-12-01,301,0
2010-12-02,301,0
2010-12-03,301,0
2010-12-04,301,0
2010-12-05,301,0
2010-12-06,301,0
2010-12-07,301,0
2010-12-08,301,0
2010-12-09,301,0
2010-12-10,301,0
2010-12-11,301,0
2010-12-12,301,0
2010-12-13,301,0
2010-12-14,301,0
2010-12-15,301,0
2010-12-16,301,0
2010-12-17,301,0
2010-12-18,301,0
2010-12-19,301,0
2010-12-20,301,0
2010-12-21,301,0
2010-12-22,301,0
2010-12-23,301,0
2010-12-24,301,0
2010-12-25,301,0
2010-12-26,301,0
2010-12-27,301,0
2010-12-28,301,0
2010-12-29,301,0
2010-12-30,301,0
2010-12-31,301,0
