Date,Station,Rain Level
2010-01-01,307,0
2010-01-02,307,0
2010-01-03,307,0
2010-01-04,307,0
2010-01-05,307,0
2010-01-06,307,0
2010-01-07,307,0
2010-01-08,307,0
2010-01-09,307,0
2010-01-10,307,0
2010-01-11,307,0
2010-01-12,307,0
2010-01-13,307,0
2010-01-14,307,0
2010-01-15,307,0
2010-01-16,307,0
2010-01-17,307,0
2010-01-18,307,0
2010-01-19,307,0
2010-01-20,307,0
2010-01-21,307,0
2010-01-22,307,0
2010-01-23,307,0
2010-01-24,307,0
2010-01-25,307,0
2010-01-26,307,0
2010-01-27,307,0
2010-01-28,307,0
2010-01-29,307,0
2010-01-30,307,0
2010-01-31,307,0
2010-02-01,307,0
2010-02-02,307,0
2010-02-03,307,0
2010-02-04,307,0
2010-02-05,307,0
2010-02-06,307,0
2010-02-07,307,0
2010-02-08,307,0
2010-02-09,307,0
2010-02-10,307,0
2010-02-11,307,0
2010-02-12,307,0
2010-02-13,307,0
2010-02-14,307,0
2010-02-15,307,0
2010-02-16,307,0
2010-02-17,307,0
2010-02-18,307,0
2010-02-19,307,0
2010-02-20,307,0
2010-02-21,307,0
2010-02-22,307,0
2010-02-23,307,0
2010-02-24,307,0
2010-02-25,307,0
2010-02-26,307,0
2010-02-27,307,0
2010-02-28,307,0
2010-03-01,307,0
2010-03-02,307,0
2010-03-03,307,0
2010-03-04,307,0
2010-03-05,307,0
2010-03-06,307,0
2010-03-07,307,0
2010-03-08,307,0
2010-03-09,307,0
2010-03-10,307,0
2010-03-11,307,0
2010-03-12,307,0
2010-03-13,307,0
2010-03-14,307,0
2010-03-15,307,0
2010-03-16,307,0
2010-03-17,307,0
2010-03-18,307,0
2010-03-19,307,0
2010-03-20,307,0
2010-03-21,307,0
2010-03-22,307,0
2010-03-23,307,0
2010-03-24,307,0
2010-03-25,307,0
2010-03-26,307,0
2010-03-27,307,0
2010-03-28,307,0
2010-03-29,307,0
2010-03-30,307,0
2010-03-31,307,0
2010-04-01,307,0
2010-04-02,307,0
2010-04-03,307,0
2010-04-04,307,0
2010-04-05,307,0
2010-04-06,307,0
2010-04-07,307,0
2010-04-08,307,0
2010-04-09,307,0
2010-04-10,307,0
2010-04-11,307,0
2010-04-12,307,0
2010-04-13,307,0
2010-04-14,307,0
2010-04-15,307,0
2010-04-16,307,0
2010-04-17,307,0
2010-04-18,307,0
2010-04-19,307,0
2010-04-20,307,0
2010-04-21,307,0
2010-04-22,307,0
2010-04-23,307,0
2010-04-24,307,0
2010-04-25,307,0
2010-04-26,307,0
2010-04-27,307,0
2010-04-28,307,0
2010-04-29,307,0
2010-04-30,307,0
2010-05-01,307,0
2010-05-02,307,0
2010-05-03,307,0
2010-05-04,307,0
2010-05-05,307,0
2010-05-06,307,0
2010-05-07,307,0
2010-05-08,307,0
2010-05-09,307,0
2010-05-10,307,0
2010-05-11,307,0
2010-05-12,307,0
2010-05-13,307,0
2010-05-14,307,0
2010-05-15,307,0
2010-05-16,307,0
2010-05-17,307,0
2010-05-18,307,0
2010-05-19,307,0
2010-05-20,307,0
2010-05-21,307,0
2010-05-22,307,0
2010-05-23,307,0
2010-05-24,307,0
2010-05-25,307,0
2010-05-26,307,0
2010-05-27,307,0
2010-05-28,307,0
2010-05-29,307,0
2010-05-30,307,0
2010-05-31,307,0
2010-06-01,307,0
2010-06-02,307,0
2010-06-03,307,0
2010-06-04,307,0
2010-06-05,307,0
2010-06-06,307,0
2010-06-07,307,0
2010-06-08,307,0
2010-06-09,307,0
2010-06-10,307,0
2010-06-11,307,0
2010-06-12,307,0
2010-06-13,307,0
2010-06-14,307,0
2010-06-15,307,0
2010-06-16,307,0
2010-06-17,307,0
2010-06-18,307,0
2010-06-19,307,0
2010-06-20,307,0
2010-06-21,307,0
2010-06-22,307,0
2010-06-23,307,0
2010-06-24,307,0
2010-06-25,307,0
2010-06-26,307,0
2010-06-27,307,0
2010-06-28,307,0
2010-06-29,307,0
2010-06-30,307,0
2010-07-01,307,0
2010-07-02,307,0
2010-07-03,307,0
2010-07-04,307,0
2010-07-05,307,0
2010-07-06,307,0
2010-07-07,307,0
2010-07-08,307,0
2010-07-09,307,0
2010-07-10,307,0
2010-07-11,307,0
2010-07-12,307,0
2010-07-13,307,0
2010-07-14,307,0
2010-07-15,307,0
2010-07-16,307,0
2010-07-17,307,0
2010-07-18,307,0
2010-07-19,307,0
2010-07-20,307,0
2010-07-21,307,0
2010-07-22,307,0
2010-07-23,307,0
2010-07-24,307,0
2010-07-25,307,0
2010-07-26,307,0
2010-07-27,307,0
2010-07-28,307,0
2010-07-29,307,0
2010-07-30,307,0
2010-07-31,307,0
2010-08-01,307,0
2010-08-02,307,0
2010-08-03,307,0
2010-08-04,307,0
2010-08-05,307,0
2010-08-06,307,0
2010-08-07,307,0
2010-08-08,307,0
2010-08-09,307,0
2010-08-10,307,0
2010-08-11,307,0
2010-08-12,307,0
2010-08-13,307,0
2010-08-14,307,0
2010-08-15,307,0
2010-08-16,307,0
2010-08-17,307,0
2010-08-18,307,0
2010-08-19,307,0
2010-08-20,307,0
2010-08-21,307,0
2010-08-22,307,0
2010-08-23,307,0
2010-08-24,307,0
2010-08-25,307,0
2010-08-26,307,0
2010-08-27,307,0
2010-08-28,307,0
2010-08-29,307,0
2010-08-30,307,0
2010-08-31,307,0
2010-09-01,307,0
2010-09-02,307,0
2010-09-03,307,0
2010-09-04,307,0
2010-09-05,307,0
2010-09-06,307,0
2010-09-07,307,0
2010-09-08,307,0
2010-09-09,307,0
2010-09-10,307,0
2010-09-11,307,0
2010-09-12,307,0
2010-09-13,307,0
2010-09-14,307,0
2010-09-15,307,0
2010-09-16,307,0
2010-09-17,307,0
2010-09-18,307,0
2010-09-19,307,0
2010-09-20,307,0
2010-09-21,307,0
2010-09-22,307,0
2010-09-23,307,0
2010-09-24,307,0
2010-09-25,307,0
2010-09-26,307,0
2010-09-27,307,0
2010-09-28,307,0
2010-09-29,307,0
2010-09-30,307,0
2010-10-01,307,0
2010-10-02,307,0
2010-10-03,307,0
2010-10-04,307,0
2010-10-05,307,0
2010-10-06,307,0
2010-10-07,307,0
2010-10-08,307,0
2010-10-09,307,0
2010-10-10,307,0
2010-10-11,307,0
2010-10-12,307,0
2010-10-13,307,0
2010-10-14,307,0
2010-10-15,307,0
2010-10-16,307,0
2010-10-17,307,0
2010-10-18,307,0
2010-10-19,307,0
2010-10-20,307,0
2010-10-21,307,0
2010-10-22,307,0
2010-10-23,307,0
2010-10-24,307,0
2010-10-25,307,0
2010-10-26,307,0
2010-10-27,307,0
2010-10-28,307,0
2010-10-29,307,0
2010-10-30,307,0
2010-10-31,307,0
2010-11-01,307,0
2010-11-02,307,0
2010-11-03,307,0
2010-11-04,307,0
2010-11-05,307,0
2010-11-06,307,0
2010-11-07,307,0
2010-11-08,307,0
2010-11-09,307,0
2010-11-10,307,0
2010-11-11,307,0
2010-11-12,307,0
2010-11-13,307,0
2010-11-14,307,0
2010-11-15,307,0
2010-11-16,307,0
2010-11-17,307,0
2010-11-18,307,0
2010-11-19,307,0
2010-11-20,307,0
2010-11-21,307,0
2010-11-22,307,0
2010-11-23,307,0
2010-11-24,307,0
2010-11-25,307,0
2010-11-26,307,0
2010-11-27,307,0
2010-11-28,307,0
2010-11-29,307,0
2010-11-30,307,0
2010-12-01,307,0
2010-12-02,307,0
2010-12-03,307,0
2010-12-04,307,0
2010-12-05,307,0
2010-12-06,307,0
2010-12-07,307,0
2010-12-08,307,0
2010-12-09,307,0
2010-12-10,307,0
2010-12-11,307,0
2010-12-12,307,0
2010-12-13,307,0
2010-12-14,307,0
2010-12-15,307,0
2010-12-16,307,0
2010-12-17,307,0
2010-12-18,307,0
2010-12-19,307,0
2010-12-20,307,0
2010-12-21,307,0
2010-12-22,307,0
2010-12-23,307,0
2010-12-24,307,0
2010-12-25,307,0
2010-12-26,307,0
2010-12-27,307,0
2010-12-28,307,0
2010-12-29,307,0
2010-12-30,307,0
2010-12-31,307,0
