Date,Station,Rain Level
2010-01-01,503,0
2010-01-02,503,0
2010-01-03,503,0
2010-01-04,503,0
2010-01-05,503,0
2010-01-06,503,0
2010-01-07,503,0
2010-01-08,503,0
2010-01-09,503,0
2010-01-10,503,0
2010-01-11,503,0
2010-01-12,503,0
2010-01-13,503,0
2010-01-14,503,0
2010-01-15,503,0
2010-01-16,503,0
2010-01-17,503,0
2010-01-18,503,0
2010-01-19,503,0
2010-01-20,503,0
2010-01-21,503,0
2010-01-22,503,0
2010-01-23,503,0
2010-01-24,503,0
2010-01-25,503,0
2010-01-26,503,0
2010-01-27,503,0
2010-01-28,503,0
2010-01-29,503,0
2010-01-30,503,0
2010-01-31,503,0
2010-02-01,503,0
2010-02-02,503,0
2010-02-03,503,0
2010-02-04,503,0
2010-02-05,503,0
2010-02-06,503,0
2010-02-07,503,0
2010-02-08,503,0
2010-02-09,503,0
2010-02-10,503,0
2010-02-11,503,0
2010-02-12,503,0
2010-02-13,503,0
2010-02-14,503,0
2010-02-15,503,0
2010-02-16,503,0
2010-02-17,503,0
2010-02-18,503,0
2010-02-19,503,0
2010-02-20,503,0
2010-02-21,503,0
2010-02-22,503,0
2010-02-23,503,0
2010-02-24,503,0
2010-02-25,503,0
2010-02-26,503,0
2010-02-27,503,0
2010-02-28,503,0
2010-03-01,503,0
2010-03-02,503,0
2010-03-03,503,0
2010-03-04,503,0
2010-03-05,503,0
2010-03-06,503,0
2010-03-07,503,0
2010-03-08,503,0
2010-03-09,503,0
2010-03-10,503,0
2010-03-11,503,0
2010-03-12,503,0
2010-03-13,503,0
2010-03-14,503,0
2010-03-15,503,0
2010-03-16,503,0
2010-03-17,503,0
2010-03-18,503,0
2010-03-19,503,0
2010-03-20,503,0
2010-03-21,503,0
2010-03-22,503,0
2010-03-23,503,0
2010-03-24,503,0
2010-03-25,503,0
2010-03-26,503,0
2010-03-27,503,0
2010-03-28,503,0
2010-03-29,503,0
2010-03-30,503,0
2010-03-31,503,0
2010-04-01,503,0
2010-04-02,503,0
2010-04-03,503,0
2010-04-04,503,0
2010-04-05,503,0
2010-04-06,503,0
2010-04-07,503,0
2010-04-08,503,0
2010-04-09,503,0
2010-04-10,503,0
2010-04-11,503,0
2010-04-12,503,0
2010-04-13,503,0
2010-04-14,503,0
2010-04-15,503,0
2010-04-16,503,0
2010-04-17,503,0
2010-04-18,503,0
2010-04-19,503,0
2010-04-20,503,0
2010-04-21,503,0
2010-04-22,503,0
2010-04-23,503,0
2010-04-24,503,0
2010-04-25,503,0
2010-04-26,503,0
2010-04-27,503,0
2010-04-28,503,0
2010-04-29,503,0
2010-04-30,503,0
2010-05-01,503,0
2010-05-02,503,0
2010-05-03,503,0
2010-05-04,503,0
2010-05-05,503,0
2010-05-06,503,0
2010-05-07,503,0
2010-05-08,503,0
2010-05-09,503,0
2010-05-10,503,0
2010-05-11,503,0
2010-05-12,503,0
2010-05-13,503,0
2010-05-14,503,0
2010-05-15,503,0
2010-05-16,503,0
2010-05-17,503,0
2010-05-18,503,0
2010-05-19,503,0
2010-05-20,503,0
2010-05-21,503,0
2010-05-22,503,0
2010-05-23,503,0
2010-05-24,503,0
2010-05-25,503,0
2010-05-26,503,0
2010-05-27,503,0
2010-05-28,503,0
2010-05-29,503,0
2010-05-30,503,0
2010-05-31,503,0
2010-06-01,503,0
2010-06-02,503,0
2010-06-03,503,0
2010-06-04,503,0
2010-06-05,503,0
2010-06-06,503,0
2010-06-07,503,0
2010-06-08,503,0
2010-06-09,503,0
2010-06-10,503,0
2010-06-11,503,0
2010-06-12,503,0
2010-06-13,503,0
2010-06-14,503,0
2010-06-15,503,0
2010-06-16,503,0
2010-06-17,503,0
2010-06-18,503,0
2010-06-19,503,0
2010-06-20,503,0
2010-06-21,503,0
2010-06-22,503,0
2010-06-23,503,0
2010-06-24,503,0
2010-06-25,503,0
2010-06-26,503,0
2010-06-27,503,0
2010-06-28,503,0
2010-06-29,503,0
2010-06-30,503,0
2010-07-01,503,0
2010-07-02,503,0
2010-07-03,503,0
2010-07-04,503,0
2010-07-05,503,0
2010-07-06,503,0
2010-07-07,503,0
2010-07-08,503,0
2010-07-09,503,0
2010-07-10,503,0
2010-07-11,503,0
2010-07-12,503,0
2010-07-13,503,0
2010-07-14,503,0
2010-07-15,503,0
2010-07-16,503,0
2010-07-17,503,0
2010-07-18,503,0
2010-07-19,503,0
2010-07-20,503,0
2010-07-21,503,0
2010-07-22,503,0
2010-07-23,503,0
2010-07-24,503,0
2010-07-25,503,0
2010-07-26,503,0
2010-07-27,503,0
2010-07-28,503,0
2010-07-29,503,0
2010-07-30,503,0
2010-07-31,503,0
2010-08-01,503,0
2010-08-02,503,0
2010-08-03,503,0
2010-08-04,503,0
2010-08-05,503,0
2010-08-06,503,0
2010-08-07,503,0
2010-08-08,503,0
2010-08-09,503,0
2010-08-10,503,0
2010-08-11,503,0
2010-08-12,503,0
2010-08-13,503,0
2010-08-14,503,0
2010-08-15,503,0
2010-08-16,503,0
2010-08-17,503,0
2010-08-18,503,0
2010-08-19,503,0
2010-08-20,503,0
2010-08-21,503,0
2010-08-22,503,0
2010-08-23,503,0
2010-08-24,503,0
2010-08-25,503,0
2010-08-26,503,0
2010-08-27,503,0
2010-08-28,503,0
2010-08-29,503,0
2010-08-30,503,0
2010-08-31,503,0
2010-09-01,503,0
2010-09-02,503,0
2010-09-03,503,0
2010-09-04,503,0
2010-09-05,503,0
2010-09-06,503,0
2010-09-07,503,0
2010-09-08,503,0
2010-09-09,503,0
2010-09-10,503,0
2010-09-11,503,0
2010-09-12,503,0
2010-09-13,503,0
2010-09-14,503,0
2010-09-15,503,0
2010-09-16,503,0
2010-09-17,503,0
2010-09-18,503,0
2010-09-19,503,0
2010-09-20,503,0
2010-09-21,503,0
2010-09-22,503,0
2010-09-23,503,0
2010-09-24,503,0
2010-09-25,503,0
2010-09-26,503,0
2010-09-27,503,0
2010-09-28,503,0
2010-09-29,503,0
2010-09-30,503,0
2010-10-01,503,0
2010-10-02,503,0
2010-10-03,503,0
2010-10-04,503,0
2010-10-05,503,0
2010-10-06,503,0
2010-10-07,503,0
2010-10-08,503,0
2010-10-09,503,0
2010-10-10,503,0
2010-10-11,503,0
2010-10-12,503,0
2010-10-13,503,0
2010-10-14,503,0
2010-10-15,503,0
2010-10-16,503,0
2010-10-17,503,0
2010-10-18,503,0
2010-10-19,503,0
2010-10-20,503,0
2010-10-21,503,0
2010-10-22,503,0
2010-10-23,503,0
2010-10-24,503,0
2010-10-25,503,0
2010-10-26,503,0
2010-10-27,503,0
2010-10-28,503,0
2010-10-29,503,0
2010-10-30,503,0
2010-10-31,503,0
2010-11-01,503,0
2010-11-02,503,0
2010-11-03,503,0
2010-11-04,503,0
2010-11-05,503,0
2010-11-06,503,0
2010-11-07,503,0
2010-11-08,503,0
2010-11-09,503,0
2010-11-10,503,0
2010-11-11,503,0
2010-11-12,503,0
2010-11-13,503,0
2010-11-14,503,0
2010-11-15,503,0
2010-11-16,503,0
2010-11-17,503,0
2010-11-18,503,0
2010-11-19,503,0
2010-11-20,503,0
2010-11-21,503,0
2010-11-22,503,0
2010-11-23,503,0
2010-11-24,503,0
2010-11-25,503,0
2010-11-26,503,0
2010-11-27,503,0
2010-11-28,503,0
2010-11-29,503,0
2010-11-30,503,0
2010-12-01,503,0
2010-12-02,503,0
2010-12-03,503,0
2010-12-04,503,0
2010-12-05,503,0
2010-12-06,503,0
2010-12-07,503,0
2010-12-08,503,0
2010-12-09,503,0
2010-12-10,503,0
2010-12-11,503,0
2010-12-12,503,0
2010-12-13,503,0
2010-12-14,503,0
2010-12-15,503,0
2010-12-16,503,0
2010-12-17,503,0
2010-12-18,503,0
2010-12-19,503,0
2010-12-20,503,0
2010-12-21,503,0
2010-12-22,503,0
2010-12-23,503,0
2010-12-24,503,0
2010-12-25,503,0
2010-12-26,503,0
2010-12-27,503,0
2010-12-28,503,0
2010-12-29,503,0
2010-12-30,503,0
2010-12-31,503,0
