Date,Station,Rain Level
2018-01-01,11,0.1
2018-01-02,11,1.7
2018-01-03,11,5.599999999999999
2018-01-04,11,2.2
2018-01-05,11,1.4000000000000001
2018-01-06,11,0.6
2018-01-07,11,0.0
2018-01-08,11,0.1
2018-01-09,11,0.0
2018-01-10,11,0.0
2018-01-11,11,0.0
2018-01-12,11,0.0
2018-01-13,11,0.0
2018-01-14,11,0.0
2018-01-15,11,0.0
2018-01-16,11,0.0
2018-01-17,11,1.9000000000000001
2018-01-18,11,1.7000000000000002
2018-01-19,11,2.5000000000000004
2018-01-20,11,1.0
2018-01-21,11,0.0
2018-01-22,11,0.0
2018-01-23,11,0.0
2018-01-24,11,7.6000000000000005
2018-01-25,11,6.699999999999999
2018-01-26,11,2.1
2018-01-27,11,1.1
2018-01-28,11,1.3000000000000003
2018-01-29,11,4.9
2018-01-30,11,5.299999999999999
2018-01-31,11,3.9
2018-02-01,11,0.0
2018-02-02,11,0.1
2018-02-03,11,2.0
2018-02-04,11,1.6000000000000003
2018-02-05,11,0.0
2018-02-06,11,0.0
2018-02-07,11,0.0
2018-02-08,11,2.1
2018-02-09,11,0.8
2018-02-10,11,0.0
2018-02-11,11,0.0
2018-02-12,11,2.5
2018-02-13,11,0.5
2018-02-14,11,1.2000000000000002
2018-02-15,11,0.2
2018-02-16,11,1.2
2018-02-17,11,0.7
2018-02-18,11,0.0
2018-02-19,11,0.0
2018-02-20,11,0.0
2018-02-21,11,0.3
2018-02-22,11,0.0
2018-02-23,11,0.0
2018-02-24,11,0.0
2018-02-25,11,0.1
2018-02-26,11,0.0
2018-02-27,11,0.0
2018-02-28,11,0.0
2018-03-01,11,3.0
2018-03-02,11,1.4000000000000001
2018-03-03,11,0.4
2018-03-04,11,0.6
2018-03-05,11,0.0
2018-03-06,11,0.4
2018-03-07,11,0.5
2018-03-08,11,0.2
2018-03-09,11,3.4000000000000004
2018-03-10,11,2.3000000000000003
2018-03-11,11,0.7999999999999999
2018-03-12,11,1.3
2018-03-13,11,0.4
2018-03-14,11,0.30000000000000004
2018-03-15,11,0.0
2018-03-16,11,0.0
2018-03-17,11,0.0
2018-03-18,11,0.0
2018-03-19,11,0.0
2018-03-20,11,0.5
2018-03-21,11,0.30000000000000004
2018-03-22,11,0.30000000000000004
2018-03-23,11,0.0
2018-03-24,11,0.0
2018-03-25,11,0.0
2018-03-26,11,0.5
2018-03-27,11,0.0
2018-03-28,11,0.7
2018-03-29,11,6.199999999999999
2018-03-30,11,0.0
2018-03-31,11,17.5
2018-04-01,11,3.3000000000000007
2018-04-02,11,0.3
2018-04-03,11,0.7999999999999999
2018-04-04,11,0.5
2018-04-05,11,1.3
2018-04-06,11,0.0
2018-04-07,11,0.0
2018-04-08,11,0.0
2018-04-09,11,0.5
2018-04-10,11,0.0
2018-04-11,11,0.1
2018-04-12,11,0.0
2018-04-13,11,0.0
2018-04-14,11,0.1
2018-04-15,11,0.1
2018-04-16,11,15.9
2018-04-17,11,0.0
2018-04-18,11,0.0
2018-04-19,11,0.0
2018-04-20,11,0.0
2018-04-21,11,0.0
2018-04-22,11,0.0
2018-04-23,11,2.9000000000000004
2018-04-24,11,0.7
2018-04-25,11,12.299999999999999
2018-04-26,11,0.30000000000000004
2018-04-27,11,0.0
2018-04-28,11,0.0
2018-04-29,11,0.0
2018-04-30,11,0.7
2018-05-01,11,0.0
2018-05-02,11,5.1
2018-05-03,11,0.0
2018-05-04,11,0.0
2018-05-05,11,0.0
2018-05-06,11,0.0
2018-05-07,11,0.0
2018-05-08,11,0.0
2018-05-09,11,0.0
2018-05-10,11,0.0
2018-05-11,11,5.0
2018-05-12,11,0.0
2018-05-13,11,0.0
2018-05-14,11,0.0
2018-05-15,11,0.0
2018-05-16,11,1.0
2018-05-17,11,2.6
2018-05-18,11,1.2000000000000002
2018-05-19,11,0.0
2018-05-20,11,0.0
2018-05-21,11,0.0
2018-05-22,11,1.2
2018-05-23,11,0.0
2018-05-24,11,0.0
2018-05-25,11,16.6
2018-05-26,11,0.0
2018-05-27,11,0.0
2018-05-28,11,0.0
2018-05-29,11,0.0
2018-05-30,11,0.0
2018-05-31,11,0.0
2018-06-01,11,0.2
2018-06-02,11,3.2
2018-06-03,11,0.0
2018-06-04,11,0.30000000000000004
2018-06-05,11,0.1
2018-06-06,11,0.0
2018-06-07,11,0.0
2018-06-08,11,0.0
2018-06-09,11,0.0
2018-06-10,11,2.6
2018-06-11,11,0.0
2018-06-12,11,0.0
2018-06-13,11,0.2
2018-06-14,11,0.0
2018-06-15,11,0.0
2018-06-16,11,0.0
2018-06-17,11,0.5
2018-06-18,11,0.0
2018-06-19,11,0.0
2018-06-20,11,0.3
2018-06-21,11,3.0
2018-06-22,11,6.2
2018-06-23,11,3.1
2018-06-24,11,0.2
2018-06-25,11,5.8
2018-06-26,11,0.1
2018-06-27,11,0.0
2018-06-28,11,0.0
2018-06-29,11,0.0
2018-06-30,11,0.0
2018-07-01,11,0.2
2018-07-02,11,0.0
2018-07-03,11,0.0
2018-07-04,11,0.0
2018-07-05,11,0.0
2018-07-06,11,0.0
2018-07-07,11,0.0
2018-07-08,11,0.0
2018-07-09,11,0.0
2018-07-10,11,0.0
2018-07-11,11,8.299999999999999
2018-07-12,11,17.1
2018-07-13,11,4.0
2018-07-14,11,0.1
2018-07-15,11,0.0
2018-07-16,11,4.1000000000000005
2018-07-17,11,25.8
2018-07-18,11,0.0
2018-07-19,11,1.7000000000000002
2018-07-20,11,0.0
2018-07-21,11,0.0
2018-07-22,11,0.0
2018-07-23,11,0.0
2018-07-24,11,0.0
2018-07-25,11,0.0
2018-07-26,11,0.0
2018-07-27,11,0.0
2018-07-28,11,0.30000000000000004
2018-07-29,11,15.4
2018-07-30,11,0.0
2018-07-31,11,0.0
2018-08-01,11,0.1
2018-08-02,11,0.3
2018-08-03,11,0.0
2018-08-04,11,4.0
2018-08-05,11,0.2
2018-08-06,11,0.0
2018-08-07,11,0.0
2018-08-08,11,0.0
2018-08-09,11,0.0
2018-08-10,11,10.8
2018-08-11,11,4.3
2018-08-12,11,0.0
2018-08-13,11,3.6
2018-08-14,11,7.3999999999999995
2018-08-15,11,0.1
2018-08-16,11,0.0
2018-08-17,11,0.0
2018-08-18,11,0.1
2018-08-19,11,0.0
2018-08-20,11,0.1
2018-08-21,11,0.0
2018-08-22,11,0.0
2018-08-23,11,7.5
2018-08-24,11,9.300000000000002
2018-08-25,11,3.6999999999999997
2018-08-26,11,0.0
2018-08-27,11,0.6
2018-08-28,11,0.0
2018-08-29,11,0.0
2018-08-30,11,0.1
2018-08-31,11,1.9000000000000001
2018-09-01,11,0.0
2018-09-02,11,0.0
2018-09-03,11,0.1
2018-09-04,11,0.2
2018-09-05,11,0.0
2018-09-06,11,9.0
2018-09-07,11,3.9
2018-09-08,11,0.4
2018-09-09,11,0.0
2018-09-10,11,0.0
2018-09-11,11,0.0
2018-09-12,11,0.0
2018-09-13,11,0.0
2018-09-14,11,0.0
2018-09-15,11,0.0
2018-09-16,11,0.0
2018-09-17,11,0.0
2018-09-18,11,0.0
2018-09-19,11,0.0
2018-09-20,11,0.0
2018-09-21,11,6.0
2018-09-22,11,2.5
2018-09-23,11,4.9
2018-09-24,11,2.4000000000000004
2018-09-25,11,0.0
2018-09-26,11,1.3000000000000003
2018-09-27,11,0.7999999999999999
2018-09-28,11,0.2
2018-09-29,11,0.0
2018-09-30,11,0.0
2018-10-01,11,0.0
2018-10-02,11,9.299999999999999
2018-10-03,11,2.0
2018-10-04,11,0.0
2018-10-05,11,0.0
2018-10-06,11,0.0
2018-10-07,11,0.7999999999999999
2018-10-08,11,0.0
2018-10-09,11,0.0
2018-10-10,11,0.0
2018-10-11,11,0.0
2018-10-12,11,0.0
2018-10-13,11,0.0
2018-10-14,11,0.0
2018-10-15,11,0.0
2018-10-16,11,0.0
2018-10-17,11,0.0
2018-10-18,11,0.0
2018-10-19,11,0.0
2018-10-20,11,0.1
2018-10-21,11,0.0
2018-10-22,11,2.7
2018-10-23,11,28.100000000000005
2018-10-24,11,0.4
2018-10-25,11,3.7
2018-10-26,11,0.6
2018-10-27,11,0.2
2018-10-28,11,9.2
2018-10-29,11,1.7000000000000002
2018-10-30,11,0.1
2018-10-31,11,0.0
2018-11-01,11,0.0
2018-11-02,11,0.8999999999999999
2018-11-03,11,0.0
2018-11-04,11,0.7
2018-11-05,11,0.0
2018-11-06,11,0.0
2018-11-07,11,0.0
2018-11-08,11,0.2
2018-11-09,11,0.5
2018-11-10,11,0.1
2018-11-11,11,0.1
2018-11-12,11,0.0
2018-11-13,11,12.600000000000001
2018-11-14,11,2.8000000000000003
2018-11-15,11,0.0
2018-11-16,11,0.1
2018-11-17,11,0.0
2018-11-18,11,8.2
2018-11-19,11,0.1
2018-11-20,11,0.0
2018-11-21,11,0.0
2018-11-22,11,0.0
2018-11-23,11,0.0
2018-11-24,11,0.0
2018-11-25,11,0.2
2018-11-26,11,0.0
2018-11-27,11,0.0
2018-11-28,11,0.0
2018-11-29,11,0.0
2018-11-30,11,0.0
2018-12-01,11,0.0
2018-12-02,11,3.4
2018-12-03,11,2.8
2018-12-04,11,1.0999999999999999
2018-12-05,11,0.4
2018-12-06,11,4.4
2018-12-07,11,6.8
2018-12-08,11,0.1
2018-12-09,11,2.3000000000000003
2018-12-10,11,2.9000000000000004
2018-12-11,11,2.400000000000001
2018-12-12,11,4.9
2018-12-13,11,0.0
2018-12-14,11,0.0
2018-12-15,11,0.0
2018-12-16,11,0.0
2018-12-17,11,0.2
2018-12-18,11,0.0
2018-12-19,11,0.1
2018-12-20,11,0.0
2018-12-21,11,0.7999999999999999
2018-12-22,11,7.099999999999999
2018-12-23,11,0.9
2018-12-24,11,0.0
2018-12-25,11,7.2
2018-12-26,11,0.2
2018-12-27,11,2.5000000000000004
2018-12-28,11,0.0
2018-12-29,11,0.8999999999999999
2018-12-30,11,6.499999999999998
2018-12-31,11,0.8
