Date,Station,Rain Level
2018-01-01,501,0
2018-01-02,501,0
2018-01-03,501,0
2018-01-04,501,0
2018-01-05,501,0
2018-01-06,501,0
2018-01-07,501,0
2018-01-08,501,0
2018-01-09,501,0
2018-01-10,501,0
2018-01-11,501,0
2018-01-12,501,0
2018-01-13,501,0
2018-01-14,501,0
2018-01-15,501,0
2018-01-16,501,0
2018-01-17,501,0
2018-01-18,501,0
2018-01-19,501,0
2018-01-20,501,0
2018-01-21,501,0
2018-01-22,501,0
2018-01-23,501,0
2018-01-24,501,0
2018-01-25,501,0
2018-01-26,501,0
2018-01-27,501,0
2018-01-28,501,0
2018-01-29,501,0
2018-01-30,501,0
2018-01-31,501,0
2018-02-01,501,0
2018-02-02,501,0
2018-02-03,501,0
2018-02-04,501,0
2018-02-05,501,0
2018-02-06,501,0
2018-02-07,501,0
2018-02-08,501,0
2018-02-09,501,0
2018-02-10,501,0
2018-02-11,501,0
2018-02-12,501,0
2018-02-13,501,0
2018-02-14,501,0
2018-02-15,501,0
2018-02-16,501,0
2018-02-17,501,0
2018-02-18,501,0
2018-02-19,501,0
2018-02-20,501,0
2018-02-21,501,0
2018-02-22,501,0
2018-02-23,501,0
2018-02-24,501,0
2018-02-25,501,0
2018-02-26,501,0
2018-02-27,501,0
2018-02-28,501,0
2018-03-01,501,0
2018-03-02,501,0
2018-03-03,501,0
2018-03-04,501,0
2018-03-05,501,0
2018-03-06,501,0
2018-03-07,501,0
2018-03-08,501,0
2018-03-09,501,0
2018-03-10,501,0
2018-03-11,501,0
2018-03-12,501,0
2018-03-13,501,0
2018-03-14,501,0
2018-03-15,501,0
2018-03-16,501,0
2018-03-17,501,0
2018-03-18,501,0
2018-03-19,501,0
2018-03-20,501,0
2018-03-21,501,0
2018-03-22,501,0
2018-03-23,501,0
2018-03-24,501,0
2018-03-25,501,0
2018-03-26,501,0
2018-03-27,501,0
2018-03-28,501,0
2018-03-29,501,0
2018-03-30,501,0
2018-03-31,501,0
2018-04-01,501,0
2018-04-02,501,0
2018-04-03,501,0
2018-04-04,501,0
2018-04-05,501,0
2018-04-06,501,0
2018-04-07,501,0
2018-04-08,501,0
2018-04-09,501,0
2018-04-10,501,0
2018-04-11,501,0
2018-04-12,501,0
2018-04-13,501,0
2018-04-14,501,0
2018-04-15,501,0
2018-04-16,501,0
2018-04-17,501,0
2018-04-18,501,0
2018-04-19,501,0
2018-04-20,501,0
2018-04-21,501,0
2018-04-22,501,0
2018-04-23,501,0
2018-04-24,501,0
2018-04-25,501,0
2018-04-26,501,0
2018-04-27,501,0
2018-04-28,501,0
2018-04-29,501,0
2018-04-30,501,0
2018-05-01,501,0
2018-05-02,501,0
2018-05-03,501,0
2018-05-04,501,0
2018-05-05,501,0
2018-05-06,501,0
2018-05-07,501,0
2018-05-08,501,0
2018-05-09,501,0
2018-05-10,501,0
2018-05-11,501,0
2018-05-12,501,0
2018-05-13,501,0
2018-05-14,501,0
2018-05-15,501,0
2018-05-16,501,0
2018-05-17,501,0
2018-05-18,501,0
2018-05-19,501,0
2018-05-20,501,0
2018-05-21,501,0
2018-05-22,501,0
2018-05-23,501,0
2018-05-24,501,0
2018-05-25,501,0
2018-05-26,501,0
2018-05-27,501,0
2018-05-28,501,0
2018-05-29,501,0
2018-05-30,501,0
2018-05-31,501,0
2018-06-01,501,0
2018-06-02,501,0
2018-06-03,501,0
2018-06-04,501,0
2018-06-05,501,0
2018-06-06,501,0
2018-06-07,501,0
2018-06-08,501,0
2018-06-09,501,0
2018-06-10,501,0
2018-06-11,501,0
2018-06-12,501,0
2018-06-13,501,0
2018-06-14,501,0
2018-06-15,501,0
2018-06-16,501,0
2018-06-17,501,0
2018-06-18,501,0
2018-06-19,501,0
2018-06-20,501,0
2018-06-21,501,0
2018-06-22,501,0
2018-06-23,501,0
2018-06-24,501,0
2018-06-25,501,0
2018-06-26,501,0
2018-06-27,501,0
2018-06-28,501,0
2018-06-29,501,0
2018-06-30,501,0
2018-07-01,501,0
2018-07-02,501,0
2018-07-03,501,0
2018-07-04,501,0
2018-07-05,501,0
2018-07-06,501,0
2018-07-07,501,0
2018-07-08,501,0
2018-07-09,501,0
2018-07-10,501,0
2018-07-11,501,0
2018-07-12,501,0
2018-07-13,501,0
2018-07-14,501,0
2018-07-15,501,0
2018-07-16,501,0
2018-07-17,501,0
2018-07-18,501,0
2018-07-19,501,0
2018-07-20,501,0
2018-07-21,501,0
2018-07-22,501,0
2018-07-23,501,0
2018-07-24,501,0
2018-07-25,501,0
2018-07-26,501,0
2018-07-27,501,0
2018-07-28,501,0
2018-07-29,501,0
2018-07-30,501,0
2018-07-31,501,0
2018-08-01,501,0
2018-08-02,501,0
2018-08-03,501,0
2018-08-04,501,0
2018-08-05,501,0
2018-08-06,501,0
2018-08-07,501,0
2018-08-08,501,0
2018-08-09,501,0
2018-08-10,501,0
2018-08-11,501,0
2018-08-12,501,0
2018-08-13,501,0
2018-08-14,501,0
2018-08-15,501,0
2018-08-16,501,0
2018-08-17,501,0
2018-08-18,501,0
2018-08-19,501,0
2018-08-20,501,0
2018-08-21,501,0
2018-08-22,501,0
2018-08-23,501,0
2018-08-24,501,0
2018-08-25,501,0
2018-08-26,501,0
2018-08-27,501,0
2018-08-28,501,0
2018-08-29,501,0
2018-08-30,501,0
2018-08-31,501,0
2018-09-01,501,0
2018-09-02,501,0
2018-09-03,501,0
2018-09-04,501,0
2018-09-05,501,0
2018-09-06,501,0
2018-09-07,501,0
2018-09-08,501,0
2018-09-09,501,0
2018-09-10,501,0
2018-09-11,501,0
2018-09-12,501,0
2018-09-13,501,0
2018-09-14,501,0
2018-09-15,501,0
2018-09-16,501,0
2018-09-17,501,0
2018-09-18,501,0
2018-09-19,501,0
2018-09-20,501,0
2018-09-21,501,0
2018-09-22,501,0
2018-09-23,501,0
2018-09-24,501,0
2018-09-25,501,0
2018-09-26,501,0
2018-09-27,501,0
2018-09-28,501,0
2018-09-29,501,0
2018-09-30,501,0
2018-10-01,501,0
2018-10-02,501,0
2018-10-03,501,0
2018-10-04,501,0
2018-10-05,501,0
2018-10-06,501,0
2018-10-07,501,0
2018-10-08,501,0
2018-10-09,501,0
2018-10-10,501,0
2018-10-11,501,0
2018-10-12,501,0
2018-10-13,501,0
2018-10-14,501,0
2018-10-15,501,0
2018-10-16,501,0
2018-10-17,501,0
2018-10-18,501,0
2018-10-19,501,0
2018-10-20,501,0
2018-10-21,501,0
2018-10-22,501,0
2018-10-23,501,0
2018-10-24,501,0
2018-10-25,501,0
2018-10-26,501,0
2018-10-27,501,0
2018-10-28,501,0
2018-10-29,501,0
2018-10-30,501,0
2018-10-31,501,0
2018-11-01,501,0
2018-11-02,501,0
2018-11-03,501,0
2018-11-04,501,0
2018-11-05,501,0
2018-11-06,501,0
2018-11-07,501,0
2018-11-08,501,0
2018-11-09,501,0
2018-11-10,501,0
2018-11-11,501,0
2018-11-12,501,0
2018-11-13,501,0
2018-11-14,501,0
2018-11-15,501,0
2018-11-16,501,0
2018-11-17,501,0
2018-11-18,501,0
2018-11-19,501,0
2018-11-20,501,0
2018-11-21,501,0
2018-11-22,501,0
2018-11-23,501,0
2018-11-24,501,0
2018-11-25,501,0
2018-11-26,501,0
2018-11-27,501,0
2018-11-28,501,0
2018-11-29,501,0
2018-11-30,501,0
2018-12-01,501,0
2018-12-02,501,0
2018-12-03,501,0
2018-12-04,501,0
2018-12-05,501,0
2018-12-06,501,0
2018-12-07,501,0
2018-12-08,501,0
2018-12-09,501,0
2018-12-10,501,0
2018-12-11,501,0
2018-12-12,501,0
2018-12-13,501,0
2018-12-14,501,0
2018-12-15,501,0
2018-12-16,501,0
2018-12-17,501,0
2018-12-18,501,0
2018-12-19,501,0
2018-12-20,501,0
2018-12-21,501,0
2018-12-22,501,0
2018-12-23,501,0
2018-12-24,501,0
2018-12-25,501,0
2018-12-26,501,0
2018-12-27,501,0
2018-12-28,501,0
2018-12-29,501,0
2018-12-30,501,0
2018-12-31,501,0
