Date,Station,Temperature
2018-01-01,94,-273.0
2018-01-02,94,-273.0
2018-01-03,94,-273.0
2018-01-04,94,-273.0
2018-01-05,94,-273.0
2018-01-06,94,-273.0
2018-01-07,94,-273.0
2018-01-08,94,-273.0
2018-01-09,94,-273.0
2018-01-10,94,-273.0
2018-01-11,94,-273.0
2018-01-12,94,-273.0
2018-01-13,94,-273.0
2018-01-14,94,-273.0
2018-01-15,94,-273.0
2018-01-16,94,-273.0
2018-01-17,94,-273.0
2018-01-18,94,-273.0
2018-01-19,94,-273.0
2018-01-20,94,-273.0
2018-01-21,94,-273.0
2018-01-22,94,-273.0
2018-01-23,94,-273.0
2018-01-24,94,-273.0
2018-01-25,94,-273.0
2018-01-26,94,-273.0
2018-01-27,94,-273.0
2018-01-28,94,-273.0
2018-01-29,94,-273.0
2018-01-30,94,-273.0
2018-01-31,94,-273.0
2018-02-01,94,-273.0
2018-02-02,94,-273.0
2018-02-03,94,-273.0
2018-02-04,94,-273.0
2018-02-05,94,-273.0
2018-02-06,94,-273.0
2018-02-07,94,-273.0
2018-02-08,94,-273.0
2018-02-09,94,-273.0
2018-02-10,94,-273.0
2018-02-11,94,-273.0
2018-02-12,94,-273.0
2018-02-13,94,-273.0
2018-02-14,94,-273.0
2018-02-15,94,-273.0
2018-02-16,94,-273.0
2018-02-17,94,-273.0
2018-02-18,94,-273.0
2018-02-19,94,-273.0
2018-02-20,94,-273.0
2018-02-21,94,-273.0
2018-02-22,94,-273.0
2018-02-23,94,-273.0
2018-02-24,94,-273.0
2018-02-25,94,-273.0
2018-02-26,94,-273.0
2018-02-27,94,-273.0
2018-02-28,94,-273.0
2018-03-01,94,-273.0
2018-03-02,94,-273.0
2018-03-03,94,-273.0
2018-03-04,94,-273.0
2018-03-05,94,-273.0
2018-03-06,94,-273.0
2018-03-07,94,-273.0
2018-03-08,94,-273.0
2018-03-09,94,-273.0
2018-03-10,94,-273.0
2018-03-11,94,-273.0
2018-03-12,94,-273.0
2018-03-13,94,-273.0
2018-03-14,94,-273.0
2018-03-15,94,-273.0
2018-03-16,94,-273.0
2018-03-17,94,-273.0
2018-03-18,94,-273.0
2018-03-19,94,-273.0
2018-03-20,94,-273.0
2018-03-21,94,-273.0
2018-03-22,94,-273.0
2018-03-23,94,-273.0
2018-03-24,94,-273.0
2018-03-25,94,-273.0
2018-03-26,94,-273.0
2018-03-27,94,-273.0
2018-03-28,94,-273.0
2018-03-29,94,-273.0
2018-03-30,94,-273.0
2018-03-31,94,-273.0
2018-04-01,94,-273.0
2018-04-02,94,-273.0
2018-04-03,94,-273.0
2018-04-04,94,-273.0
2018-04-05,94,-273.0
2018-04-06,94,-273.0
2018-04-07,94,-273.0
2018-04-08,94,-273.0
2018-04-09,94,-273.0
2018-04-10,94,-273.0
2018-04-11,94,-273.0
2018-04-12,94,-273.0
2018-04-13,94,-273.0
2018-04-14,94,-273.0
2018-04-15,94,-273.0
2018-04-16,94,-273.0
2018-04-17,94,-273.0
2018-04-18,94,-273.0
2018-04-19,94,-273.0
2018-04-20,94,-273.0
2018-04-21,94,-273.0
2018-04-22,94,-273.0
2018-04-23,94,-273.0
2018-04-24,94,-273.0
2018-04-25,94,-273.0
2018-04-26,94,-273.0
2018-04-27,94,-273.0
2018-04-28,94,-273.0
2018-04-29,94,-273.0
2018-04-30,94,-273.0
2018-05-01,94,-273.0
2018-05-02,94,-273.0
2018-05-03,94,-273.0
2018-05-04,94,-273.0
2018-05-05,94,-273.0
2018-05-06,94,-273.0
2018-05-07,94,-273.0
2018-05-08,94,-273.0
2018-05-09,94,-273.0
2018-05-10,94,-273.0
2018-05-11,94,-273.0
2018-05-12,94,-273.0
2018-05-13,94,-273.0
2018-05-14,94,-273.0
2018-05-15,94,-273.0
2018-05-16,94,-273.0
2018-05-17,94,-273.0
2018-05-18,94,-273.0
2018-05-19,94,-273.0
2018-05-20,94,-273.0
2018-05-21,94,-273.0
2018-05-22,94,-273.0
2018-05-23,94,13.950000000000001
2018-05-24,94,15.387500000000003
2018-05-25,94,16.55416666666667
2018-05-26,94,17.754166666666666
2018-05-27,94,18.229166666666664
2018-05-28,94,20.35
2018-05-29,94,20.8625
2018-05-30,94,21.804166666666664
2018-05-31,94,18.875
2018-06-01,94,19.991666666666664
2018-06-02,94,18.7625
2018-06-03,94,22.50833333333333
2018-06-04,94,20.766666666666666
2018-06-05,94,13.049999999999999
2018-06-06,94,11.608333333333334
2018-06-07,94,18.000000000000004
2018-06-08,94,18.658333333333335
2018-06-09,94,18.025000000000002
2018-06-10,94,21.216666666666665
2018-06-11,94,17.358333333333338
2018-06-12,94,16.075
2018-06-13,94,16.245833333333337
2018-06-14,94,16.1375
2018-06-15,94,17.995833333333337
2018-06-16,94,17.291666666666668
2018-06-17,94,21.59583333333333
2018-06-18,94,17.870833333333337
2018-06-19,94,19.554166666666667
2018-06-20,94,18.925
2018-06-21,94,16.395833333333336
2018-06-22,94,13.958333333333337
2018-06-23,94,14.125000000000002
2018-06-24,94,15.612500000000002
2018-06-25,94,16.158333333333335
2018-06-26,94,15.766666666666666
2018-06-27,94,30.44583333333333
2018-06-28,94,19.854166666666664
2018-06-29,94,15.754166666666663
2018-06-30,94,15.137499999999998
2018-07-01,94,14.912500000000001
2018-07-02,94,15.787500000000003
2018-07-03,94,18.250000000000004
2018-07-04,94,22.812500000000004
2018-07-05,94,19.458333333333332
2018-07-06,94,19.429166666666667
2018-07-07,94,19.241666666666667
2018-07-08,94,17.60833333333333
2018-07-09,94,18.479166666666668
2018-07-10,94,18.529166666666665
2018-07-11,94,19.64166666666667
2018-07-12,94,17.9875
2018-07-13,94,17.82916666666667
2018-07-14,94,19.437500000000004
2018-07-15,94,21.516666666666662
2018-07-16,94,21.412499999999994
2018-07-17,94,20.166666666666668
2018-07-18,94,21.829166666666666
2018-07-19,94,22.258333333333336
2018-07-20,94,20.904166666666665
2018-07-21,94,21.254166666666666
2018-07-22,94,20.0625
2018-07-23,94,21.679166666666664
2018-07-24,94,21.508333333333336
2018-07-25,94,22.900000000000002
2018-07-26,94,23.09166666666667
2018-07-27,94,22.84166666666667
2018-07-28,94,22.137500000000003
2018-07-29,94,21.575
2018-07-30,94,22.712500000000002
2018-07-31,94,24.945833333333336
2018-08-01,94,24.383333333333336
2018-08-02,94,23.875
2018-08-03,94,23.329166666666666
2018-08-04,94,22.879166666666663
2018-08-05,94,20.079166666666666
2018-08-06,94,20.28333333333333
2018-08-07,94,24.15416666666667
2018-08-08,94,26.920833333333334
2018-08-09,94,26.720833333333335
2018-08-10,94,19.662499999999998
2018-08-11,94,17.37916666666667
2018-08-12,94,17.7
2018-08-13,94,19.70416666666667
2018-08-14,94,18.520833333333332
2018-08-15,94,18.875000000000004
2018-08-16,94,19.099999999999998
2018-08-17,94,21.44583333333333
2018-08-18,94,19.19583333333333
2018-08-19,94,20.450000000000003
2018-08-20,94,19.554166666666664
2018-08-21,94,16.029166666666665
2018-08-22,94,18.583333333333336
2018-08-23,94,22.716666666666665
2018-08-24,94,17.295833333333334
2018-08-25,94,15.945833333333335
2018-08-26,94,14.1625
2018-08-27,94,16.666666666666664
2018-08-28,94,16.070833333333333
2018-08-29,94,16.487499999999997
2018-08-30,94,20.0875
2018-08-31,94,17.1375
2018-09-01,94,17.2875
2018-09-02,94,18.054166666666664
2018-09-03,94,18.61666666666667
2018-09-04,94,17.954166666666662
2018-09-05,94,18.699999999999996
2018-09-06,94,17.833333333333332
2018-09-07,94,18.604166666666664
2018-09-08,94,13.933333333333332
2018-09-09,94,15.558333333333335
2018-09-10,94,18.933333333333334
2018-09-11,94,18.695833333333336
2018-09-12,94,16.400000000000002
2018-09-13,94,12.91666666666667
2018-09-14,94,15.025
2018-09-15,94,14.891666666666666
2018-09-16,94,13.1
2018-09-17,94,1.1541666666666666
2018-09-18,94,1.4583333333333333
2018-09-19,94,1.3624999999999998
2018-09-20,94,1.2291666666666667
2018-09-21,94,16.64583333333334
2018-09-22,94,11.079166666666667
2018-09-23,94,10.495833333333332
2018-09-24,94,8.537500000000001
2018-09-25,94,9.275
2018-09-26,94,12.650000000000004
2018-09-27,94,16.5125
2018-09-28,94,9.2375
2018-09-29,94,9.541666666666666
2018-09-30,94,10.041666666666664
2018-10-01,94,11.679166666666667
2018-10-02,94,9.0375
2018-10-03,94,7.895833333333335
2018-10-04,94,11.691666666666668
2018-10-05,94,13.808333333333332
2018-10-06,94,14.766666666666666
2018-10-07,94,9.395833333333332
2018-10-08,94,10.145833333333332
2018-10-09,94,12.645833333333334
2018-10-10,94,13.212499999999999
2018-10-11,94,14.608333333333334
2018-10-12,94,16.087500000000002
2018-10-13,94,16.362499999999994
2018-10-14,94,16.91666666666666
2018-10-15,94,16.445833333333333
2018-10-16,94,13.35833333333334
2018-10-17,94,13.379166666666665
2018-10-18,94,13.56666666666667
2018-10-19,94,8.750000000000002
2018-10-20,94,8.470833333333333
2018-10-21,94,9.708333333333334
2018-10-22,94,8.495833333333334
2018-10-23,94,7.8125
2018-10-24,94,6.3999999999999995
2018-10-25,94,8.766666666666667
2018-10-26,94,8.987500000000002
2018-10-27,94,6.424999999999998
2018-10-28,94,5.8500000000000005
2018-10-29,94,5.816666666666666
2018-10-30,94,14.491666666666667
2018-10-31,94,7.320833333333334
2018-11-01,94,10.758333333333335
2018-11-02,94,10.287499999999998
2018-11-03,94,5.758333333333332
2018-11-04,94,8.991666666666667
2018-11-05,94,10.495833333333334
2018-11-06,94,11.845833333333337
2018-11-07,94,8.345833333333333
2018-11-08,94,9.133333333333335
2018-11-09,94,8.375000000000002
2018-11-10,94,8.516666666666664
2018-11-11,94,7.383333333333333
2018-11-12,94,10.6875
2018-11-13,94,9.262500000000001
2018-11-14,94,9.025
2018-11-15,94,6.708333333333335
2018-11-16,94,2.816666666666667
2018-11-17,94,2.1541666666666663
2018-11-18,94,6.175
2018-11-19,94,4.929166666666667
2018-11-20,94,3.016666666666667
2018-11-21,94,0.5333333333333333
2018-11-22,94,-1.3458333333333334
2018-11-23,94,-0.6500000000000002
2018-11-24,94,1.8791666666666662
2018-11-25,94,3.85
2018-11-26,94,2.629166666666667
2018-11-27,94,1.6500000000000001
2018-11-28,94,-1.9208333333333334
2018-11-29,94,-3.1166666666666667
2018-11-30,94,-3.599999999999999
2018-12-01,94,-2.7083333333333335
2018-12-02,94,1.9583333333333333
2018-12-03,94,7.329166666666667
2018-12-04,94,4.799999999999999
2018-12-05,94,1.9791666666666672
2018-12-06,94,1.7
2018-12-07,94,8.466666666666669
2018-12-08,94,6.520833333333333
2018-12-09,94,4.904166666666667
2018-12-10,94,2.979166666666666
2018-12-11,94,2.8125
2018-12-12,94,2.270833333333333
2018-12-13,94,-0.43333333333333335
2018-12-14,94,-0.04166666666666665
2018-12-15,94,0.06250000000000001
2018-12-16,94,-1.2458333333333331
2018-12-17,94,-1.4625000000000004
2018-12-18,94,-0.7916666666666669
2018-12-19,94,-1.2333333333333332
2018-12-20,94,-1.6708333333333334
2018-12-21,94,0.8916666666666666
2018-12-22,94,1.3833333333333335
2018-12-23,94,0.39583333333333326
2018-12-24,94,-0.3625000000000001
2018-12-25,94,4.2375
2018-12-26,94,4.958333333333334
2018-12-27,94,6.908333333333334
2018-12-28,94,5.183333333333334
2018-12-29,94,5.675000000000001
2018-12-30,94,4.137500000000001
2018-12-31,94,3.1125000000000003
