Date,Station,Rain Level
2019-01-01,302,8.998000000000001
2019-01-02,302,2.633
2019-01-03,302,0.43400000000000005
2019-01-04,302,0.978
2019-01-05,302,0.899
2019-01-06,302,0.009000000000000001
2019-01-07,302,1.735
2019-01-08,302,0.165
2019-01-09,302,2.416
2019-01-10,302,0.0
2019-01-11,302,0.006
2019-01-12,302,0.126
2019-01-13,302,4.944999999999999
2019-01-14,302,0.301
2019-01-15,302,1.8239999999999998
2019-01-16,302,1.032
2019-01-17,302,2.522
2019-01-18,302,0.006
2019-01-19,302,0.0
2019-01-20,302,0.411
2019-01-21,302,0.217
2019-01-22,302,0.0
2019-01-23,302,0.0
2019-01-24,302,0.0
2019-01-25,302,0.01
2019-01-26,302,0.022
2019-01-27,302,1.7489999999999997
2019-01-28,302,1.8099999999999998
2019-01-29,302,0.11
2019-01-30,302,0.078
2019-01-31,302,0.901
2019-02-01,302,1.6139999999999999
2019-02-02,302,0.7070000000000001
2019-02-03,302,0.161
2019-02-04,302,0.0
2019-02-05,302,1.9429999999999998
2019-02-06,302,0.42100000000000004
2019-02-07,302,0.0
2019-02-08,302,0.0
2019-02-09,302,0.8200000000000001
2019-02-10,302,1.4920000000000002
2019-02-11,302,1.511
2019-02-12,302,0.015
2019-02-13,302,0.005
2019-02-14,302,0.0
2019-02-15,302,0.0
2019-02-16,302,0.0
2019-02-17,302,0.0
2019-02-18,302,0.0
2019-02-19,302,1.607
2019-02-20,302,1.6840000000000002
2019-02-21,302,8.888000000000002
2019-02-22,302,0.0
2019-02-23,302,0.0
2019-02-24,302,0.0
2019-02-25,302,0.0
2019-02-26,302,0.0
2019-02-27,302,0.0
2019-02-28,302,0.0
2019-03-01,302,0.019
2019-03-02,302,0.0
2019-03-03,302,2.372
2019-03-04,302,4.244999999999999
2019-03-05,302,15.353000000000002
2019-03-06,302,0.0
2019-03-07,302,0.548
2019-03-08,302,1.3960000000000001
2019-03-09,302,9.383
2019-03-10,302,2.933
2019-03-11,302,0.253
2019-03-12,302,0.018
2019-03-13,302,1.0010000000000001
2019-03-14,302,0.806
2019-03-15,302,6.596
2019-03-16,302,0.636
2019-03-17,302,0.914
2019-03-18,302,0.41900000000000004
2019-03-19,302,0.0
2019-03-20,302,0.051000000000000004
2019-03-21,302,0.008
2019-03-22,302,0.0
2019-03-23,302,0.0
2019-03-24,302,0.0
2019-03-25,302,0.20800000000000002
2019-03-26,302,0.978
2019-03-27,302,0.064
2019-03-28,302,0.0
2019-03-29,302,0.0
2019-03-30,302,0.0
2019-03-31,302,0.0
2019-04-01,302,0.0
2019-04-02,302,0.0
2019-04-03,302,0.0
2019-04-04,302,0.0
2019-04-05,302,0.0
2019-04-06,302,0.0
2019-04-07,302,0.0
2019-04-08,302,0.644
2019-04-09,302,0.007
2019-04-10,302,0.5960000000000001
2019-04-11,302,0.422
2019-04-12,302,0.0
2019-04-13,302,0.0
2019-04-14,302,0.0
2019-04-15,302,0.0
2019-04-16,302,0.0
2019-04-17,302,0.0
2019-04-18,302,0.0
2019-04-19,302,0.0
2019-04-20,302,0.0
2019-04-21,302,0.0
2019-04-22,302,0.0
2019-04-23,302,0.0
2019-04-24,302,0.0
2019-04-25,302,0.0
2019-04-26,302,0.0
2019-04-27,302,6.406000000000001
2019-04-28,302,0.9950000000000001
2019-04-29,302,0.0
2019-04-30,302,0.0
2019-05-01,302,0.448
2019-05-02,302,0.539
2019-05-03,302,0.173
2019-05-04,302,0.159
2019-05-05,302,0.0
2019-05-06,302,0.0
2019-05-07,302,0.001
2019-05-08,302,0.0
2019-05-09,302,1.2389999999999999
2019-05-10,302,0.413
2019-05-11,302,0.001
2019-05-12,302,0.34500000000000003
2019-05-13,302,1.991
2019-05-14,302,0.773
2019-05-15,302,10.089
2019-05-16,302,6.513000000000002
2019-05-17,302,12.69
2019-05-18,302,6.621
2019-05-19,302,4.378
2019-05-20,302,0.75
2019-05-21,302,0.268
2019-05-22,302,0.011
2019-05-23,302,0.0
2019-05-24,302,0.0
2019-05-25,302,0.0
2019-05-26,302,0.031
2019-05-27,302,2.8699999999999997
2019-05-28,302,4.54
2019-05-29,302,0.004
2019-05-30,302,0.005
2019-05-31,302,0.668
2019-06-01,302,1.396
2019-06-02,302,0.0
2019-06-03,302,0.0
2019-06-04,302,0.0
2019-06-05,302,0.0
2019-06-06,302,0.0
2019-06-07,302,0.11099999999999999
2019-06-08,302,5.48
2019-06-09,302,0.0
2019-06-10,302,61.983000000000004
2019-06-11,302,0.0
2019-06-12,302,1.095
2019-06-13,302,12.156000000000002
2019-06-14,302,0.0
2019-06-15,302,19.07
2019-06-16,302,0.0
2019-06-17,302,0.0
2019-06-18,302,0.0
2019-06-19,302,0.004
2019-06-20,302,4.737
2019-06-21,302,0.019
2019-06-22,302,0.0
2019-06-23,302,0.0
2019-06-24,302,0.0
2019-06-25,302,0.0
2019-06-26,302,0.14200000000000002
2019-06-27,302,0.26399999999999996
2019-06-28,302,0.0
2019-06-29,302,0.0
2019-06-30,302,0.0
2019-07-01,302,1.5630000000000002
2019-07-02,302,0.608
2019-07-03,302,0.15000000000000002
2019-07-04,302,7.815
2019-07-05,302,0.0
2019-07-06,302,6.494000000000001
2019-07-07,302,4.561
2019-07-08,302,18.422
2019-07-09,302,15.353000000000002
2019-07-10,302,0.03
2019-07-11,302,0.001
2019-07-12,302,0.0
2019-07-13,302,0.045
2019-07-14,302,0.0
2019-07-15,302,0.002
2019-07-16,302,6.572
2019-07-17,302,0.10300000000000001
2019-07-18,302,0.0
2019-07-19,302,0.0
2019-07-20,302,0.257
2019-07-21,302,1.78
2019-07-22,302,0.052000000000000005
2019-07-23,302,1.275
2019-07-24,302,0.0
2019-07-25,302,0.0
2019-07-26,302,0.0
2019-07-27,302,0.277
2019-07-28,302,0.19499999999999998
2019-07-29,302,0.0
2019-07-30,302,0.002
2019-07-31,302,0.0
2019-08-01,302,1.4879999999999998
2019-08-02,302,0.001
2019-08-03,302,0.0
2019-08-04,302,3.1830000000000003
2019-08-05,302,5.783999999999999
2019-08-06,302,0.452
2019-08-07,302,1.591
2019-08-08,302,1.917
2019-08-09,302,0.43400000000000005
2019-08-10,302,3.054
2019-08-11,302,0.02
2019-08-12,302,0.04
2019-08-13,302,1.33
2019-08-14,302,0.10300000000000001
2019-08-15,302,0.0
2019-08-16,302,0.108
2019-08-17,302,0.008
2019-08-18,302,0.0
2019-08-19,302,0.001
2019-08-20,302,0.41400000000000003
2019-08-21,302,3.803
2019-08-22,302,0.0
2019-08-23,302,0.0
2019-08-24,302,0.0
2019-08-25,302,0.002
2019-08-26,302,0.0
2019-08-27,302,0.0
2019-08-28,302,3.709
2019-08-29,302,0.0
2019-08-30,302,0.0
2019-08-31,302,0.022000000000000002
2019-09-01,302,2.293
2019-09-02,302,0.0
2019-09-03,302,0.059
2019-09-04,302,0.0
2019-09-05,302,0.069
2019-09-06,302,0.0
2019-09-07,302,5.699
2019-09-08,302,0.013
2019-09-09,302,0.977
2019-09-10,302,4.463
2019-09-11,302,0.0
2019-09-12,302,0.0
2019-09-13,302,0.647
2019-09-14,302,0.763
2019-09-15,302,0.001
2019-09-16,302,1.177
2019-09-17,302,15.652999999999995
2019-09-18,302,3.7369999999999997
2019-09-19,302,0.279
2019-09-20,302,0.20500000000000002
2019-09-21,302,0.0
2019-09-22,302,0.0
2019-09-23,302,0.0
2019-09-24,302,0.008
2019-09-25,302,0.016
2019-09-26,302,0.0
2019-09-27,302,8.852
2019-09-28,302,0.16999999999999998
2019-09-29,302,5.57
2019-09-30,302,6.87
2019-10-01,302,4.653
2019-10-02,302,3.1430000000000002
2019-10-03,302,0.859
2019-10-04,302,16.675
2019-10-05,302,2.831
2019-10-06,302,2.4990000000000006
2019-10-07,302,2.2219999999999995
2019-10-08,302,2.4719999999999995
2019-10-09,302,3.085
2019-10-10,302,0.088
2019-10-11,302,0.43299999999999994
2019-10-12,302,2.326
2019-10-13,302,0.632
2019-10-14,302,0.0
2019-10-15,302,0.003
2019-10-16,302,4.106
2019-10-17,302,1.8559999999999997
2019-10-18,302,0.003
2019-10-19,302,0.436
2019-10-20,302,0.001
2019-10-21,302,0.003
2019-10-22,302,0.0
2019-10-23,302,0.0
2019-10-24,302,0.0
2019-10-25,302,0.0
2019-10-26,302,0.002
2019-10-27,302,0.278
2019-10-28,302,1.551
2019-10-29,302,0.073
2019-10-30,302,0.0
2019-10-31,302,0.067
2019-11-01,302,1.8650000000000002
2019-11-02,302,2.811
2019-11-03,302,5.5169999999999995
2019-11-04,302,5.462999999999999
2019-11-05,302,0.07300000000000001
2019-11-06,302,0.107
2019-11-07,302,0.006
2019-11-08,302,0.0
2019-11-09,302,3.017
2019-11-10,302,0.0
2019-11-11,302,0.0
2019-11-12,302,4.060999999999999
2019-11-13,302,19.534
2019-11-14,302,0.0
2019-11-15,302,0.145
2019-11-16,302,0.0
2019-11-17,302,0.0
2019-11-18,302,0.837
2019-11-19,302,0.0
2019-11-20,302,0.0
2019-11-21,302,1.874
2019-11-22,302,0.021
2019-11-23,302,0.0
2019-11-24,302,0.0
2019-11-25,302,0.0
2019-11-26,302,0.0
2019-11-27,302,0.6519999999999999
2019-11-28,302,0.517
2019-11-29,302,1.7360000000000002
2019-11-30,302,0.0
2019-12-01,302,0.031
2019-12-02,302,2.0789999999999997
2019-12-03,302,0.11699999999999999
2019-12-04,302,0.0
2019-12-05,302,0.036
2019-12-06,302,0.536
2019-12-07,302,0.88
2019-12-08,302,3.569
2019-12-09,302,0.241
2019-12-10,302,1.4139999999999997
2019-12-11,302,0.0
2019-12-12,302,0.0
2019-12-13,302,3.9319999999999995
2019-12-14,302,0.493
2019-12-15,302,0.558
2019-12-16,302,0.187
2019-12-17,302,0.001
2019-12-18,302,0.0
2019-12-19,302,0.0
2019-12-20,302,0.0
2019-12-21,302,4.357
2019-12-22,302,0.0
2019-12-23,302,0.018000000000000002
2019-12-24,302,0.5
2019-12-25,302,0.243
2019-12-26,302,1.9489999999999998
2019-12-27,302,3.9179999999999997
2019-12-28,302,0.773
2019-12-29,302,0.008
2019-12-30,302,0.39799999999999996
2019-12-31,302,0.437
