Date,Station,Rain Level
2019-01-01,305,9.07
2019-01-02,305,4.420000000000001
2019-01-03,305,1.23
2019-01-04,305,1.72
2019-01-05,305,1.97
2019-01-06,305,0.0
2019-01-07,305,1.3
2019-01-08,305,0.0
2019-01-09,305,2.23
2019-01-10,305,0.0
2019-01-11,305,0.0
2019-01-12,305,0.0
2019-01-13,305,3.4399999999999995
2019-01-14,305,0.7000000000000001
2019-01-15,305,2.55
2019-01-16,305,0.37
2019-01-17,305,2.5700000000000003
2019-01-18,305,0.0
2019-01-19,305,0.0
2019-01-20,305,0.83
2019-01-21,305,0.0
2019-01-22,305,0.0
2019-01-23,305,0.0
2019-01-24,305,0.0
2019-01-25,305,0.25
2019-01-26,305,0.08
2019-01-27,305,3.5
2019-01-28,305,1.4700000000000002
2019-01-29,305,0.0
2019-01-30,305,0.17
2019-01-31,305,1.63
2019-02-01,305,2.0100000000000002
2019-02-02,305,0.8
2019-02-03,305,0.26
2019-02-04,305,0.0
2019-02-05,305,1.74
2019-02-06,305,0.9000000000000001
2019-02-07,305,0.0
2019-02-08,305,0.0
2019-02-09,305,0.52
2019-02-10,305,2.58
2019-02-11,305,0.9299999999999999
2019-02-12,305,0.0
2019-02-13,305,0.0
2019-02-14,305,0.0
2019-02-15,305,0.03
2019-02-16,305,0.0
2019-02-17,305,0.0
2019-02-18,305,0.0
2019-02-19,305,1.38
2019-02-20,305,1.85
2019-02-21,305,10.680000000000001
2019-02-22,305,0.0
2019-02-23,305,0.0
2019-02-24,305,0.0
2019-02-25,305,0.0
2019-02-26,305,0.0
2019-02-27,305,0.04
2019-02-28,305,0.0
2019-03-01,305,0.0
2019-03-02,305,0.0
2019-03-03,305,2.2300000000000004
2019-03-04,305,2.48
2019-03-05,305,11.970000000000002
2019-03-06,305,0.0
2019-03-07,305,0.0
2019-03-08,305,0.44
2019-03-09,305,8.860000000000001
2019-03-10,305,1.76
2019-03-11,305,0.69
2019-03-12,305,0.0
2019-03-13,305,0.62
2019-03-14,305,0.78
2019-03-15,305,9.400000000000002
2019-03-16,305,0.46
2019-03-17,305,0.44
2019-03-18,305,0.88
2019-03-19,305,0.0
2019-03-20,305,0.19
2019-03-21,305,0.0
2019-03-22,305,0.0
2019-03-23,305,0.0
2019-03-24,305,0.0
2019-03-25,305,0.63
2019-03-26,305,0.7000000000000001
2019-03-27,305,0.01
2019-03-28,305,0.0
2019-03-29,305,0.0
2019-03-30,305,0.0
2019-03-31,305,0.0
2019-04-01,305,0.0
2019-04-02,305,0.0
2019-04-03,305,0.0
2019-04-04,305,0.0
2019-04-05,305,0.0
2019-04-06,305,0.0
2019-04-07,305,0.0
2019-04-08,305,0.12
2019-04-09,305,0.0
2019-04-10,305,0.3
2019-04-11,305,0.12
2019-04-12,305,0.0
2019-04-13,305,0.0
2019-04-14,305,0.0
2019-04-15,305,0.0
2019-04-16,305,0.0
2019-04-17,305,0.0
2019-04-18,305,0.0
2019-04-19,305,0.0
2019-04-20,305,0.0
2019-04-21,305,0.0
2019-04-22,305,0.0
2019-04-23,305,0.0
2019-04-24,305,0.0
2019-04-25,305,0.0
2019-04-26,305,0.0
2019-04-27,305,2.92
2019-04-28,305,0.11
2019-04-29,305,0.0
2019-04-30,305,0.0
2019-05-01,305,0.69
2019-05-02,305,1.92
2019-05-03,305,0.85
2019-05-04,305,0.1
2019-05-05,305,0.0
2019-05-06,305,0.0
2019-05-07,305,0.0
2019-05-08,305,0.0
2019-05-09,305,1.33
2019-05-10,305,0.44
2019-05-11,305,0.0
2019-05-12,305,0.5800000000000001
2019-05-13,305,1.8099999999999998
2019-05-14,305,1.37
2019-05-15,305,10.51
2019-05-16,305,6.87
2019-05-17,305,13.790000000000001
2019-05-18,305,11.2
2019-05-19,305,6.8
2019-05-20,305,16.27
2019-05-21,305,0.0
2019-05-22,305,0.0
2019-05-23,305,0.0
2019-05-24,305,0.0
2019-05-25,305,0.0
2019-05-26,305,0.0
2019-05-27,305,5.53
2019-05-28,305,4.919999999999999
2019-05-29,305,0.0
2019-05-30,305,0.0
2019-05-31,305,0.0
2019-06-01,305,2.73
2019-06-02,305,0.0
2019-06-03,305,0.0
2019-06-04,305,0.0
2019-06-05,305,0.0
2019-06-06,305,0.0
2019-06-07,305,0.0
2019-06-08,305,0.99
2019-06-09,305,0.0
2019-06-10,305,43.330000000000005
2019-06-11,305,0.0
2019-06-12,305,5.14
2019-06-13,305,14.52
2019-06-14,305,0.0
2019-06-15,305,14.19
2019-06-16,305,0.0
2019-06-17,305,0.0
2019-06-18,305,0.01
2019-06-19,305,0.0
2019-06-20,305,3.35
2019-06-21,305,1.21
2019-06-22,305,0.0
2019-06-23,305,0.0
2019-06-24,305,0.0
2019-06-25,305,0.0
2019-06-26,305,0.0
2019-06-27,305,0.2
2019-06-28,305,0.0
2019-06-29,305,0.0
2019-06-30,305,0.0
2019-07-01,305,2.63
2019-07-02,305,0.83
2019-07-03,305,0.0
2019-07-04,305,7.75
2019-07-05,305,0.0
2019-07-06,305,5.460000000000001
2019-07-07,305,10.64
2019-07-08,305,12.28
2019-07-09,305,12.54
2019-07-10,305,0.0
2019-07-11,305,0.0
2019-07-12,305,0.0
2019-07-13,305,0.0
2019-07-14,305,0.0
2019-07-15,305,0.0
2019-07-16,305,11.06
2019-07-17,305,0.07
2019-07-18,305,0.0
2019-07-19,305,0.0
2019-07-20,305,1.01
2019-07-21,305,0.94
2019-07-22,305,0.0
2019-07-23,305,2.17
2019-07-24,305,0.0
2019-07-25,305,0.0
2019-07-26,305,0.0
2019-07-27,305,2.3899999999999997
2019-07-28,305,0.78
2019-07-29,305,0.0
2019-07-30,305,0.0
2019-07-31,305,0.0
2019-08-01,305,0.35
2019-08-02,305,0.0
2019-08-03,305,0.0
2019-08-04,305,1.3699999999999999
2019-08-05,305,5.77
2019-08-06,305,1.79
2019-08-07,305,0.9199999999999999
2019-08-08,305,0.52
2019-08-09,305,2.1
2019-08-10,305,3.4899999999999998
2019-08-11,305,0.0
2019-08-12,305,0.62
2019-08-13,305,0.0
2019-08-14,305,0.8300000000000001
2019-08-15,305,0.0
2019-08-16,305,0.0
2019-08-17,305,0.0
2019-08-18,305,0.0
2019-08-19,305,0.0
2019-08-20,305,0.28
2019-08-21,305,0.09
2019-08-22,305,0.0
2019-08-23,305,0.0
2019-08-24,305,0.0
2019-08-25,305,0.0
2019-08-26,305,0.0
2019-08-27,305,0.0
2019-08-28,305,2.81
2019-08-29,305,0.0
2019-08-30,305,0.0
2019-08-31,305,0.0
2019-09-01,305,7.17
2019-09-02,305,0.0
2019-09-03,305,0.0
2019-09-04,305,0.0
2019-09-05,305,0.0
2019-09-06,305,0.0
2019-09-07,305,6.93
2019-09-08,305,0.0
2019-09-09,305,4.54
2019-09-10,305,5.25
2019-09-11,305,0.0
2019-09-12,305,0.0
2019-09-13,305,0.17
2019-09-14,305,0.0
2019-09-15,305,0.0
2019-09-16,305,1.76
2019-09-17,305,14.180000000000001
2019-09-18,305,2.02
2019-09-19,305,0.88
2019-09-20,305,0.88
2019-09-21,305,0.0
2019-09-22,305,0.0
2019-09-23,305,0.0
2019-09-24,305,0.0
2019-09-25,305,0.0
2019-09-26,305,0.0
2019-09-27,305,13.110000000000001
2019-09-28,305,0.2
2019-09-29,305,5.249999999999999
2019-09-30,305,5.57
2019-10-01,305,3.81
2019-10-02,305,4.75
2019-10-03,305,0.52
2019-10-04,305,10.07
2019-10-05,305,3.01
2019-10-06,305,1.7600000000000002
2019-10-07,305,0.55
2019-10-08,305,0.83
2019-10-09,305,4.29
2019-10-10,305,0.0
2019-10-11,305,0.0
2019-10-12,305,2.04
2019-10-13,305,1.21
2019-10-14,305,0.0
2019-10-15,305,0.0
2019-10-16,305,4.7299999999999995
2019-10-17,305,1.23
2019-10-18,305,0.0
2019-10-19,305,0.49
2019-10-20,305,0.0
2019-10-21,305,0.0
2019-10-22,305,0.0
2019-10-23,305,0.0
2019-10-24,305,0.0
2019-10-25,305,0.0
2019-10-26,305,0.0
2019-10-27,305,0.1
2019-10-28,305,1.5399999999999998
2019-10-29,305,0.0
2019-10-30,305,0.0
2019-10-31,305,0.0
2019-11-01,305,1.0
2019-11-02,305,2.5700000000000003
2019-11-03,305,7.0600000000000005
2019-11-04,305,5.000000000000001
2019-11-05,305,0.1
2019-11-06,305,0.11
2019-11-07,305,0.0
2019-11-08,305,0.0
2019-11-09,305,3.35
2019-11-10,305,0.0
2019-11-11,305,0.0
2019-11-12,305,4.59
2019-11-13,305,20.609999999999996
2019-11-14,305,0.0
2019-11-15,305,0.05
2019-11-16,305,0.0
2019-11-17,305,0.0
2019-11-18,305,1.15
2019-11-19,305,0.0
2019-11-20,305,0.0
2019-11-21,305,2.1
2019-11-22,305,0.0
2019-11-23,305,0.0
2019-11-24,305,0.0
2019-11-25,305,0.0
2019-11-26,305,0.0
2019-11-27,305,0.49
2019-11-28,305,0.5
2019-11-29,305,1.2699999999999998
2019-11-30,305,0.0
2019-12-01,305,0.0
2019-12-02,305,2.92
2019-12-03,305,0.0
2019-12-04,305,0.0
2019-12-05,305,0.0
2019-12-06,305,0.0
2019-12-07,305,1.07
2019-12-08,305,1.37
2019-12-09,305,0.19
2019-12-10,305,1.14
2019-12-11,305,0.0
2019-12-12,305,0.0
2019-12-13,305,5.25
2019-12-14,305,0.21000000000000002
2019-12-15,305,0.28
2019-12-16,305,0.38
2019-12-17,305,0.0
2019-12-18,305,0.0
2019-12-19,305,0.0
2019-12-20,305,0.0
2019-12-21,305,4.81
2019-12-22,305,0.0
2019-12-23,305,0.0
2019-12-24,305,0.0
2019-12-25,305,0.0
2019-12-26,305,3.83
2019-12-27,305,7.0600000000000005
2019-12-28,305,0.5
2019-12-29,305,0.0
2019-12-30,305,0.11
2019-12-31,305,0.5
