Date,Station,Rain Level
2019-01-01,92,10.57
2019-01-02,92,4.32
2019-01-03,92,0.76
2019-01-04,92,1.39
2019-01-05,92,0.84
2019-01-06,92,0.05
2019-01-07,92,1.9
2019-01-08,92,0.18
2019-01-09,92,2.71
2019-01-10,92,0.0
2019-01-11,92,0.0
2019-01-12,92,0.4
2019-01-13,92,5.470000000000001
2019-01-14,92,1.12
2019-01-15,92,2.64
2019-01-16,92,0.94
2019-01-17,92,2.9799999999999995
2019-01-18,92,0.51
2019-01-19,92,0.0
2019-01-20,92,0.39
2019-01-21,92,0.2
2019-01-22,92,0.0
2019-01-23,92,0.0
2019-01-24,92,0.0
2019-01-25,92,0.05
2019-01-26,92,0.1
2019-01-27,92,3.2399999999999998
2019-01-28,92,1.1099999999999999
2019-01-29,92,0.11
2019-01-30,92,0.09
2019-01-31,92,1.28
2019-02-01,92,1.4300000000000002
2019-02-02,92,0.7
2019-02-03,92,0.0
2019-02-04,92,0.05
2019-02-05,92,2.37
2019-02-06,92,0.2
2019-02-07,92,0.0
2019-02-08,92,0.0
2019-02-09,92,0.62
2019-02-10,92,1.27
2019-02-11,92,1.26
2019-02-12,92,0.08
2019-02-13,92,0.4900000000000001
2019-02-14,92,0.04
2019-02-15,92,0.0
2019-02-16,92,0.0
2019-02-17,92,0.0
2019-02-18,92,0.0
2019-02-19,92,0.8900000000000001
2019-02-20,92,1.62
2019-02-21,92,10.35
2019-02-22,92,0.0
2019-02-23,92,0.03
2019-02-24,92,0.02
2019-02-25,92,0.02
2019-02-26,92,0.01
2019-02-27,92,0.21000000000000002
2019-02-28,92,0.17
2019-03-01,92,0.0
2019-03-02,92,0.01
2019-03-03,92,2.27
2019-03-04,92,3.7399999999999998
2019-03-05,92,14.59
2019-03-06,92,0.0
2019-03-07,92,0.15
2019-03-08,92,2.7099999999999995
2019-03-09,92,10.249999999999998
2019-03-10,92,2.76
2019-03-11,92,0.19
2019-03-12,92,0.0
2019-03-13,92,0.77
2019-03-14,92,0.79
2019-03-15,92,7.8
2019-03-16,92,0.39
2019-03-17,92,0.5700000000000001
2019-03-18,92,1.06
2019-03-19,92,0.0
2019-03-20,92,0.15
2019-03-21,92,0.16999999999999998
2019-03-22,92,0.0
2019-03-23,92,0.05
2019-03-24,92,0.0
2019-03-25,92,0.0
2019-03-26,92,0.6300000000000001
2019-03-27,92,0.07
2019-03-28,92,0.01
2019-03-29,92,0.36
2019-03-30,92,0.0
2019-03-31,92,0.17
2019-04-01,92,0.0
2019-04-02,92,0.06
2019-04-03,92,0.0
2019-04-04,92,0.0
2019-04-05,92,0.0
2019-04-06,92,0.0
2019-04-07,92,0.0
2019-04-08,92,0.6699999999999999
2019-04-09,92,0.0
2019-04-10,92,0.0
2019-04-11,92,0.28
2019-04-12,92,0.0
2019-04-13,92,0.0
2019-04-14,92,0.0
2019-04-15,92,0.0
2019-04-16,92,0.0
2019-04-17,92,0.0
2019-04-18,92,0.0
2019-04-19,92,0.0
2019-04-20,92,0.0
2019-04-21,92,0.0
2019-04-22,92,0.0
2019-04-23,92,0.01
2019-04-24,92,0.01
2019-04-25,92,0.0
2019-04-26,92,0.0
2019-04-27,92,6.34
2019-04-28,92,0.5800000000000001
2019-04-29,92,0.0
2019-04-30,92,0.0
2019-05-01,92,0.42000000000000004
2019-05-02,92,1.2699999999999998
2019-05-03,92,0.0
2019-05-04,92,0.03
2019-05-05,92,0.0
2019-05-06,92,0.0
2019-05-07,92,0.02
2019-05-08,92,0.0
2019-05-09,92,0.68
2019-05-10,92,0.47
2019-05-11,92,0.0
2019-05-12,92,0.14
2019-05-13,92,1.21
2019-05-14,92,0.75
2019-05-15,92,10.469999999999999
2019-05-16,92,6.730000000000001
2019-05-17,92,19.96
2019-05-18,92,6.06
2019-05-19,92,4.59
2019-05-20,92,1.38
2019-05-21,92,0.16
2019-05-22,92,0.0
2019-05-23,92,0.0
2019-05-24,92,0.0
2019-05-25,92,0.0
2019-05-26,92,0.01
2019-05-27,92,2.67
2019-05-28,92,3.39
2019-05-29,92,0.0
2019-05-30,92,0.0
2019-05-31,92,0.68
2019-06-01,92,1.21
2019-06-02,92,0.0
2019-06-03,92,0.0
2019-06-04,92,0.0
2019-06-05,92,0.0
2019-06-06,92,0.0
2019-06-07,92,0.0
2019-06-08,92,5.61
2019-06-09,92,0.0
2019-06-10,92,49.709999999999994
2019-06-11,92,0.0
2019-06-12,92,2.33
2019-06-13,92,13.710000000000003
2019-06-14,92,0.0
2019-06-15,92,20.430000000000003
2019-06-16,92,0.0
2019-06-17,92,0.0
2019-06-18,92,0.0
2019-06-19,92,0.0
2019-06-20,92,18.92
2019-06-21,92,0.0
2019-06-22,92,0.0
2019-06-23,92,0.0
2019-06-24,92,0.0
2019-06-25,92,0.0
2019-06-26,92,0.0
2019-06-27,92,0.06
2019-06-28,92,0.0
2019-06-29,92,0.0
2019-06-30,92,0.0
2019-07-01,92,0.44
2019-07-02,92,0.73
2019-07-03,92,0.16
2019-07-04,92,8.36
2019-07-05,92,0.0
2019-07-06,92,4.91
2019-07-07,92,4.52
2019-07-08,92,24.439999999999998
2019-07-09,92,15.319999999999999
2019-07-10,92,0.0
2019-07-11,92,0.0
2019-07-12,92,0.0
2019-07-13,92,0.0
2019-07-14,92,0.0
2019-07-15,92,0.0
2019-07-16,92,6.78
2019-07-17,92,0.0
2019-07-18,92,0.0
2019-07-19,92,0.0
2019-07-20,92,0.23
2019-07-21,92,2.13
2019-07-22,92,0.0
2019-07-23,92,1.43
2019-07-24,92,0.0
2019-07-25,92,0.0
2019-07-26,92,0.0
2019-07-27,92,0.26
2019-07-28,92,0.54
2019-07-29,92,0.0
2019-07-30,92,0.0
2019-07-31,92,0.0
2019-08-01,92,1.67
2019-08-02,92,0.0
2019-08-03,92,0.0
2019-08-04,92,4.16
2019-08-05,92,6.35
2019-08-06,92,0.22000000000000003
2019-08-07,92,1.66
2019-08-08,92,0.92
2019-08-09,92,0.13
2019-08-10,92,2.35
2019-08-11,92,0.0
2019-08-12,92,0.0
2019-08-13,92,0.55
2019-08-14,92,0.01
2019-08-15,92,0.0
2019-08-16,92,0.0
2019-08-17,92,0.0
2019-08-18,92,0.0
2019-08-19,92,0.0
2019-08-20,92,0.3
2019-08-21,92,2.6399999999999997
2019-08-22,92,0.11
2019-08-23,92,0.0
2019-08-24,92,0.0
2019-08-25,92,0.0
2019-08-26,92,0.0
2019-08-27,92,0.0
2019-08-28,92,4.720000000000001
2019-08-29,92,0.0
2019-08-30,92,0.0
2019-08-31,92,0.0
2019-09-01,92,2.84
2019-09-02,92,0.0
2019-09-03,92,0.0
2019-09-04,92,0.0
2019-09-05,92,0.0
2019-09-06,92,0.0
2019-09-07,92,6.31
2019-09-08,92,0.0
2019-09-09,92,1.42
2019-09-10,92,5.829999999999999
2019-09-11,92,0.0
2019-09-12,92,0.0
2019-09-13,92,0.28
2019-09-14,92,0.27
2019-09-15,92,0.06
2019-09-16,92,1.68
2019-09-17,92,18.279999999999998
2019-09-18,92,4.2299999999999995
2019-09-19,92,0.38
2019-09-20,92,0.6599999999999999
2019-09-21,92,0.0
2019-09-22,92,0.0
2019-09-23,92,0.0
2019-09-24,92,0.0
2019-09-25,92,0.0
2019-09-26,92,0.0
2019-09-27,92,9.81
2019-09-28,92,0.0
2019-09-29,92,7.340000000000001
2019-09-30,92,8.530000000000001
2019-10-01,92,1.25
2019-10-02,92,3.31
2019-10-03,92,0.49
2019-10-04,92,20.26
2019-10-05,92,3.97
2019-10-06,92,2.0300000000000002
2019-10-07,92,0.0
2019-10-08,92,2.41
2019-10-09,92,3.4699999999999998
2019-10-10,92,0.0
2019-10-11,92,0.28
2019-10-12,92,2.33
2019-10-13,92,0.5800000000000001
2019-10-14,92,0.0
2019-10-15,92,0.0
2019-10-16,92,5.11
2019-10-17,92,1.93
2019-10-18,92,0.0
2019-10-19,92,0.1
2019-10-20,92,0.0
2019-10-21,92,0.0
2019-10-22,92,0.0
2019-10-23,92,0.0
2019-10-24,92,0.0
2019-10-25,92,0.0
2019-10-26,92,0.05
2019-10-27,92,0.25
2019-10-28,92,1.09
2019-10-29,92,0.0
2019-10-30,92,0.0
2019-10-31,92,0.0
2019-11-01,92,0.0
2019-11-02,92,0.25
2019-11-03,92,5.62
2019-11-04,92,8.56
2019-11-05,92,0.0
2019-11-06,92,0.06
2019-11-07,92,0.0
2019-11-08,92,0.0
2019-11-09,92,3.2899999999999996
2019-11-10,92,0.0
2019-11-11,92,0.0
2019-11-12,92,4.49
2019-11-13,92,20.3
2019-11-14,92,0.0
2019-11-15,92,0.06
2019-11-16,92,0.0
2019-11-17,92,0.0
2019-11-18,92,0.86
2019-11-19,92,0.0
2019-11-20,92,0.0
2019-11-21,92,1.2500000000000002
2019-11-22,92,0.0
2019-11-23,92,0.0
2019-11-24,92,0.0
2019-11-25,92,0.0
2019-11-26,92,0.0
2019-11-27,92,0.71
2019-11-28,92,0.25
2019-11-29,92,1.92
2019-11-30,92,0.0
2019-12-01,92,0.060000000000000005
2019-12-02,92,2.6
2019-12-03,92,0.3
2019-12-04,92,0.0
2019-12-05,92,0.13999999999999999
2019-12-06,92,0.59
2019-12-07,92,1.1300000000000001
2019-12-08,92,6.24
2019-12-09,92,0.08
2019-12-10,92,1.4500000000000002
2019-12-11,92,0.11
2019-12-12,92,0.0
2019-12-13,92,4.15
2019-12-14,92,0.41000000000000003
2019-12-15,92,0.5800000000000001
2019-12-16,92,0.05
2019-12-17,92,0.0
2019-12-18,92,0.09999999999999999
2019-12-19,92,0.09
2019-12-20,92,0.0
2019-12-21,92,4.96
2019-12-22,92,0.11
2019-12-23,92,0.0
2019-12-24,92,0.39
2019-12-25,92,0.17
2019-12-26,92,2.08
2019-12-27,92,5.06
2019-12-28,92,1.28
2019-12-29,92,0.05
2019-12-30,92,1.2800000000000005
2019-12-31,92,0.73
