Date,Station,Rain Level
2016-01-01,1,0.0
2016-01-02,1,0.0
2016-01-03,1,0.0
2016-01-04,1,0.0
2016-01-05,1,0.0
2016-01-06,1,0.0
2016-01-07,1,0.0
2016-01-08,1,0.0
2016-01-09,1,1.2
2016-01-10,1,0.6000000000000001
2016-01-11,1,1.9999999999999998
2016-01-12,1,0.30000000000000004
2016-01-13,1,0.30000000000000004
2016-01-14,1,0.0
2016-01-15,1,0.4
2016-01-16,1,0.1
2016-01-17,1,0.0
2016-01-18,1,0.0
2016-01-19,1,0.0
2016-01-20,1,0.0
2016-01-21,1,2.1
2016-01-22,1,0.2
2016-01-23,1,0.0
2016-01-24,1,3.0
2016-01-25,1,1.1
2016-01-26,1,0.1
2016-01-27,1,0.5
2016-01-28,1,0.2
2016-01-29,1,0.0
2016-01-30,1,4.5
2016-01-31,1,0.0
2016-02-01,1,0.5
2016-02-02,1,3.1999999999999997
2016-02-03,1,5.8
2016-02-04,1,3.0
2016-02-05,1,0.0
2016-02-06,1,0.0
2016-02-07,1,0.2
2016-02-08,1,0.0
2016-02-09,1,0.2
2016-02-10,1,0.0
2016-02-11,1,0.1
2016-02-12,1,0.0
2016-02-13,1,0.0
2016-02-14,1,0.1
2016-02-15,1,4.699999999999999
2016-02-16,1,0.0
2016-02-17,1,0.9999999999999999
2016-02-18,1,0.1
2016-02-19,1,1.2
2016-02-20,1,1.2000000000000002
2016-02-21,1,5.300000000000001
2016-02-22,1,1.4000000000000001
2016-02-23,1,0.5
2016-02-24,1,0.1
2016-02-25,1,0.0
2016-02-26,1,0.0
2016-02-27,1,0.0
2016-02-28,1,0.0
2016-02-29,1,0.0
2016-03-01,1,0.0
2016-03-02,1,0.0
2016-03-03,1,1.1
2016-03-04,1,0.7
2016-03-05,1,0.0
2016-03-06,1,0.4
2016-03-07,1,0.0
2016-03-08,1,0.0
2016-03-09,1,0.0
2016-03-10,1,0.0
2016-03-11,1,0.0
2016-03-12,1,0.0
2016-03-13,1,0.0
2016-03-14,1,2.9999999999999996
2016-03-15,1,0.0
2016-03-16,1,0.0
2016-03-17,1,0.0
2016-03-18,1,0.0
2016-03-19,1,0.0
2016-03-20,1,0.0
2016-03-21,1,0.5
2016-03-22,1,0.2
2016-03-23,1,0.0
2016-03-24,1,0.1
2016-03-25,1,0.6
2016-03-26,1,0.0
2016-03-27,1,0.0
2016-03-28,1,0.2
2016-03-29,1,5.199999999999999
2016-03-30,1,4.7
2016-03-31,1,0.0
2016-04-01,1,0.0
2016-04-02,1,0.0
2016-04-03,1,0.0
2016-04-04,1,0.0
2016-04-05,1,4.6000000000000005
2016-04-06,1,0.0
2016-04-07,1,0.5
2016-04-08,1,0.0
2016-04-09,1,0.0
2016-04-10,1,0.0
2016-04-11,1,0.0
2016-04-12,1,0.0
2016-04-13,1,1.3000000000000003
2016-04-14,1,0.0
2016-04-15,1,0.0
2016-04-16,1,1.9000000000000001
2016-04-17,1,1.9000000000000001
2016-04-18,1,0.0
2016-04-19,1,0.5
2016-04-20,1,0.0
2016-04-21,1,0.0
2016-04-22,1,0.0
2016-04-23,1,0.9
2016-04-24,1,0.0
2016-04-25,1,0.30000000000000004
2016-04-26,1,1.2000000000000002
2016-04-27,1,0.0
2016-04-28,1,0.0
2016-04-29,1,0.0
2016-04-30,1,0.0
2016-05-01,1,0.0
2016-05-02,1,0.0
2016-05-03,1,0.0
2016-05-04,1,0.0
2016-05-05,1,0.0
2016-05-06,1,0.0
2016-05-07,1,0.0
2016-05-08,1,0.0
2016-05-09,1,0.0
2016-05-10,1,0.0
2016-05-11,1,1.2000000000000002
2016-05-12,1,7.2
2016-05-13,1,0.1
2016-05-14,1,0.0
2016-05-15,1,1.0
2016-05-16,1,5.8
2016-05-17,1,2.5
2016-05-18,1,0.0
2016-05-19,1,0.0
2016-05-20,1,4.0
2016-05-21,1,0.0
2016-05-22,1,0.0
2016-05-23,1,0.0
2016-05-24,1,0.0
2016-05-25,1,0.0
2016-05-26,1,0.7
2016-05-27,1,1.1
2016-05-28,1,0.4
2016-05-29,1,0.0
2016-05-30,1,0.0
2016-05-31,1,1.6
2016-06-01,1,4.3
2016-06-02,1,0.0
2016-06-03,1,0.0
2016-06-04,1,0.0
2016-06-05,1,0.0
2016-06-06,1,0.0
2016-06-07,1,0.0
2016-06-08,1,0.7
2016-06-09,1,0.0
2016-06-10,1,1.2000000000000002
2016-06-11,1,0.0
2016-06-12,1,0.0
2016-06-13,1,1.3
2016-06-14,1,0.0
2016-06-15,1,5.7
2016-06-16,1,6.4
2016-06-17,1,23.200000000000003
2016-06-18,1,0.0
2016-06-19,1,0.0
2016-06-20,1,0.8999999999999999
2016-06-21,1,0.1
2016-06-22,1,0.0
2016-06-23,1,0.0
2016-06-24,1,0.0
2016-06-25,1,47.500000000000014
2016-06-26,1,0.1
2016-06-27,1,0.0
2016-06-28,1,0.4
2016-06-29,1,0.0
2016-06-30,1,1.0
2016-07-01,1,0.0
2016-07-02,1,4.8
2016-07-03,1,0.0
2016-07-04,1,0.5
2016-07-05,1,1.3
2016-07-06,1,12.399999999999999
2016-07-07,1,0.0
2016-07-08,1,3.8
2016-07-09,1,0.0
2016-07-10,1,0.8999999999999999
2016-07-11,1,4.3999999999999995
2016-07-12,1,0.0
2016-07-13,1,1.4000000000000001
2016-07-14,1,83.69999999999997
2016-07-15,1,0.0
2016-07-16,1,0.0
2016-07-17,1,0.4
2016-07-18,1,0.0
2016-07-19,1,0.0
2016-07-20,1,0.0
2016-07-21,1,0.0
2016-07-22,1,0.5
2016-07-23,1,0.0
2016-07-24,1,0.0
2016-07-25,1,0.0
2016-07-26,1,0.0
2016-07-27,1,0.8
2016-07-28,1,0.0
2016-07-29,1,0.1
2016-07-30,1,7.299999999999999
2016-07-31,1,16.2
2016-08-01,1,4.8
2016-08-02,1,2.7
2016-08-03,1,4.199999999999999
2016-08-04,1,0.1
2016-08-05,1,12.399999999999999
2016-08-06,1,2.5
2016-08-07,1,0.0
2016-08-08,1,0.1
2016-08-09,1,0.0
2016-08-10,1,0.0
2016-08-11,1,0.0
2016-08-12,1,0.2
2016-08-13,1,0.0
2016-08-14,1,0.0
2016-08-15,1,0.0
2016-08-16,1,0.1
2016-08-17,1,11.5
2016-08-18,1,1.5
2016-08-19,1,0.0
2016-08-20,1,0.0
2016-08-21,1,16.0
2016-08-22,1,0.0
2016-08-23,1,5.2
2016-08-24,1,0.0
2016-08-25,1,0.0
2016-08-26,1,0.0
2016-08-27,1,0.0
2016-08-28,1,0.0
2016-08-29,1,0.0
2016-08-30,1,0.0
2016-08-31,1,0.0
2016-09-01,1,0.0
2016-09-02,1,0.1
2016-09-03,1,0.0
2016-09-04,1,0.0
2016-09-05,1,0.0
2016-09-06,1,0.1
2016-09-07,1,0.0
2016-09-08,1,0.0
2016-09-09,1,0.0
2016-09-10,1,0.0
2016-09-11,1,0.0
2016-09-12,1,0.0
2016-09-13,1,0.0
2016-09-14,1,0.0
2016-09-15,1,0.0
2016-09-16,1,0.0
2016-09-17,1,0.0
2016-09-18,1,0.0
2016-09-19,1,0.0
2016-09-20,1,2.6
2016-09-21,1,0.2
2016-09-22,1,1.3000000000000003
2016-09-23,1,4.1000000000000005
2016-09-24,1,0.0
2016-09-25,1,0.0
2016-09-26,1,0.0
2016-09-27,1,0.0
2016-09-28,1,1.6000000000000003
2016-09-29,1,0.0
2016-09-30,1,0.7000000000000001
2016-10-01,1,12.1
2016-10-02,1,0.0
2016-10-03,1,6.5
2016-10-04,1,4.199999999999999
2016-10-05,1,1.6
2016-10-06,1,11.699999999999998
2016-10-07,1,7.999999999999999
2016-10-08,1,21.9
2016-10-09,1,0.30000000000000004
2016-10-10,1,1.6000000000000003
2016-10-11,1,0.0
2016-10-12,1,0.0
2016-10-13,1,0.0
2016-10-14,1,0.0
2016-10-15,1,0.0
2016-10-16,1,0.0
2016-10-17,1,0.0
2016-10-18,1,0.1
2016-10-19,1,2.0
2016-10-20,1,18.900000000000002
2016-10-21,1,5.2
2016-10-22,1,0.2
2016-10-23,1,8.3
2016-10-24,1,1.2
2016-10-25,1,0.8999999999999999
2016-10-26,1,0.0
2016-10-27,1,0.0
2016-10-28,1,1.5
2016-10-29,1,0.0
2016-10-30,1,1.1
2016-10-31,1,1.2999999999999998
2016-11-01,1,6.5
2016-11-02,1,10.199999999999998
2016-11-03,1,3.0000000000000004
2016-11-04,1,4.6
2016-11-05,1,10.1
2016-11-06,1,1.0
2016-11-07,1,1.2
2016-11-08,1,0.0
2016-11-09,1,0.8
2016-11-10,1,0.0
2016-11-11,1,1.4
2016-11-12,1,0.6000000000000001
2016-11-13,1,0.0
2016-11-14,1,0.0
2016-11-15,1,8.200000000000001
2016-11-16,1,0.1
2016-11-17,1,0.5
2016-11-18,1,0.0
2016-11-19,1,8.8
2016-11-20,1,0.0
2016-11-21,1,0.0
2016-11-22,1,0.0
2016-11-23,1,0.0
2016-11-24,1,0.0
2016-11-25,1,0.0
2016-11-26,1,0.6
2016-11-27,1,5.9
2016-11-28,1,1.7
2016-11-29,1,1.5000000000000002
2016-11-30,1,3.0
2016-12-01,1,18.799999999999997
2016-12-02,1,4.4
2016-12-03,1,0.0
2016-12-04,1,0.0
2016-12-05,1,0.1
2016-12-06,1,1.2999999999999998
2016-12-07,1,1.0
2016-12-08,1,0.0
2016-12-09,1,3.1
2016-12-10,1,1.2
2016-12-11,1,13.6
2016-12-12,1,0.0
2016-12-13,1,0.5
2016-12-14,1,1.4000000000000004
2016-12-15,1,0.0
2016-12-16,1,0.0
2016-12-17,1,0.0
2016-12-18,1,0.0
2016-12-19,1,0.0
2016-12-20,1,0.0
2016-12-21,1,0.0
2016-12-22,1,0.5
2016-12-23,1,0.0
2016-12-24,1,0.6
2016-12-25,1,0.0
2016-12-26,1,9.8
2016-12-27,1,2.1
2016-12-28,1,0.0
2016-12-29,1,0.0
2016-12-30,1,0.0
2016-12-31,1,0.0
