Date,Station,Rain Level
2016-01-01,311,0
2016-01-02,311,0
2016-01-03,311,0
2016-01-04,311,0
2016-01-05,311,0
2016-01-06,311,0
2016-01-07,311,0
2016-01-08,311,0
2016-01-09,311,0
2016-01-10,311,0
2016-01-11,311,0
2016-01-12,311,0
2016-01-13,311,0
2016-01-14,311,0
2016-01-15,311,0
2016-01-16,311,0
2016-01-17,311,0
2016-01-18,311,0
2016-01-19,311,0
2016-01-20,311,0
2016-01-21,311,0
2016-01-22,311,0
2016-01-23,311,0
2016-01-24,311,0
2016-01-25,311,0
2016-01-26,311,0
2016-01-27,311,0
2016-01-28,311,0
2016-01-29,311,0
2016-01-30,311,0
2016-01-31,311,0
2016-02-01,311,0
2016-02-02,311,0
2016-02-03,311,0
2016-02-04,311,0
2016-02-05,311,0
2016-02-06,311,0
2016-02-07,311,0
2016-02-08,311,0
2016-02-09,311,0
2016-02-10,311,0
2016-02-11,311,0
2016-02-12,311,0
2016-02-13,311,0
2016-02-14,311,0
2016-02-15,311,0
2016-02-16,311,0
2016-02-17,311,0
2016-02-18,311,0
2016-02-19,311,0
2016-02-20,311,0
2016-02-21,311,0
2016-02-22,311,0
2016-02-23,311,0
2016-02-24,311,0
2016-02-25,311,0
2016-02-26,311,0
2016-02-27,311,0
2016-02-28,311,0
2016-02-29,311,0
2016-03-01,311,0
2016-03-02,311,0
2016-03-03,311,0
2016-03-04,311,0
2016-03-05,311,0
2016-03-06,311,0
2016-03-07,311,0
2016-03-08,311,0
2016-03-09,311,0
2016-03-10,311,0
2016-03-11,311,0
2016-03-12,311,0
2016-03-13,311,0
2016-03-14,311,0
2016-03-15,311,0
2016-03-16,311,0
2016-03-17,311,0
2016-03-18,311,0
2016-03-19,311,0
2016-03-20,311,0
2016-03-21,311,0
2016-03-22,311,0
2016-03-23,311,0
2016-03-24,311,0
2016-03-25,311,0
2016-03-26,311,0
2016-03-27,311,0
2016-03-28,311,0
2016-03-29,311,0
2016-03-30,311,0
2016-03-31,311,0
2016-04-01,311,0
2016-04-02,311,0
2016-04-03,311,0
2016-04-04,311,0
2016-04-05,311,0
2016-04-06,311,0
2016-04-07,311,0
2016-04-08,311,0
2016-04-09,311,0
2016-04-10,311,0
2016-04-11,311,0
2016-04-12,311,0
2016-04-13,311,0
2016-04-14,311,0
2016-04-15,311,0
2016-04-16,311,0
2016-04-17,311,0
2016-04-18,311,0
2016-04-19,311,0
2016-04-20,311,0
2016-04-21,311,0
2016-04-22,311,0
2016-04-23,311,0
2016-04-24,311,0
2016-04-25,311,0
2016-04-26,311,0
2016-04-27,311,0
2016-04-28,311,0
2016-04-29,311,0
2016-04-30,311,0
2016-05-01,311,0
2016-05-02,311,0
2016-05-03,311,0
2016-05-04,311,0
2016-05-05,311,0
2016-05-06,311,0
2016-05-07,311,0
2016-05-08,311,0
2016-05-09,311,0
2016-05-10,311,0
2016-05-11,311,0
2016-05-12,311,0
2016-05-13,311,0
2016-05-14,311,0
2016-05-15,311,0
2016-05-16,311,0
2016-05-17,311,0
2016-05-18,311,0
2016-05-19,311,0
2016-05-20,311,0
2016-05-21,311,0
2016-05-22,311,0
2016-05-23,311,0
2016-05-24,311,0
2016-05-25,311,0
2016-05-26,311,0
2016-05-27,311,0
2016-05-28,311,0
2016-05-29,311,0
2016-05-30,311,0
2016-05-31,311,0
2016-06-01,311,0
2016-06-02,311,0
2016-06-03,311,0
2016-06-04,311,0
2016-06-05,311,0
2016-06-06,311,0
2016-06-07,311,0
2016-06-08,311,0
2016-06-09,311,0
2016-06-10,311,0
2016-06-11,311,0
2016-06-12,311,0
2016-06-13,311,0
2016-06-14,311,0
2016-06-15,311,0
2016-06-16,311,0
2016-06-17,311,0
2016-06-18,311,0
2016-06-19,311,0
2016-06-20,311,0
2016-06-21,311,0
2016-06-22,311,0
2016-06-23,311,0
2016-06-24,311,0
2016-06-25,311,0
2016-06-26,311,0
2016-06-27,311,0
2016-06-28,311,0
2016-06-29,311,0
2016-06-30,311,0
2016-07-01,311,0
2016-07-02,311,0
2016-07-03,311,0
2016-07-04,311,0
2016-07-05,311,0
2016-07-06,311,0
2016-07-07,311,0
2016-07-08,311,0
2016-07-09,311,0
2016-07-10,311,0
2016-07-11,311,0
2016-07-12,311,0
2016-07-13,311,0
2016-07-14,311,0
2016-07-15,311,0
2016-07-16,311,0
2016-07-17,311,0
2016-07-18,311,0
2016-07-19,311,0
2016-07-20,311,0
2016-07-21,311,0
2016-07-22,311,0
2016-07-23,311,0
2016-07-24,311,0
2016-07-25,311,0
2016-07-26,311,0
2016-07-27,311,0
2016-07-28,311,0
2016-07-29,311,0
2016-07-30,311,0
2016-07-31,311,0
2016-08-01,311,0
2016-08-02,311,0
2016-08-03,311,0
2016-08-04,311,0
2016-08-05,311,0
2016-08-06,311,0
2016-08-07,311,0
2016-08-08,311,0
2016-08-09,311,0
2016-08-10,311,0
2016-08-11,311,0
2016-08-12,311,0
2016-08-13,311,0
2016-08-14,311,0
2016-08-15,311,0
2016-08-16,311,0
2016-08-17,311,0
2016-08-18,311,0
2016-08-19,311,0
2016-08-20,311,0
2016-08-21,311,0
2016-08-22,311,0
2016-08-23,311,0
2016-08-24,311,0
2016-08-25,311,0
2016-08-26,311,0
2016-08-27,311,0
2016-08-28,311,0
2016-08-29,311,0
2016-08-30,311,0
2016-08-31,311,0
2016-09-01,311,0
2016-09-02,311,0
2016-09-03,311,0
2016-09-04,311,0
2016-09-05,311,0
2016-09-06,311,0
2016-09-07,311,0
2016-09-08,311,0
2016-09-09,311,0
2016-09-10,311,0
2016-09-11,311,0
2016-09-12,311,0
2016-09-13,311,0
2016-09-14,311,0
2016-09-15,311,0
2016-09-16,311,0
2016-09-17,311,0
2016-09-18,311,0
2016-09-19,311,0
2016-09-20,311,0
2016-09-21,311,0
2016-09-22,311,0
2016-09-23,311,0
2016-09-24,311,0
2016-09-25,311,0
2016-09-26,311,0
2016-09-27,311,0
2016-09-28,311,0
2016-09-29,311,0
2016-09-30,311,0
2016-10-01,311,0
2016-10-02,311,0
2016-10-03,311,0
2016-10-04,311,0
2016-10-05,311,0
2016-10-06,311,0
2016-10-07,311,0
2016-10-08,311,0
2016-10-09,311,0
2016-10-10,311,0
2016-10-11,311,0
2016-10-12,311,0
2016-10-13,311,0
2016-10-14,311,0
2016-10-15,311,0
2016-10-16,311,0
2016-10-17,311,0
2016-10-18,311,0
2016-10-19,311,0
2016-10-20,311,0
2016-10-21,311,0
2016-10-22,311,0
2016-10-23,311,0
2016-10-24,311,0
2016-10-25,311,0
2016-10-26,311,0
2016-10-27,311,0
2016-10-28,311,0
2016-10-29,311,0
2016-10-30,311,0
2016-10-31,311,0
2016-11-01,311,0
2016-11-02,311,0
2016-11-03,311,0
2016-11-04,311,0
2016-11-05,311,0
2016-11-06,311,0
2016-11-07,311,0
2016-11-08,311,0
2016-11-09,311,0
2016-11-10,311,0
2016-11-11,311,0
2016-11-12,311,0
2016-11-13,311,0
2016-11-14,311,0
2016-11-15,311,0
2016-11-16,311,0
2016-11-17,311,0
2016-11-18,311,0
2016-11-19,311,0
2016-11-20,311,0
2016-11-21,311,0
2016-11-22,311,0
2016-11-23,311,0
2016-11-24,311,0
2016-11-25,311,0
2016-11-26,311,0
2016-11-27,311,0
2016-11-28,311,0
2016-11-29,311,0
2016-11-30,311,0
2016-12-01,311,0
2016-12-02,311,0
2016-12-03,311,0
2016-12-04,311,0
2016-12-05,311,0
2016-12-06,311,0
2016-12-07,311,0
2016-12-08,311,0
2016-12-09,311,0
2016-12-10,311,0
2016-12-11,311,0
2016-12-12,311,0
2016-12-13,311,0
2016-12-14,311,0
2016-12-15,311,0
2016-12-16,311,0
2016-12-17,311,0
2016-12-18,311,0
2016-12-19,311,0
2016-12-20,311,0
2016-12-21,311,0
2016-12-22,311,0
2016-12-23,311,0
2016-12-24,311,0
2016-12-25,311,0
2016-12-26,311,0
2016-12-27,311,0
2016-12-28,311,0
2016-12-29,311,0
2016-12-30,311,0
2016-12-31,311,0
