Date,Station,Rain Level
2015-01-01,306,0
2015-01-02,306,0
2015-01-03,306,0
2015-01-04,306,0
2015-01-05,306,0
2015-01-06,306,0
2015-01-07,306,0
2015-01-08,306,0
2015-01-09,306,0
2015-01-10,306,0
2015-01-11,306,0
2015-01-12,306,0
2015-01-13,306,0
2015-01-14,306,0
2015-01-15,306,0
2015-01-16,306,0
2015-01-17,306,0
2015-01-18,306,0
2015-01-19,306,0
2015-01-20,306,0
2015-01-21,306,0
2015-01-22,306,0
2015-01-23,306,0
2015-01-24,306,0
2015-01-25,306,0
2015-01-26,306,0
2015-01-27,306,0
2015-01-28,306,0
2015-01-29,306,0
2015-01-30,306,0
2015-01-31,306,0
2015-02-01,306,0
2015-02-02,306,0
2015-02-03,306,0
2015-02-04,306,0
2015-02-05,306,0
2015-02-06,306,0
2015-02-07,306,0
2015-02-08,306,0
2015-02-09,306,0
2015-02-10,306,0
2015-02-11,306,0
2015-02-12,306,0
2015-02-13,306,0
2015-02-14,306,0
2015-02-15,306,0
2015-02-16,306,0
2015-02-17,306,0
2015-02-18,306,0
2015-02-19,306,0
2015-02-20,306,0
2015-02-21,306,0
2015-02-22,306,0
2015-02-23,306,0
2015-02-24,306,0
2015-02-25,306,0
2015-02-26,306,0
2015-02-27,306,0
2015-02-28,306,0
2015-03-01,306,0
2015-03-02,306,0
2015-03-03,306,0
2015-03-04,306,0
2015-03-05,306,0
2015-03-06,306,0
2015-03-07,306,0
2015-03-08,306,0
2015-03-09,306,0
2015-03-10,306,0
2015-03-11,306,0
2015-03-12,306,0
2015-03-13,306,0
2015-03-14,306,0
2015-03-15,306,0
2015-03-16,306,0
2015-03-17,306,0
2015-03-18,306,0
2015-03-19,306,0
2015-03-20,306,0
2015-03-21,306,0
2015-03-22,306,0
2015-03-23,306,0
2015-03-24,306,0
2015-03-25,306,0
2015-03-26,306,0
2015-03-27,306,0
2015-03-28,306,0
2015-03-29,306,0
2015-03-30,306,0
2015-03-31,306,0
2015-04-01,306,0
2015-04-02,306,0
2015-04-03,306,0
2015-04-04,306,0
2015-04-05,306,0
2015-04-06,306,0
2015-04-07,306,0
2015-04-08,306,0
2015-04-09,306,0
2015-04-10,306,0
2015-04-11,306,0
2015-04-12,306,0
2015-04-13,306,0
2015-04-14,306,0
2015-04-15,306,0
2015-04-16,306,0
2015-04-17,306,0
2015-04-18,306,0
2015-04-19,306,0
2015-04-20,306,0
2015-04-21,306,0
2015-04-22,306,0
2015-04-23,306,0
2015-04-24,306,0
2015-04-25,306,0
2015-04-26,306,0
2015-04-27,306,0
2015-04-28,306,0
2015-04-29,306,0
2015-04-30,306,0
2015-05-01,306,0
2015-05-02,306,0
2015-05-03,306,0
2015-05-04,306,0
2015-05-05,306,0
2015-05-06,306,0
2015-05-07,306,0
2015-05-08,306,0
2015-05-09,306,0
2015-05-10,306,0
2015-05-11,306,0
2015-05-12,306,0
2015-05-13,306,0
2015-05-14,306,0
2015-05-15,306,0
2015-05-16,306,0
2015-05-17,306,0
2015-05-18,306,0
2015-05-19,306,0
2015-05-20,306,0
2015-05-21,306,0
2015-05-22,306,0
2015-05-23,306,0
2015-05-24,306,0
2015-05-25,306,0
2015-05-26,306,0
2015-05-27,306,0
2015-05-28,306,0
2015-05-29,306,0
2015-05-30,306,0
2015-05-31,306,0
2015-06-01,306,0
2015-06-02,306,0
2015-06-03,306,0
2015-06-04,306,0
2015-06-05,306,0
2015-06-06,306,0
2015-06-07,306,0
2015-06-08,306,0
2015-06-09,306,0
2015-06-10,306,0
2015-06-11,306,0
2015-06-12,306,0
2015-06-13,306,0
2015-06-14,306,0
2015-06-15,306,0
2015-06-16,306,0
2015-06-17,306,0
2015-06-18,306,0
2015-06-19,306,0
2015-06-20,306,0
2015-06-21,306,0
2015-06-22,306,0
2015-06-23,306,0
2015-06-24,306,0
2015-06-25,306,0
2015-06-26,306,0
2015-06-27,306,0
2015-06-28,306,0
2015-06-29,306,0
2015-06-30,306,0
2015-07-01,306,0
2015-07-02,306,0
2015-07-03,306,0
2015-07-04,306,0
2015-07-05,306,0
2015-07-06,306,0
2015-07-07,306,0
2015-07-08,306,0
2015-07-09,306,0
2015-07-10,306,0
2015-07-11,306,0
2015-07-12,306,0
2015-07-13,306,0
2015-07-14,306,0
2015-07-15,306,0
2015-07-16,306,0
2015-07-17,306,0
2015-07-18,306,0
2015-07-19,306,0
2015-07-20,306,0
2015-07-21,306,0
2015-07-22,306,0
2015-07-23,306,0
2015-07-24,306,0
2015-07-25,306,0
2015-07-26,306,0
2015-07-27,306,0
2015-07-28,306,0
2015-07-29,306,0
2015-07-30,306,0
2015-07-31,306,0
2015-08-01,306,0
2015-08-02,306,0
2015-08-03,306,0
2015-08-04,306,0
2015-08-05,306,0
2015-08-06,306,0
2015-08-07,306,0
2015-08-08,306,0
2015-08-09,306,0
2015-08-10,306,0
2015-08-11,306,0
2015-08-12,306,0
2015-08-13,306,0
2015-08-14,306,0
2015-08-15,306,0
2015-08-16,306,0
2015-08-17,306,0
2015-08-18,306,0
2015-08-19,306,0
2015-08-20,306,0
2015-08-21,306,0
2015-08-22,306,0
2015-08-23,306,0
2015-08-24,306,0
2015-08-25,306,0
2015-08-26,306,0
2015-08-27,306,0
2015-08-28,306,0
2015-08-29,306,0
2015-08-30,306,0
2015-08-31,306,0
2015-09-01,306,0
2015-09-02,306,0
2015-09-03,306,0
2015-09-04,306,0
2015-09-05,306,0
2015-09-06,306,0
2015-09-07,306,0
2015-09-08,306,0
2015-09-09,306,0
2015-09-10,306,0
2015-09-11,306,0
2015-09-12,306,0
2015-09-13,306,0
2015-09-14,306,0
2015-09-15,306,0
2015-09-16,306,0
2015-09-17,306,0
2015-09-18,306,0
2015-09-19,306,0
2015-09-20,306,0
2015-09-21,306,0
2015-09-22,306,0
2015-09-23,306,0
2015-09-24,306,0
2015-09-25,306,0
2015-09-26,306,0
2015-09-27,306,0
2015-09-28,306,0
2015-09-29,306,0
2015-09-30,306,0
2015-10-01,306,0
2015-10-02,306,0
2015-10-03,306,0
2015-10-04,306,0
2015-10-05,306,0
2015-10-06,306,0
2015-10-07,306,0
2015-10-08,306,0
2015-10-09,306,0
2015-10-10,306,0
2015-10-11,306,0
2015-10-12,306,0
2015-10-13,306,0
2015-10-14,306,0
2015-10-15,306,0
2015-10-16,306,0
2015-10-17,306,0
2015-10-18,306,0
2015-10-19,306,0
2015-10-20,306,0
2015-10-21,306,0
2015-10-22,306,0
2015-10-23,306,0
2015-10-24,306,0
2015-10-25,306,0
2015-10-26,306,0
2015-10-27,306,0
2015-10-28,306,0
2015-10-29,306,0
2015-10-30,306,0
2015-10-31,306,0
2015-11-01,306,0
2015-11-02,306,0
2015-11-03,306,0
2015-11-04,306,0
2015-11-05,306,0
2015-11-06,306,0
2015-11-07,306,0
2015-11-08,306,0
2015-11-09,306,0
2015-11-10,306,0
2015-11-11,306,0
2015-11-12,306,0
2015-11-13,306,0
2015-11-14,306,0
2015-11-15,306,0
2015-11-16,306,0
2015-11-17,306,0
2015-11-18,306,0
2015-11-19,306,0
2015-11-20,306,0
2015-11-21,306,0
2015-11-22,306,0
2015-11-23,306,0
2015-11-24,306,0
2015-11-25,306,0
2015-11-26,306,0
2015-11-27,306,0
2015-11-28,306,0
2015-11-29,306,0
2015-11-30,306,0
2015-12-01,306,0
2015-12-02,306,0
2015-12-03,306,0
2015-12-04,306,0
2015-12-05,306,0
2015-12-06,306,0
2015-12-07,306,0
2015-12-08,306,0
2015-12-09,306,0
2015-12-10,306,0
2015-12-11,306,0
2015-12-12,306,0
2015-12-13,306,0
2015-12-14,306,0
2015-12-15,306,0
2015-12-16,306,0
2015-12-17,306,0
2015-12-18,306,0
2015-12-19,306,0
2015-12-20,306,0
2015-12-21,306,0
2015-12-22,306,0
2015-12-23,306,0
2015-12-24,306,0
2015-12-25,306,0
2015-12-26,306,0
2015-12-27,306,0
2015-12-28,306,0
2015-12-29,306,0
2015-12-30,306,0
2015-12-31,306,0
