Date,Station,Rain Level
2015-01-01,35,0
2015-01-02,35,0
2015-01-03,35,0
2015-01-04,35,0
2015-01-05,35,0
2015-01-06,35,0
2015-01-07,35,0
2015-01-08,35,0
2015-01-09,35,0
2015-01-10,35,0
2015-01-11,35,0
2015-01-12,35,0
2015-01-13,35,0
2015-01-14,35,0
2015-01-15,35,0
2015-01-16,35,0
2015-01-17,35,0
2015-01-18,35,0
2015-01-19,35,0
2015-01-20,35,0
2015-01-21,35,0
2015-01-22,35,0
2015-01-23,35,0
2015-01-24,35,0
2015-01-25,35,0
2015-01-26,35,0
2015-01-27,35,0
2015-01-28,35,0
2015-01-29,35,0
2015-01-30,35,0
2015-01-31,35,0
2015-02-01,35,0
2015-02-02,35,0
2015-02-03,35,0
2015-02-04,35,0
2015-02-05,35,0
2015-02-06,35,0
2015-02-07,35,0
2015-02-08,35,0
2015-02-09,35,0
2015-02-10,35,0
2015-02-11,35,0
2015-02-12,35,0
2015-02-13,35,0
2015-02-14,35,0
2015-02-15,35,0
2015-02-16,35,0
2015-02-17,35,0
2015-02-18,35,0
2015-02-19,35,0
2015-02-20,35,0
2015-02-21,35,0
2015-02-22,35,0
2015-02-23,35,0
2015-02-24,35,0
2015-02-25,35,0
2015-02-26,35,0
2015-02-27,35,0
2015-02-28,35,0
2015-03-01,35,0
2015-03-02,35,0
2015-03-03,35,0
2015-03-04,35,0
2015-03-05,35,0
2015-03-06,35,0
2015-03-07,35,0
2015-03-08,35,0
2015-03-09,35,0
2015-03-10,35,0
2015-03-11,35,0
2015-03-12,35,0
2015-03-13,35,0
2015-03-14,35,0
2015-03-15,35,0
2015-03-16,35,0
2015-03-17,35,0
2015-03-18,35,0
2015-03-19,35,0
2015-03-20,35,0
2015-03-21,35,0
2015-03-22,35,0
2015-03-23,35,0
2015-03-24,35,0
2015-03-25,35,0
2015-03-26,35,0
2015-03-27,35,0
2015-03-28,35,0
2015-03-29,35,0
2015-03-30,35,0
2015-03-31,35,0
2015-04-01,35,0
2015-04-02,35,0
2015-04-03,35,0
2015-04-04,35,0
2015-04-05,35,0
2015-04-06,35,0
2015-04-07,35,0
2015-04-08,35,0
2015-04-09,35,0
2015-04-10,35,0
2015-04-11,35,0
2015-04-12,35,0
2015-04-13,35,0
2015-04-14,35,0
2015-04-15,35,0
2015-04-16,35,0
2015-04-17,35,0
2015-04-18,35,0
2015-04-19,35,0
2015-04-20,35,0
2015-04-21,35,0
2015-04-22,35,0
2015-04-23,35,0
2015-04-24,35,0
2015-04-25,35,0
2015-04-26,35,0
2015-04-27,35,0
2015-04-28,35,0
2015-04-29,35,0
2015-04-30,35,0
2015-05-01,35,0
2015-05-02,35,0
2015-05-03,35,0
2015-05-04,35,0
2015-05-05,35,0
2015-05-06,35,0
2015-05-07,35,0
2015-05-08,35,0
2015-05-09,35,0
2015-05-10,35,0
2015-05-11,35,0
2015-05-12,35,0
2015-05-13,35,0
2015-05-14,35,0
2015-05-15,35,0
2015-05-16,35,0
2015-05-17,35,0
2015-05-18,35,0
2015-05-19,35,0
2015-05-20,35,0
2015-05-21,35,0
2015-05-22,35,0
2015-05-23,35,0
2015-05-24,35,0
2015-05-25,35,0
2015-05-26,35,0
2015-05-27,35,0
2015-05-28,35,0
2015-05-29,35,0
2015-05-30,35,0
2015-05-31,35,0
2015-06-01,35,0
2015-06-02,35,0
2015-06-03,35,0
2015-06-04,35,0
2015-06-05,35,0
2015-06-06,35,0
2015-06-07,35,0
2015-06-08,35,0
2015-06-09,35,0
2015-06-10,35,0
2015-06-11,35,0
2015-06-12,35,0
2015-06-13,35,0
2015-06-14,35,0
2015-06-15,35,0
2015-06-16,35,0
2015-06-17,35,0
2015-06-18,35,0
2015-06-19,35,0
2015-06-20,35,0
2015-06-21,35,0
2015-06-22,35,0
2015-06-23,35,0
2015-06-24,35,0
2015-06-25,35,0
2015-06-26,35,0
2015-06-27,35,0
2015-06-28,35,0
2015-06-29,35,0
2015-06-30,35,0
2015-07-01,35,0
2015-07-02,35,0
2015-07-03,35,0
2015-07-04,35,0
2015-07-05,35,0
2015-07-06,35,0
2015-07-07,35,0
2015-07-08,35,0
2015-07-09,35,0
2015-07-10,35,0
2015-07-11,35,0
2015-07-12,35,0
2015-07-13,35,0
2015-07-14,35,0
2015-07-15,35,0
2015-07-16,35,0
2015-07-17,35,0
2015-07-18,35,0
2015-07-19,35,0
2015-07-20,35,0
2015-07-21,35,0
2015-07-22,35,0
2015-07-23,35,0
2015-07-24,35,0
2015-07-25,35,0
2015-07-26,35,0
2015-07-27,35,0
2015-07-28,35,0
2015-07-29,35,0
2015-07-30,35,0
2015-07-31,35,0
2015-08-01,35,0
2015-08-02,35,0
2015-08-03,35,0
2015-08-04,35,0
2015-08-05,35,0
2015-08-06,35,0
2015-08-07,35,0
2015-08-08,35,0
2015-08-09,35,0
2015-08-10,35,0
2015-08-11,35,0
2015-08-12,35,0
2015-08-13,35,0
2015-08-14,35,0
2015-08-15,35,0
2015-08-16,35,0
2015-08-17,35,0
2015-08-18,35,0
2015-08-19,35,0
2015-08-20,35,0
2015-08-21,35,0
2015-08-22,35,0
2015-08-23,35,0
2015-08-24,35,0
2015-08-25,35,0
2015-08-26,35,0
2015-08-27,35,0
2015-08-28,35,0
2015-08-29,35,0
2015-08-30,35,0
2015-08-31,35,0
2015-09-01,35,0
2015-09-02,35,0
2015-09-03,35,0
2015-09-04,35,0
2015-09-05,35,0
2015-09-06,35,0
2015-09-07,35,0
2015-09-08,35,0
2015-09-09,35,0
2015-09-10,35,0
2015-09-11,35,0
2015-09-12,35,0
2015-09-13,35,0
2015-09-14,35,0
2015-09-15,35,0
2015-09-16,35,0
2015-09-17,35,0
2015-09-18,35,0
2015-09-19,35,0
2015-09-20,35,0
2015-09-21,35,0
2015-09-22,35,0
2015-09-23,35,0
2015-09-24,35,0
2015-09-25,35,0
2015-09-26,35,0
2015-09-27,35,0
2015-09-28,35,0
2015-09-29,35,0
2015-09-30,35,0
2015-10-01,35,0
2015-10-02,35,0
2015-10-03,35,0
2015-10-04,35,0
2015-10-05,35,0
2015-10-06,35,0
2015-10-07,35,0
2015-10-08,35,0
2015-10-09,35,0
2015-10-10,35,0
2015-10-11,35,0
2015-10-12,35,0
2015-10-13,35,0
2015-10-14,35,0
2015-10-15,35,0
2015-10-16,35,0
2015-10-17,35,0
2015-10-18,35,0
2015-10-19,35,0
2015-10-20,35,0
2015-10-21,35,0
2015-10-22,35,0
2015-10-23,35,0
2015-10-24,35,0
2015-10-25,35,0
2015-10-26,35,0
2015-10-27,35,0
2015-10-28,35,0
2015-10-29,35,0
2015-10-30,35,0
2015-10-31,35,0
2015-11-01,35,0
2015-11-02,35,0
2015-11-03,35,0
2015-11-04,35,0
2015-11-05,35,0
2015-11-06,35,0
2015-11-07,35,0
2015-11-08,35,0
2015-11-09,35,0
2015-11-10,35,0
2015-11-11,35,0
2015-11-12,35,0
2015-11-13,35,0
2015-11-14,35,0
2015-11-15,35,0
2015-11-16,35,0
2015-11-17,35,0
2015-11-18,35,0
2015-11-19,35,0
2015-11-20,35,0
2015-11-21,35,0
2015-11-22,35,0
2015-11-23,35,0
2015-11-24,35,0
2015-11-25,35,0
2015-11-26,35,0
2015-11-27,35,0
2015-11-28,35,0
2015-11-29,35,0
2015-11-30,35,0
2015-12-01,35,0
2015-12-02,35,0
2015-12-03,35,0
2015-12-04,35,0
2015-12-05,35,0
2015-12-06,35,0
2015-12-07,35,0
2015-12-08,35,0
2015-12-09,35,0
2015-12-10,35,0
2015-12-11,35,0
2015-12-12,35,0
2015-12-13,35,0
2015-12-14,35,0
2015-12-15,35,0
2015-12-16,35,0
2015-12-17,35,0
2015-12-18,35,0
2015-12-19,35,0
2015-12-20,35,0
2015-12-21,35,0
2015-12-22,35,0
2015-12-23,35,0
2015-12-24,35,0
2015-12-25,35,0
2015-12-26,35,0
2015-12-27,35,0
2015-12-28,35,0
2015-12-29,35,0
2015-12-30,35,0
2015-12-31,35,0
