Date,Station,Rain Level
2012-01-01,301,0
2012-01-02,301,0
2012-01-03,301,0
2012-01-04,301,0
2012-01-05,301,0
2012-01-06,301,0
2012-01-07,301,0
2012-01-08,301,0
2012-01-09,301,0
2012-01-10,301,0
2012-01-11,301,0
2012-01-12,301,0
2012-01-13,301,0
2012-01-14,301,0
2012-01-15,301,0
2012-01-16,301,0
2012-01-17,301,0
2012-01-18,301,0
2012-01-19,301,0
2012-01-20,301,0
2012-01-21,301,0
2012-01-22,301,0
2012-01-23,301,0
2012-01-24,301,0
2012-01-25,301,0
2012-01-26,301,0
2012-01-27,301,0
2012-01-28,301,0
2012-01-29,301,0
2012-01-30,301,0
2012-01-31,301,0
2012-02-01,301,0
2012-02-02,301,0
2012-02-03,301,0
2012-02-04,301,0
2012-02-05,301,0
2012-02-06,301,0
2012-02-07,301,0
2012-02-08,301,0
2012-02-09,301,0
2012-02-10,301,0
2012-02-11,301,0
2012-02-12,301,0
2012-02-13,301,0
2012-02-14,301,0
2012-02-15,301,0
2012-02-16,301,0
2012-02-17,301,0
2012-02-18,301,0
2012-02-19,301,0
2012-02-20,301,0
2012-02-21,301,0
2012-02-22,301,0
2012-02-23,301,0
2012-02-24,301,0
2012-02-25,301,0
2012-02-26,301,0
2012-02-27,301,0
2012-02-28,301,0
2012-02-29,301,0
2012-03-01,301,0
2012-03-02,301,0
2012-03-03,301,0
2012-03-04,301,0
2012-03-05,301,0
2012-03-06,301,0
2012-03-07,301,0
2012-03-08,301,0
2012-03-09,301,0
2012-03-10,301,0
2012-03-11,301,0
2012-03-12,301,0
2012-03-13,301,0
2012-03-14,301,0
2012-03-15,301,0
2012-03-16,301,0
2012-03-17,301,0
2012-03-18,301,0
2012-03-19,301,0
2012-03-20,301,0
2012-03-21,301,0
2012-03-22,301,0
2012-03-23,301,0
2012-03-24,301,0
2012-03-25,301,0
2012-03-26,301,0
2012-03-27,301,0
2012-03-28,301,0
2012-03-29,301,0
2012-03-30,301,0
2012-03-31,301,0
2012-04-01,301,0
2012-04-02,301,0
2012-04-03,301,0
2012-04-04,301,0
2012-04-05,301,0
2012-04-06,301,0
2012-04-07,301,0
2012-04-08,301,0
2012-04-09,301,0
2012-04-10,301,0
2012-04-11,301,0
2012-04-12,301,0
2012-04-13,301,0
2012-04-14,301,0
2012-04-15,301,0
2012-04-16,301,0
2012-04-17,301,0
2012-04-18,301,0
2012-04-19,301,0
2012-04-20,301,0
2012-04-21,301,0
2012-04-22,301,0
2012-04-23,301,0
2012-04-24,301,0
2012-04-25,301,0
2012-04-26,301,0
2012-04-27,301,0
2012-04-28,301,0
2012-04-29,301,0
2012-04-30,301,0
2012-05-01,301,0
2012-05-02,301,0
2012-05-03,301,0
2012-05-04,301,0
2012-05-05,301,0
2012-05-06,301,0
2012-05-07,301,0
2012-05-08,301,0
2012-05-09,301,0
2012-05-10,301,0
2012-05-11,301,0
2012-05-12,301,0
2012-05-13,301,0
2012-05-14,301,0
2012-05-15,301,0
2012-05-16,301,0
2012-05-17,301,0
2012-05-18,301,0
2012-05-19,301,0
2012-05-20,301,0
2012-05-21,301,0
2012-05-22,301,0
2012-05-23,301,0
2012-05-24,301,0
2012-05-25,301,0
2012-05-26,301,0
2012-05-27,301,0
2012-05-28,301,0
2012-05-29,301,0
2012-05-30,301,0
2012-05-31,301,0
2012-06-01,301,0
2012-06-02,301,0
2012-06-03,301,0
2012-06-04,301,0
2012-06-05,301,0
2012-06-06,301,0
2012-06-07,301,0
2012-06-08,301,0
2012-06-09,301,0
2012-06-10,301,0
2012-06-11,301,0
2012-06-12,301,0
2012-06-13,301,0
2012-06-14,301,0
2012-06-15,301,0
2012-06-16,301,0
2012-06-17,301,0
2012-06-18,301,0
2012-06-19,301,0
2012-06-20,301,0
2012-06-21,301,0
2012-06-22,301,0
2012-06-23,301,0
2012-06-24,301,0
2012-06-25,301,0
2012-06-26,301,0
2012-06-27,301,0
2012-06-28,301,0
2012-06-29,301,0
2012-06-30,301,0
2012-07-01,301,0
2012-07-02,301,0
2012-07-03,301,0
2012-07-04,301,0
2012-07-05,301,0
2012-07-06,301,0
2012-07-07,301,0
2012-07-08,301,0
2012-07-09,301,0
2012-07-10,301,0
2012-07-11,301,0
2012-07-12,301,0
2012-07-13,301,0
2012-07-14,301,0
2012-07-15,301,0
2012-07-16,301,0
2012-07-17,301,0
2012-07-18,301,0
2012-07-19,301,0
2012-07-20,301,0
2012-07-21,301,0
2012-07-22,301,0
2012-07-23,301,0
2012-07-24,301,0
2012-07-25,301,0
2012-07-26,301,0
2012-07-27,301,0
2012-07-28,301,0
2012-07-29,301,0
2012-07-30,301,0
2012-07-31,301,0
2012-08-01,301,0
2012-08-02,301,0
2012-08-03,301,0
2012-08-04,301,0
2012-08-05,301,0
2012-08-06,301,0
2012-08-07,301,0
2012-08-08,301,0
2012-08-09,301,0
2012-08-10,301,0
2012-08-11,301,0
2012-08-12,301,0
2012-08-13,301,0
2012-08-14,301,0
2012-08-15,301,0
2012-08-16,301,0
2012-08-17,301,0
2012-08-18,301,0
2012-08-19,301,0
2012-08-20,301,0
2012-08-21,301,0
2012-08-22,301,0
2012-08-23,301,0
2012-08-24,301,0
2012-08-25,301,0
2012-08-26,301,0
2012-08-27,301,0
2012-08-28,301,0
2012-08-29,301,0
2012-08-30,301,0
2012-08-31,301,0
2012-09-01,301,0
2012-09-02,301,0
2012-09-03,301,0
2012-09-04,301,0
2012-09-05,301,0
2012-09-06,301,0
2012-09-07,301,0
2012-09-08,301,0
2012-09-09,301,0
2012-09-10,301,0
2012-09-11,301,0
2012-09-12,301,0
2012-09-13,301,0
2012-09-14,301,0
2012-09-15,301,0
2012-09-16,301,0
2012-09-17,301,0
2012-09-18,301,0
2012-09-19,301,0
2012-09-20,301,0
2012-09-21,301,0
2012-09-22,301,0
2012-09-23,301,0
2012-09-24,301,0
2012-09-25,301,0
2012-09-26,301,0
2012-09-27,301,0
2012-09-28,301,0
2012-09-29,301,0
2012-09-30,301,0
2012-10-01,301,0
2012-10-02,301,0
2012-10-03,301,0
2012-10-04,301,0
2012-10-05,301,0
2012-10-06,301,0
2012-10-07,301,0
2012-10-08,301,0
2012-10-09,301,0
2012-10-10,301,0
2012-10-11,301,0
2012-10-12,301,0
2012-10-13,301,0
2012-10-14,301,0
2012-10-15,301,0
2012-10-16,301,0
2012-10-17,301,0
2012-10-18,301,0
2012-10-19,301,0
2012-10-20,301,0
2012-10-21,301,0
2012-10-22,301,0
2012-10-23,301,0
2012-10-24,301,0
2012-10-25,301,0
2012-10-26,301,0
2012-10-27,301,0
2012-10-28,301,0
2012-10-29,301,0
2012-10-30,301,0
2012-10-31,301,0
2012-11-01,301,0
2012-11-02,301,0
2012-11-03,301,0
2012-11-04,301,0
2012-11-05,301,0
2012-11-06,301,0
2012-11-07,301,0
2012-11-08,301,0
2012-11-09,301,0
2012-11-10,301,0
2012-11-11,301,0
2012-11-12,301,0
2012-11-13,301,0
2012-11-14,301,0
2012-11-15,301,0
2012-11-16,301,0
2012-11-17,301,0
2012-11-18,301,0
2012-11-19,301,0
2012-11-20,301,0
2012-11-21,301,0
2012-11-22,301,0
2012-11-23,301,0
2012-11-24,301,0
2012-11-25,301,0
2012-11-26,301,0
2012-11-27,301,0
2012-11-28,301,0
2012-11-29,301,0
2012-11-30,301,0
2012-12-01,301,0
2012-12-02,301,0
2012-12-03,301,0
2012-12-04,301,0
2012-12-05,301,0
2012-12-06,301,0
2012-12-07,301,0
2012-12-08,301,0
2012-12-09,301,0
2012-12-10,301,0
2012-12-11,301,0
2012-12-12,301,0
2012-12-13,301,0
2012-12-14,301,0
2012-12-15,301,0
2012-12-16,301,0
2012-12-17,301,0
2012-12-18,301,0
2012-12-19,301,0
2012-12-20,301,0
2012-12-21,301,0
2012-12-22,301,0
2012-12-23,301,0
2012-12-24,301,0
2012-12-25,301,0
2012-12-26,301,0
2012-12-27,301,0
2012-12-28,301,0
2012-12-29,301,0
2012-12-30,301,0
2012-12-31,301,0
