Date,Station,Rain Level
2012-01-01,35,0
2012-01-02,35,0
2012-01-03,35,0
2012-01-04,35,0
2012-01-05,35,0
2012-01-06,35,0
2012-01-07,35,0
2012-01-08,35,0
2012-01-09,35,0
2012-01-10,35,0
2012-01-11,35,0
2012-01-12,35,0
2012-01-13,35,0
2012-01-14,35,0
2012-01-15,35,0
2012-01-16,35,0
2012-01-17,35,0
2012-01-18,35,0
2012-01-19,35,0
2012-01-20,35,0
2012-01-21,35,0
2012-01-22,35,0
2012-01-23,35,0
2012-01-24,35,0
2012-01-25,35,0
2012-01-26,35,0
2012-01-27,35,0
2012-01-28,35,0
2012-01-29,35,0
2012-01-30,35,0
2012-01-31,35,0
2012-02-01,35,0
2012-02-02,35,0
2012-02-03,35,0
2012-02-04,35,0
2012-02-05,35,0
2012-02-06,35,0
2012-02-07,35,0
2012-02-08,35,0
2012-02-09,35,0
2012-02-10,35,0
2012-02-11,35,0
2012-02-12,35,0
2012-02-13,35,0
2012-02-14,35,0
2012-02-15,35,0
2012-02-16,35,0
2012-02-17,35,0
2012-02-18,35,0
2012-02-19,35,0
2012-02-20,35,0
2012-02-21,35,0
2012-02-22,35,0
2012-02-23,35,0
2012-02-24,35,0
2012-02-25,35,0
2012-02-26,35,0
2012-02-27,35,0
2012-02-28,35,0
2012-02-29,35,0
2012-03-01,35,0
2012-03-02,35,0
2012-03-03,35,0
2012-03-04,35,0
2012-03-05,35,0
2012-03-06,35,0
2012-03-07,35,0
2012-03-08,35,0
2012-03-09,35,0
2012-03-10,35,0
2012-03-11,35,0
2012-03-12,35,0
2012-03-13,35,0
2012-03-14,35,0
2012-03-15,35,0
2012-03-16,35,0
2012-03-17,35,0
2012-03-18,35,0
2012-03-19,35,0
2012-03-20,35,0
2012-03-21,35,0
2012-03-22,35,0
2012-03-23,35,0
2012-03-24,35,0
2012-03-25,35,0
2012-03-26,35,0
2012-03-27,35,0
2012-03-28,35,0
2012-03-29,35,0
2012-03-30,35,0
2012-03-31,35,0
2012-04-01,35,0
2012-04-02,35,0
2012-04-03,35,0
2012-04-04,35,0
2012-04-05,35,0
2012-04-06,35,0
2012-04-07,35,0
2012-04-08,35,0
2012-04-09,35,0
2012-04-10,35,0
2012-04-11,35,0
2012-04-12,35,0
2012-04-13,35,0
2012-04-14,35,0
2012-04-15,35,0
2012-04-16,35,0
2012-04-17,35,0
2012-04-18,35,0
2012-04-19,35,0
2012-04-20,35,0
2012-04-21,35,0
2012-04-22,35,0
2012-04-23,35,0
2012-04-24,35,0
2012-04-25,35,0
2012-04-26,35,0
2012-04-27,35,0
2012-04-28,35,0
2012-04-29,35,0
2012-04-30,35,0
2012-05-01,35,0
2012-05-02,35,0
2012-05-03,35,0
2012-05-04,35,0
2012-05-05,35,0
2012-05-06,35,0
2012-05-07,35,0
2012-05-08,35,0
2012-05-09,35,0
2012-05-10,35,0
2012-05-11,35,0
2012-05-12,35,0
2012-05-13,35,0
2012-05-14,35,0
2012-05-15,35,0
2012-05-16,35,0
2012-05-17,35,0
2012-05-18,35,0
2012-05-19,35,0
2012-05-20,35,0
2012-05-21,35,0
2012-05-22,35,0
2012-05-23,35,0
2012-05-24,35,0
2012-05-25,35,0
2012-05-26,35,0
2012-05-27,35,0
2012-05-28,35,0
2012-05-29,35,0
2012-05-30,35,0
2012-05-31,35,0
2012-06-01,35,0
2012-06-02,35,0
2012-06-03,35,0
2012-06-04,35,0
2012-06-05,35,0
2012-06-06,35,0
2012-06-07,35,0
2012-06-08,35,0
2012-06-09,35,0
2012-06-10,35,0
2012-06-11,35,0
2012-06-12,35,0
2012-06-13,35,0
2012-06-14,35,0
2012-06-15,35,0
2012-06-16,35,0
2012-06-17,35,0
2012-06-18,35,0
2012-06-19,35,0
2012-06-20,35,0
2012-06-21,35,0
2012-06-22,35,0
2012-06-23,35,0
2012-06-24,35,0
2012-06-25,35,0
2012-06-26,35,0
2012-06-27,35,0
2012-06-28,35,0
2012-06-29,35,0
2012-06-30,35,0
2012-07-01,35,0
2012-07-02,35,0
2012-07-03,35,0
2012-07-04,35,0
2012-07-05,35,0
2012-07-06,35,0
2012-07-07,35,0
2012-07-08,35,0
2012-07-09,35,0
2012-07-10,35,0
2012-07-11,35,0
2012-07-12,35,0
2012-07-13,35,0
2012-07-14,35,0
2012-07-15,35,0
2012-07-16,35,0
2012-07-17,35,0
2012-07-18,35,0
2012-07-19,35,0
2012-07-20,35,0
2012-07-21,35,0
2012-07-22,35,0
2012-07-23,35,0
2012-07-24,35,0
2012-07-25,35,0
2012-07-26,35,0
2012-07-27,35,0
2012-07-28,35,0
2012-07-29,35,0
2012-07-30,35,0
2012-07-31,35,0
2012-08-01,35,0
2012-08-02,35,0
2012-08-03,35,0
2012-08-04,35,0
2012-08-05,35,0
2012-08-06,35,0
2012-08-07,35,0
2012-08-08,35,0
2012-08-09,35,0
2012-08-10,35,0
2012-08-11,35,0
2012-08-12,35,0
2012-08-13,35,0
2012-08-14,35,0
2012-08-15,35,0
2012-08-16,35,0
2012-08-17,35,0
2012-08-18,35,0
2012-08-19,35,0
2012-08-20,35,0
2012-08-21,35,0
2012-08-22,35,0
2012-08-23,35,0
2012-08-24,35,0
2012-08-25,35,0
2012-08-26,35,0
2012-08-27,35,0
2012-08-28,35,0
2012-08-29,35,0
2012-08-30,35,0
2012-08-31,35,0
2012-09-01,35,0
2012-09-02,35,0
2012-09-03,35,0
2012-09-04,35,0
2012-09-05,35,0
2012-09-06,35,0
2012-09-07,35,0
2012-09-08,35,0
2012-09-09,35,0
2012-09-10,35,0
2012-09-11,35,0
2012-09-12,35,0
2012-09-13,35,0
2012-09-14,35,0
2012-09-15,35,0
2012-09-16,35,0
2012-09-17,35,0
2012-09-18,35,0
2012-09-19,35,0
2012-09-20,35,0
2012-09-21,35,0
2012-09-22,35,0
2012-09-23,35,0
2012-09-24,35,0
2012-09-25,35,0
2012-09-26,35,0
2012-09-27,35,0
2012-09-28,35,0
2012-09-29,35,0
2012-09-30,35,0
2012-10-01,35,0
2012-10-02,35,0
2012-10-03,35,0
2012-10-04,35,0
2012-10-05,35,0
2012-10-06,35,0
2012-10-07,35,0
2012-10-08,35,0
2012-10-09,35,0
2012-10-10,35,0
2012-10-11,35,0
2012-10-12,35,0
2012-10-13,35,0
2012-10-14,35,0
2012-10-15,35,0
2012-10-16,35,0
2012-10-17,35,0
2012-10-18,35,0
2012-10-19,35,0
2012-10-20,35,0
2012-10-21,35,0
2012-10-22,35,0
2012-10-23,35,0
2012-10-24,35,0
2012-10-25,35,0
2012-10-26,35,0
2012-10-27,35,0
2012-10-28,35,0
2012-10-29,35,0
2012-10-30,35,0
2012-10-31,35,0
2012-11-01,35,0
2012-11-02,35,0
2012-11-03,35,0
2012-11-04,35,0
2012-11-05,35,0
2012-11-06,35,0
2012-11-07,35,0
2012-11-08,35,0
2012-11-09,35,0
2012-11-10,35,0
2012-11-11,35,0
2012-11-12,35,0
2012-11-13,35,0
2012-11-14,35,0
2012-11-15,35,0
2012-11-16,35,0
2012-11-17,35,0
2012-11-18,35,0
2012-11-19,35,0
2012-11-20,35,0
2012-11-21,35,0
2012-11-22,35,0
2012-11-23,35,0
2012-11-24,35,0
2012-11-25,35,0
2012-11-26,35,0
2012-11-27,35,0
2012-11-28,35,0
2012-11-29,35,0
2012-11-30,35,0
2012-12-01,35,0
2012-12-02,35,0
2012-12-03,35,0
2012-12-04,35,0
2012-12-05,35,0
2012-12-06,35,0
2012-12-07,35,0
2012-12-08,35,0
2012-12-09,35,0
2012-12-10,35,0
2012-12-11,35,0
2012-12-12,35,0
2012-12-13,35,0
2012-12-14,35,0
2012-12-15,35,0
2012-12-16,35,0
2012-12-17,35,0
2012-12-18,35,0
2012-12-19,35,0
2012-12-20,35,0
2012-12-21,35,0
2012-12-22,35,0
2012-12-23,35,0
2012-12-24,35,0
2012-12-25,35,0
2012-12-26,35,0
2012-12-27,35,0
2012-12-28,35,0
2012-12-29,35,0
2012-12-30,35,0
2012-12-31,35,0
