Date,Station,Rain Level
2012-01-01,93,0
2012-01-02,93,0
2012-01-03,93,0
2012-01-04,93,0
2012-01-05,93,0
2012-01-06,93,0
2012-01-07,93,0
2012-01-08,93,0
2012-01-09,93,0
2012-01-10,93,0
2012-01-11,93,0
2012-01-12,93,0
2012-01-13,93,0
2012-01-14,93,0
2012-01-15,93,0
2012-01-16,93,0
2012-01-17,93,0
2012-01-18,93,0
2012-01-19,93,0
2012-01-20,93,0
2012-01-21,93,0
2012-01-22,93,0
2012-01-23,93,0
2012-01-24,93,0
2012-01-25,93,0
2012-01-26,93,0
2012-01-27,93,0
2012-01-28,93,0
2012-01-29,93,0
2012-01-30,93,0
2012-01-31,93,0
2012-02-01,93,0
2012-02-02,93,0
2012-02-03,93,0
2012-02-04,93,0
2012-02-05,93,0
2012-02-06,93,0
2012-02-07,93,0
2012-02-08,93,0
2012-02-09,93,0
2012-02-10,93,0
2012-02-11,93,0
2012-02-12,93,0
2012-02-13,93,0
2012-02-14,93,0
2012-02-15,93,0
2012-02-16,93,0
2012-02-17,93,0
2012-02-18,93,0
2012-02-19,93,0
2012-02-20,93,0
2012-02-21,93,0
2012-02-22,93,0
2012-02-23,93,0
2012-02-24,93,0
2012-02-25,93,0
2012-02-26,93,0
2012-02-27,93,0
2012-02-28,93,0
2012-02-29,93,0
2012-03-01,93,0
2012-03-02,93,0
2012-03-03,93,0
2012-03-04,93,0
2012-03-05,93,0
2012-03-06,93,0
2012-03-07,93,0
2012-03-08,93,0
2012-03-09,93,0
2012-03-10,93,0
2012-03-11,93,0
2012-03-12,93,0
2012-03-13,93,0
2012-03-14,93,0
2012-03-15,93,0
2012-03-16,93,0
2012-03-17,93,0
2012-03-18,93,0
2012-03-19,93,0
2012-03-20,93,0
2012-03-21,93,0
2012-03-22,93,0
2012-03-23,93,0
2012-03-24,93,0
2012-03-25,93,0
2012-03-26,93,0
2012-03-27,93,0
2012-03-28,93,0
2012-03-29,93,0
2012-03-30,93,0
2012-03-31,93,0
2012-04-01,93,0
2012-04-02,93,0
2012-04-03,93,0
2012-04-04,93,0
2012-04-05,93,0
2012-04-06,93,0
2012-04-07,93,0
2012-04-08,93,0
2012-04-09,93,0
2012-04-10,93,0
2012-04-11,93,0
2012-04-12,93,0
2012-04-13,93,0
2012-04-14,93,0
2012-04-15,93,0
2012-04-16,93,0
2012-04-17,93,0
2012-04-18,93,0
2012-04-19,93,0
2012-04-20,93,0
2012-04-21,93,0
2012-04-22,93,0
2012-04-23,93,0
2012-04-24,93,0
2012-04-25,93,0
2012-04-26,93,0
2012-04-27,93,0
2012-04-28,93,0
2012-04-29,93,0
2012-04-30,93,0
2012-05-01,93,0
2012-05-02,93,0
2012-05-03,93,0
2012-05-04,93,0
2012-05-05,93,0
2012-05-06,93,0
2012-05-07,93,0
2012-05-08,93,0
2012-05-09,93,0
2012-05-10,93,0
2012-05-11,93,0
2012-05-12,93,0
2012-05-13,93,0
2012-05-14,93,0
2012-05-15,93,0
2012-05-16,93,0
2012-05-17,93,0
2012-05-18,93,0
2012-05-19,93,0
2012-05-20,93,0
2012-05-21,93,0
2012-05-22,93,0
2012-05-23,93,0
2012-05-24,93,0
2012-05-25,93,0
2012-05-26,93,0
2012-05-27,93,0
2012-05-28,93,0
2012-05-29,93,0
2012-05-30,93,0
2012-05-31,93,0
2012-06-01,93,0
2012-06-02,93,0
2012-06-03,93,0
2012-06-04,93,0
2012-06-05,93,0
2012-06-06,93,0
2012-06-07,93,0
2012-06-08,93,0
2012-06-09,93,0
2012-06-10,93,0
2012-06-11,93,0
2012-06-12,93,0
2012-06-13,93,0
2012-06-14,93,0
2012-06-15,93,0
2012-06-16,93,0
2012-06-17,93,0
2012-06-18,93,0
2012-06-19,93,0
2012-06-20,93,0
2012-06-21,93,0
2012-06-22,93,0
2012-06-23,93,0
2012-06-24,93,0
2012-06-25,93,0
2012-06-26,93,0
2012-06-27,93,0
2012-06-28,93,0
2012-06-29,93,0
2012-06-30,93,0
2012-07-01,93,0
2012-07-02,93,0
2012-07-03,93,0
2012-07-04,93,0
2012-07-05,93,0
2012-07-06,93,0
2012-07-07,93,0
2012-07-08,93,0
2012-07-09,93,0
2012-07-10,93,0
2012-07-11,93,0
2012-07-12,93,0
2012-07-13,93,0
2012-07-14,93,0
2012-07-15,93,0
2012-07-16,93,0
2012-07-17,93,0
2012-07-18,93,0
2012-07-19,93,0
2012-07-20,93,0
2012-07-21,93,0
2012-07-22,93,0
2012-07-23,93,0
2012-07-24,93,0
2012-07-25,93,0
2012-07-26,93,0
2012-07-27,93,0
2012-07-28,93,0
2012-07-29,93,0
2012-07-30,93,0
2012-07-31,93,0
2012-08-01,93,0
2012-08-02,93,0
2012-08-03,93,0
2012-08-04,93,0
2012-08-05,93,0
2012-08-06,93,0
2012-08-07,93,0
2012-08-08,93,0
2012-08-09,93,0
2012-08-10,93,0
2012-08-11,93,0
2012-08-12,93,0
2012-08-13,93,0
2012-08-14,93,0
2012-08-15,93,0
2012-08-16,93,0
2012-08-17,93,0
2012-08-18,93,0
2012-08-19,93,0
2012-08-20,93,0
2012-08-21,93,0
2012-08-22,93,0
2012-08-23,93,0
2012-08-24,93,0
2012-08-25,93,0
2012-08-26,93,0
2012-08-27,93,0
2012-08-28,93,0
2012-08-29,93,0
2012-08-30,93,0
2012-08-31,93,0
2012-09-01,93,0
2012-09-02,93,0
2012-09-03,93,0
2012-09-04,93,0
2012-09-05,93,0
2012-09-06,93,0
2012-09-07,93,0
2012-09-08,93,0
2012-09-09,93,0
2012-09-10,93,0
2012-09-11,93,0
2012-09-12,93,0
2012-09-13,93,0
2012-09-14,93,0
2012-09-15,93,0
2012-09-16,93,0
2012-09-17,93,0
2012-09-18,93,0
2012-09-19,93,0
2012-09-20,93,0
2012-09-21,93,0
2012-09-22,93,0
2012-09-23,93,0
2012-09-24,93,0
2012-09-25,93,0
2012-09-26,93,0
2012-09-27,93,0
2012-09-28,93,0
2012-09-29,93,0
2012-09-30,93,0
2012-10-01,93,0
2012-10-02,93,0
2012-10-03,93,0
2012-10-04,93,0
2012-10-05,93,0
2012-10-06,93,0
2012-10-07,93,0
2012-10-08,93,0
2012-10-09,93,0
2012-10-10,93,0
2012-10-11,93,0
2012-10-12,93,0
2012-10-13,93,0
2012-10-14,93,0
2012-10-15,93,0
2012-10-16,93,0
2012-10-17,93,0
2012-10-18,93,0
2012-10-19,93,0
2012-10-20,93,0
2012-10-21,93,0
2012-10-22,93,0
2012-10-23,93,0
2012-10-24,93,0
2012-10-25,93,0
2012-10-26,93,0
2012-10-27,93,0
2012-10-28,93,0
2012-10-29,93,0
2012-10-30,93,0
2012-10-31,93,0
2012-11-01,93,0
2012-11-02,93,0
2012-11-03,93,0
2012-11-04,93,0
2012-11-05,93,0
2012-11-06,93,0
2012-11-07,93,0
2012-11-08,93,0
2012-11-09,93,0
2012-11-10,93,0
2012-11-11,93,0
2012-11-12,93,0
2012-11-13,93,0
2012-11-14,93,0
2012-11-15,93,0
2012-11-16,93,0
2012-11-17,93,0
2012-11-18,93,0
2012-11-19,93,0
2012-11-20,93,0
2012-11-21,93,0
2012-11-22,93,0
2012-11-23,93,0
2012-11-24,93,0
2012-11-25,93,0
2012-11-26,93,0
2012-11-27,93,0
2012-11-28,93,0
2012-11-29,93,0
2012-11-30,93,0
2012-12-01,93,0
2012-12-02,93,0
2012-12-03,93,0
2012-12-04,93,0
2012-12-05,93,0
2012-12-06,93,0
2012-12-07,93,0
2012-12-08,93,0
2012-12-09,93,0
2012-12-10,93,0
2012-12-11,93,0
2012-12-12,93,0
2012-12-13,93,0
2012-12-14,93,0
2012-12-15,93,0
2012-12-16,93,0
2012-12-17,93,0
2012-12-18,93,0
2012-12-19,93,0
2012-12-20,93,0
2012-12-21,93,0
2012-12-22,93,0
2012-12-23,93,0
2012-12-24,93,0
2012-12-25,93,0
2012-12-26,93,0
2012-12-27,93,0
2012-12-28,93,0
2012-12-29,93,0
2012-12-30,93,0
2012-12-31,93,0
