Date,Station,Rain Level
2011-01-01,92,0
2011-01-02,92,0
2011-01-03,92,0
2011-01-04,92,0
2011-01-05,92,0
2011-01-06,92,0
2011-01-07,92,0
2011-01-08,92,0
2011-01-09,92,0
2011-01-10,92,0
2011-01-11,92,0
2011-01-12,92,0
2011-01-13,92,0
2011-01-14,92,0
2011-01-15,92,0
2011-01-16,92,0
2011-01-17,92,0
2011-01-18,92,0
2011-01-19,92,0
2011-01-20,92,0
2011-01-21,92,0
2011-01-22,92,0
2011-01-23,92,0
2011-01-24,92,0
2011-01-25,92,0
2011-01-26,92,0
2011-01-27,92,0
2011-01-28,92,0
2011-01-29,92,0
2011-01-30,92,0
2011-01-31,92,0
2011-02-01,92,0
2011-02-02,92,0
2011-02-03,92,0
2011-02-04,92,0
2011-02-05,92,0
2011-02-06,92,0
2011-02-07,92,0
2011-02-08,92,0
2011-02-09,92,0
2011-02-10,92,0
2011-02-11,92,0
2011-02-12,92,0
2011-02-13,92,0
2011-02-14,92,0
2011-02-15,92,0
2011-02-16,92,0
2011-02-17,92,0
2011-02-18,92,0
2011-02-19,92,0
2011-02-20,92,0
2011-02-21,92,0
2011-02-22,92,0
2011-02-23,92,0
2011-02-24,92,0
2011-02-25,92,0
2011-02-26,92,0
2011-02-27,92,0
2011-02-28,92,0
2011-03-01,92,0
2011-03-02,92,0
2011-03-03,92,0
2011-03-04,92,0
2011-03-05,92,0
2011-03-06,92,0
2011-03-07,92,0
2011-03-08,92,0
2011-03-09,92,0
2011-03-10,92,0
2011-03-11,92,0
2011-03-12,92,0
2011-03-13,92,0
2011-03-14,92,0
2011-03-15,92,0
2011-03-16,92,0
2011-03-17,92,0
2011-03-18,92,0
2011-03-19,92,0
2011-03-20,92,0
2011-03-21,92,0
2011-03-22,92,0
2011-03-23,92,0
2011-03-24,92,0
2011-03-25,92,0
2011-03-26,92,0
2011-03-27,92,0
2011-03-28,92,0
2011-03-29,92,0
2011-03-30,92,0
2011-03-31,92,0
2011-04-01,92,0
2011-04-02,92,0
2011-04-03,92,0
2011-04-04,92,0
2011-04-05,92,0
2011-04-06,92,0
2011-04-07,92,0
2011-04-08,92,0
2011-04-09,92,0
2011-04-10,92,0
2011-04-11,92,0
2011-04-12,92,0
2011-04-13,92,0
2011-04-14,92,0
2011-04-15,92,0
2011-04-16,92,0
2011-04-17,92,0
2011-04-18,92,0
2011-04-19,92,0
2011-04-20,92,0
2011-04-21,92,0
2011-04-22,92,0
2011-04-23,92,0
2011-04-24,92,0
2011-04-25,92,0
2011-04-26,92,0
2011-04-27,92,0
2011-04-28,92,0
2011-04-29,92,0
2011-04-30,92,0
2011-05-01,92,0
2011-05-02,92,0
2011-05-03,92,0
2011-05-04,92,0
2011-05-05,92,0
2011-05-06,92,0
2011-05-07,92,0
2011-05-08,92,0
2011-05-09,92,0
2011-05-10,92,0
2011-05-11,92,0
2011-05-12,92,0
2011-05-13,92,0
2011-05-14,92,0
2011-05-15,92,0
2011-05-16,92,0
2011-05-17,92,0
2011-05-18,92,0
2011-05-19,92,0
2011-05-20,92,0
2011-05-21,92,0
2011-05-22,92,0
2011-05-23,92,0
2011-05-24,92,0
2011-05-25,92,0
2011-05-26,92,0
2011-05-27,92,0
2011-05-28,92,0
2011-05-29,92,0
2011-05-30,92,0
2011-05-31,92,0
2011-06-01,92,0
2011-06-02,92,0
2011-06-03,92,0
2011-06-04,92,0
2011-06-05,92,0
2011-06-06,92,0
2011-06-07,92,0
2011-06-08,92,0
2011-06-09,92,0
2011-06-10,92,0
2011-06-11,92,0
2011-06-12,92,0
2011-06-13,92,0
2011-06-14,92,0
2011-06-15,92,0
2011-06-16,92,0
2011-06-17,92,0
2011-06-18,92,0
2011-06-19,92,0
2011-06-20,92,0
2011-06-21,92,0
2011-06-22,92,0
2011-06-23,92,0
2011-06-24,92,0
2011-06-25,92,0
2011-06-26,92,0
2011-06-27,92,0
2011-06-28,92,0
2011-06-29,92,0
2011-06-30,92,0
2011-07-01,92,0
2011-07-02,92,0
2011-07-03,92,0
2011-07-04,92,0
2011-07-05,92,0
2011-07-06,92,0
2011-07-07,92,0
2011-07-08,92,0
2011-07-09,92,0
2011-07-10,92,0
2011-07-11,92,0
2011-07-12,92,0
2011-07-13,92,0
2011-07-14,92,0
2011-07-15,92,0
2011-07-16,92,0
2011-07-17,92,0
2011-07-18,92,0
2011-07-19,92,0
2011-07-20,92,0
2011-07-21,92,0
2011-07-22,92,0
2011-07-23,92,0
2011-07-24,92,0
2011-07-25,92,0
2011-07-26,92,0
2011-07-27,92,0
2011-07-28,92,0
2011-07-29,92,0
2011-07-30,92,0
2011-07-31,92,0
2011-08-01,92,0
2011-08-02,92,0
2011-08-03,92,0
2011-08-04,92,0
2011-08-05,92,0
2011-08-06,92,0
2011-08-07,92,0
2011-08-08,92,0
2011-08-09,92,0
2011-08-10,92,0
2011-08-11,92,0
2011-08-12,92,0
2011-08-13,92,0
2011-08-14,92,0
2011-08-15,92,0
2011-08-16,92,0
2011-08-17,92,0
2011-08-18,92,0
2011-08-19,92,0
2011-08-20,92,0
2011-08-21,92,0
2011-08-22,92,0
2011-08-23,92,0
2011-08-24,92,0
2011-08-25,92,0
2011-08-26,92,0
2011-08-27,92,0
2011-08-28,92,0
2011-08-29,92,0
2011-08-30,92,0
2011-08-31,92,0
2011-09-01,92,0
2011-09-02,92,0
2011-09-03,92,0
2011-09-04,92,0
2011-09-05,92,0
2011-09-06,92,0
2011-09-07,92,0
2011-09-08,92,0
2011-09-09,92,0
2011-09-10,92,0
2011-09-11,92,0
2011-09-12,92,0
2011-09-13,92,0
2011-09-14,92,0
2011-09-15,92,0
2011-09-16,92,0
2011-09-17,92,0
2011-09-18,92,0
2011-09-19,92,0
2011-09-20,92,0
2011-09-21,92,0
2011-09-22,92,0
2011-09-23,92,0
2011-09-24,92,0
2011-09-25,92,0
2011-09-26,92,0
2011-09-27,92,0
2011-09-28,92,0
2011-09-29,92,0
2011-09-30,92,0
2011-10-01,92,0
2011-10-02,92,0
2011-10-03,92,0
2011-10-04,92,0
2011-10-05,92,0
2011-10-06,92,0
2011-10-07,92,0
2011-10-08,92,0
2011-10-09,92,0
2011-10-10,92,0
2011-10-11,92,0
2011-10-12,92,0
2011-10-13,92,0
2011-10-14,92,0
2011-10-15,92,0
2011-10-16,92,0
2011-10-17,92,0
2011-10-18,92,0
2011-10-19,92,0
2011-10-20,92,0
2011-10-21,92,0
2011-10-22,92,0
2011-10-23,92,0
2011-10-24,92,0
2011-10-25,92,0
2011-10-26,92,0
2011-10-27,92,0
2011-10-28,92,0
2011-10-29,92,0
2011-10-30,92,0
2011-10-31,92,0
2011-11-01,92,0
2011-11-02,92,0
2011-11-03,92,0
2011-11-04,92,0
2011-11-05,92,0
2011-11-06,92,0
2011-11-07,92,0
2011-11-08,92,0
2011-11-09,92,0
2011-11-10,92,0
2011-11-11,92,0
2011-11-12,92,0
2011-11-13,92,0
2011-11-14,92,0
2011-11-15,92,0
2011-11-16,92,0
2011-11-17,92,0
2011-11-18,92,0
2011-11-19,92,0
2011-11-20,92,0
2011-11-21,92,0
2011-11-22,92,0
2011-11-23,92,0
2011-11-24,92,0
2011-11-25,92,0
2011-11-26,92,0
2011-11-27,92,0
2011-11-28,92,0
2011-11-29,92,0
2011-11-30,92,0
2011-12-01,92,0
2011-12-02,92,0
2011-12-03,92,0
2011-12-04,92,0
2011-12-05,92,0
2011-12-06,92,0
2011-12-07,92,0
2011-12-08,92,0
2011-12-09,92,0
2011-12-10,92,0
2011-12-11,92,0
2011-12-12,92,0
2011-12-13,92,0
2011-12-14,92,0
2011-12-15,92,0
2011-12-16,92,0
2011-12-17,92,0
2011-12-18,92,0
2011-12-19,92,0
2011-12-20,92,0
2011-12-21,92,0
2011-12-22,92,0
2011-12-23,92,0
2011-12-24,92,0
2011-12-25,92,0
2011-12-26,92,0
2011-12-27,92,0
2011-12-28,92,0
2011-12-29,92,0
2011-12-30,92,0
2011-12-31,92,0
