Date,Station,Rain Level
2017-01-01,301,0.0
2017-01-02,301,0.0
2017-01-03,301,0.0
2017-01-04,301,0.0
2017-01-05,301,0.0
2017-01-06,301,0.0
2017-01-07,301,0.0
2017-01-08,301,0.0
2017-01-09,301,0.0
2017-01-10,301,0.0
2017-01-11,301,0.0
2017-01-12,301,0.0
2017-01-13,301,0.0
2017-01-14,301,0.0
2017-01-15,301,0.0
2017-01-16,301,0.0
2017-01-17,301,0.0
2017-01-18,301,0.0
2017-01-19,301,0.0
2017-01-20,301,0.0
2017-01-21,301,0.0
2017-01-22,301,0.0
2017-01-23,301,0.0
2017-01-24,301,0.0
2017-01-25,301,0.0
2017-01-26,301,0.0
2017-01-27,301,0.0
2017-01-28,301,0.0
2017-01-29,301,0.0
2017-01-30,301,0.0
2017-01-31,301,0.0
2017-02-01,301,0.0
2017-02-02,301,0.0
2017-02-03,301,0.0
2017-02-04,301,0.0
2017-02-05,301,0.0
2017-02-06,301,0.0
2017-02-07,301,0.0
2017-02-08,301,0.0
2017-02-09,301,0.0
2017-02-10,301,0.0
2017-02-11,301,0.0
2017-02-12,301,0.0
2017-02-13,301,0.0
2017-02-14,301,0.0
2017-02-15,301,0.0
2017-02-16,301,0.0
2017-02-17,301,0.0
2017-02-18,301,0.0
2017-02-19,301,0.0
2017-02-20,301,0.0
2017-02-21,301,0.0
2017-02-22,301,0.0
2017-02-23,301,0.0
2017-02-24,301,0.0
2017-02-25,301,0.0
2017-02-26,301,0.0
2017-02-27,301,0.0
2017-02-28,301,0.0
2017-03-01,301,0.0
2017-03-02,301,0.0
2017-03-03,301,0.0
2017-03-04,301,0.0
2017-03-05,301,0.0
2017-03-06,301,0.0
2017-03-07,301,0.0
2017-03-08,301,0.0
2017-03-09,301,0.0
2017-03-10,301,0.0
2017-03-11,301,0.0
2017-03-12,301,0.0
2017-03-13,301,0.0
2017-03-14,301,0.0
2017-03-15,301,0.0
2017-03-16,301,0.0
2017-03-17,301,0.0
2017-03-18,301,0.0
2017-03-19,301,0.0
2017-03-20,301,0.0
2017-03-21,301,0.0
2017-03-22,301,0.0
2017-03-23,301,0.0
2017-03-24,301,0.0
2017-03-25,301,0.0
2017-03-26,301,0.0
2017-03-27,301,0.0
2017-03-28,301,0.0
2017-03-29,301,0.0
2017-03-30,301,0.0
2017-03-31,301,0.0
2017-04-01,301,0.0
2017-04-02,301,0.0
2017-04-03,301,0.0
2017-04-04,301,0.0
2017-04-05,301,0.0
2017-04-06,301,0.0
2017-04-07,301,0.0
2017-04-08,301,0.0
2017-04-09,301,0.0
2017-04-10,301,0.0
2017-04-11,301,0.0
2017-04-12,301,0.0
2017-04-13,301,0.0
2017-04-14,301,0.0
2017-04-15,301,0.0
2017-04-16,301,0.0
2017-04-17,301,0.0
2017-04-18,301,0.0
2017-04-19,301,0.0
2017-04-20,301,0.0
2017-04-21,301,0.0
2017-04-22,301,0.0
2017-04-23,301,0.0
2017-04-24,301,0.0
2017-04-25,301,0.0
2017-04-26,301,0.0
2017-04-27,301,0.0
2017-04-28,301,0.0
2017-04-29,301,0.0
2017-04-30,301,0.0
2017-05-01,301,0.0
2017-05-02,301,0.0
2017-05-03,301,0.0
2017-05-04,301,0.0
2017-05-05,301,0.0
2017-05-06,301,0.0
2017-05-07,301,0.0
2017-05-08,301,0.0
2017-05-09,301,0.0
2017-05-10,301,0.0
2017-05-11,301,0.0
2017-05-12,301,0.0
2017-05-13,301,0.0
2017-05-14,301,0.0
2017-05-15,301,0.0
2017-05-16,301,0.0
2017-05-17,301,0.0
2017-05-18,301,0.0
2017-05-19,301,0.0
2017-05-20,301,0.0
2017-05-21,301,0.0
2017-05-22,301,0.0
2017-05-23,301,0.0
2017-05-24,301,0.0
2017-05-25,301,0.0
2017-05-26,301,0.0
2017-05-27,301,0.0
2017-05-28,301,0.0
2017-05-29,301,0.0
2017-05-30,301,0.0
2017-05-31,301,0.0
2017-06-01,301,0.0
2017-06-02,301,0.0
2017-06-03,301,0.0
2017-06-04,301,0.0
2017-06-05,301,0.0
2017-06-06,301,0.0
2017-06-07,301,0.0
2017-06-08,301,0.0
2017-06-09,301,0.0
2017-06-10,301,0.0
2017-06-11,301,0.0
2017-06-12,301,0.0
2017-06-13,301,0.0
2017-06-14,301,0.0
2017-06-15,301,0.0
2017-06-16,301,0.0
2017-06-17,301,0.0
2017-06-18,301,0.0
2017-06-19,301,0.0
2017-06-20,301,0.0
2017-06-21,301,0.0
2017-06-22,301,0.0
2017-06-23,301,0.0
2017-06-24,301,0.0
2017-06-25,301,0.0
2017-06-26,301,0.0
2017-06-27,301,0.0
2017-06-28,301,0.0
2017-06-29,301,0.0
2017-06-30,301,0.0
2017-07-01,301,0.0
2017-07-02,301,0.0
2017-07-03,301,0.0
2017-07-04,301,0.0
2017-07-05,301,0.0
2017-07-06,301,0.0
2017-07-07,301,0.0
2017-07-08,301,0.0
2017-07-09,301,0.0
2017-07-10,301,0.0
2017-07-11,301,0.0
2017-07-12,301,0.0
2017-07-13,301,0.0
2017-07-14,301,0.0
2017-07-15,301,0.0
2017-07-16,301,0.0
2017-07-17,301,0.0
2017-07-18,301,0.0
2017-07-19,301,0.0
2017-07-20,301,0.0
2017-07-21,301,0.0
2017-07-22,301,0.0
2017-07-23,301,0.0
2017-07-24,301,0.0
2017-07-25,301,0.0
2017-07-26,301,0.0
2017-07-27,301,0.0
2017-07-28,301,0.0
2017-07-29,301,0.0
2017-07-30,301,0.0
2017-07-31,301,0.0
2017-08-01,301,0.0
2017-08-02,301,0.0
2017-08-03,301,0.0
2017-08-04,301,0.0
2017-08-05,301,0.0
2017-08-06,301,0.0
2017-08-07,301,0.0
2017-08-08,301,0.0
2017-08-09,301,0.0
2017-08-10,301,0.0
2017-08-11,301,0.0
2017-08-12,301,0.0
2017-08-13,301,0.0
2017-08-14,301,0.0
2017-08-15,301,0.0
2017-08-16,301,0.0
2017-08-17,301,0.0
2017-08-18,301,0.0
2017-08-19,301,0.0
2017-08-20,301,0.0
2017-08-21,301,0.0
2017-08-22,301,0.0
2017-08-23,301,0.0
2017-08-24,301,0.0
2017-08-25,301,0.0
2017-08-26,301,0.0
2017-08-27,301,0.0
2017-08-28,301,0.0
2017-08-29,301,0.0
2017-08-30,301,0.0
2017-08-31,301,0.0
2017-09-01,301,0.0
2017-09-02,301,0.0
2017-09-03,301,0.0
2017-09-04,301,0.0
2017-09-05,301,0.0
2017-09-06,301,0.0
2017-09-07,301,0.0
2017-09-08,301,0.0
2017-09-09,301,0.0
2017-09-10,301,0.0
2017-09-11,301,0.0
2017-09-12,301,0.0
2017-09-13,301,0.0
2017-09-14,301,0.0
2017-09-15,301,0.0
2017-09-16,301,0.0
2017-09-17,301,0.0
2017-09-18,301,0.0
2017-09-19,301,0.0
2017-09-20,301,0.0
2017-09-21,301,0.0
2017-09-22,301,0.0
2017-09-23,301,0.0
2017-09-24,301,0.0
2017-09-25,301,0.0
2017-09-26,301,0.0
2017-09-27,301,0.0
2017-09-28,301,0.0
2017-09-29,301,0.0
2017-09-30,301,0.0
2017-10-01,301,0.0
2017-10-02,301,0.0
2017-10-03,301,0.0
2017-10-04,301,0.0
2017-10-05,301,0.0
2017-10-06,301,0.0
2017-10-07,301,0.0
2017-10-08,301,0.0
2017-10-09,301,0.0
2017-10-10,301,0.0
2017-10-11,301,0.0
2017-10-12,301,0.0
2017-10-13,301,0.0
2017-10-14,301,0.0
2017-10-15,301,0.0
2017-10-16,301,0.0
2017-10-17,301,0.0
2017-10-18,301,0.0
2017-10-19,301,0.0
2017-10-20,301,0.0
2017-10-21,301,0.0
2017-10-22,301,0.0
2017-10-23,301,0.0
2017-10-24,301,0.0
2017-10-25,301,0.0
2017-10-26,301,0.0
2017-10-27,301,0.0
2017-10-28,301,0.0
2017-10-29,301,0.0
2017-10-30,301,0.0
2017-10-31,301,0.0
2017-11-01,301,0.0
2017-11-02,301,0.0
2017-11-03,301,0.0
2017-11-04,301,0.0
2017-11-05,301,0.0
2017-11-06,301,0.0
2017-11-07,301,0.0
2017-11-08,301,0.0
2017-11-09,301,0.0
2017-11-10,301,0.0
2017-11-11,301,0.0
2017-11-12,301,0.0
2017-11-13,301,0.0
2017-11-14,301,0.0
2017-11-15,301,0.0
2017-11-16,301,0.0
2017-11-17,301,0.0
2017-11-18,301,0.0
2017-11-19,301,0.0
2017-11-20,301,0.0
2017-11-21,301,0.0
2017-11-22,301,0.0
2017-11-23,301,0.0
2017-11-24,301,0.0
2017-11-25,301,0.0
2017-11-26,301,0.0
2017-11-27,301,0.0
2017-11-28,301,0.0
2017-11-29,301,0.0
2017-11-30,301,0.0
2017-12-01,301,0.0
2017-12-02,301,0.0
2017-12-03,301,0.0
2017-12-04,301,0.0
2017-12-05,301,0.0
2017-12-06,301,0.0
2017-12-07,301,0.0
2017-12-08,301,0.0
2017-12-09,301,0.0
2017-12-10,301,0.0
2017-12-11,301,0.0
2017-12-12,301,0.0
2017-12-13,301,0.0
2017-12-14,301,0.0
2017-12-15,301,0.02
2017-12-16,301,0.0
2017-12-17,301,0.0
2017-12-18,301,0.02
2017-12-19,301,0.0
2017-12-20,301,0.8699999999999999
2017-12-21,301,0.77
2017-12-22,301,1.07
2017-12-23,301,6.42
2017-12-24,301,7.659999999999999
2017-12-25,301,1.7600000000000002
2017-12-26,301,0.0
2017-12-27,301,0.02
2017-12-28,301,9.65
2017-12-29,301,0.03
2017-12-30,301,5.57
2017-12-31,301,5.04
